Division,WeightClassKg,Place,Name,Team,BodyweightKg,Best3SquatKg,Best3BenchKg,Best3DeadliftKg,TotalKg,Equipment,Event,Sex
Boys,51.71,1,Cody Villa,Crawford,51.53,136.08,83.91,172.37,392.36,Single-ply,SBD,M
Boys,55.79,2,Will Miller,Dawson,51.8,108.86,56.7,115.67,281.23,Single-ply,SBD,M
Boys,51.71,3,Michael Smagghe,Fairfield,49.8,111.13,61.23,106.59,278.96,Single-ply,SBD,M
Boys,51.71,4,Cody Betser,Fairfield,49.8,102.06,52.16,117.93,272.16,Single-ply,SBD,M
Boys,51.71,5,Jeffery Wood,Valley Mills,42.73,90.72,43.09,86.18,219.99,Single-ply,SBD,M
Boys,51.71,6,Austin McKain,Valley Mills,43.36,86.18,40.82,83.91,210.92,Single-ply,SBD,M
Boys,51.71,7,Daylan Wiethorn,West,49.08,63.5,45.36,90.72,199.58,Single-ply,SBD,M
Boys,59.87,1,Alex Hart,Clifton,55.97,124.74,63.5,124.74,312.98,Single-ply,SBD,M
Boys,55.79,2,Sam Aguire,Bruceville-Eddy,55.61,102.06,65.77,120.2,288.03,Single-ply,SBD,M
Boys,55.79,3,John Mendoza,Moody,54.7,102.06,61.23,120.2,283.5,Single-ply,SBD,M
Boys,55.79,4,Emiliano Mar,Clifton,53.52,111.13,52.16,115.67,278.96,Single-ply,SBD,M
Boys,55.79,5,Bobby Adams,Riesel,53.98,92.99,58.97,95.25,247.21,Single-ply,SBD,M
Boys,55.79,6,Jordan Whicker,Valley Mills,54.98,90.72,43.09,102.06,235.87,Single-ply,SBD,M
Boys,55.79,DQ,Tyrek Landry,Fairfield,52.71,,49.9,97.52,,Single-ply,SBD,M
Boys,67.13,1,Kyle Jacobs,McGregor,60.1,136.08,97.52,136.08,369.68,Single-ply,SBD,M
Boys,59.87,2,Colton Bauer,Lorena,59.78,124.74,77.11,136.08,337.93,Single-ply,SBD,M
Boys,67.13,3,Nathaniel Aviles,Bruceville-Eddy,60.1,120.2,72.57,129.27,322.05,Single-ply,SBD,M
Boys,59.87,4,Nolan Jackson,Lorena,59.42,115.67,65.77,117.93,299.37,Single-ply,SBD,M
Boys,59.87,5,Brandon Putnam,Moody,57.7,88.45,74.84,83.91,247.21,Single-ply,SBD,M
Boys,59.87,DQ,Gage Childs,Lorena,56.7,106.59,,115.67,,Single-ply,SBD,M
Boys,59.87,DQ,Luis Juarez,Bosqueville,58.06,163.29,,190.51,,Single-ply,SBD,M
Boys,74.84,1,Dylan Haralson,Axtell,67.31,219.99,88.45,213.19,521.63,Single-ply,SBD,M
Boys,74.84,2,Dakotta Thomas,Clifton,67.36,174.63,95.25,199.58,469.47,Single-ply,SBD,M
Boys,67.13,3,Billy Manolakis,West,66.41,154.22,102.06,165.56,421.84,Single-ply,SBD,M
Boys,67.13,4,Devin Eggins,Fairfield,64.05,167.83,86.18,163.29,417.3,Single-ply,SBD,M
Boys,67.13,5,Ty Mooney,McGregor,67.13,185.97,79.38,147.42,412.77,Single-ply,SBD,M
Boys,67.13,6,Eduardo Jaimes,Riesel,64.41,163.29,63.5,158.76,385.55,Single-ply,SBD,M
Boys,67.13,7,Jonathan Childers,Fairfield,66.22,142.88,79.38,142.88,365.14,Single-ply,SBD,M
Boys,67.13,8,Justin Farmer,Moody,62.6,131.54,72.57,151.95,356.07,Single-ply,SBD,M
Boys,67.13,9,Valentino White,Chilton,64.77,138.35,74.84,142.88,356.07,Single-ply,SBD,M
Boys,74.84,10,Brandon Pelton,Waco La Vega,67.22,127.01,79.38,136.08,342.46,Single-ply,SBD,M
Boys,67.13,11,John Botello,Lorena,63.68,136.08,68.04,136.08,340.19,Single-ply,SBD,M
Boys,67.13,12,Alex Smith,Bosqueville,64.86,131.54,68.04,136.08,335.66,Single-ply,SBD,M
Boys,67.13,13,Kelby Sultemeier,West,64.86,124.74,72.57,136.08,333.39,Single-ply,SBD,M
Boys,67.13,14,Nick Harris,Lorena,61.69,124.74,74.84,131.54,331.12,Single-ply,SBD,M
Boys,67.13,15,Cj Smith,Crawford,64.86,115.67,72.57,120.2,308.44,Single-ply,SBD,M
Boys,67.13,16,Tanner Fleet,Axtell,62.05,104.33,58.97,102.06,265.35,Single-ply,SBD,M
Boys,67.13,17,Justin Waits,Chilton,61.23,88.45,54.43,102.06,244.94,Single-ply,SBD,M
Boys,67.13,18,Christian Trigleth,Riesel,63.5,86.18,45.36,99.79,231.33,Single-ply,SBD,M
Boys,67.13,DQ,Frank Meyer,Crawford,63.96,115.67,,120.2,,Single-ply,SBD,M
Boys,74.84,1,Raynard Smith,Waco La Vega,72.67,185.97,108.86,181.44,476.27,Single-ply,SBD,M
Boys,74.84,2,Dustin Murphy,Clifton,73.57,176.9,106.59,185.97,469.47,Single-ply,SBD,M
Boys,74.84,3,Cj Sims,McGregor,74.57,172.37,108.86,172.37,453.59,Single-ply,SBD,M
Boys,74.84,4,Garrett Salas,McGregor,71.76,172.37,92.99,174.63,439.98,Single-ply,SBD,M
Boys,74.84,5,Braxton Stefka,Riesel,73.48,185.97,90.72,163.29,439.98,Single-ply,SBD,M
Boys,74.84,6,Colton Reeves,Valley Mills,68.86,165.56,88.45,158.76,412.77,Single-ply,SBD,M
Boys,74.84,7,Kory Kyei,McGregor,68.13,158.76,81.65,163.29,403.7,Single-ply,SBD,M
Boys,74.84,8,Devyn Hebbe,Axtell,72.21,167.83,86.18,140.61,394.63,Single-ply,SBD,M
Boys,74.84,9,Bo Pearson,Crawford,67.77,147.42,79.38,154.22,381.02,Single-ply,SBD,M
Boys,74.84,10,Zach Rankin,West,69.85,131.54,95.25,145.15,371.95,Single-ply,SBD,M
Boys,74.84,11,Trae Grams,Bruceville-Eddy,74.48,136.08,90.72,145.15,371.95,Single-ply,SBD,M
Boys,74.84,12,Dalton Butler,Bruceville-Eddy,70.67,136.08,81.65,140.61,358.34,Single-ply,SBD,M
Boys,74.84,13,Jose Rodriguez,Valley Mills,70.4,127.01,72.57,151.95,351.53,Single-ply,SBD,M
Boys,74.84,14,Shane Sykora,Wortham,73.12,122.47,68.04,154.22,344.73,Single-ply,SBD,M
Boys,74.84,15,Skylar Paine,McGregor,74.66,124.74,72.57,131.54,328.85,Single-ply,SBD,M
Boys,74.84,16,Tuff Fielder,Moody,70.58,122.47,65.77,136.08,324.32,Single-ply,SBD,M
Boys,74.84,17,Tommy Burns,Lorena,69.94,124.74,72.57,122.47,319.78,Single-ply,SBD,M
Boys,74.84,18,Grady Shields,Groesbeck,67.95,102.06,56.7,106.59,265.35,Single-ply,SBD,M
Boys,74.84,DQ,Mantana Browder,Bruceville-Eddy,74.84,117.93,,124.74,,Single-ply,SBD,M
Boys,82.1,1,Martin Balderas,Groesbeck,80.38,222.26,145.15,258.55,625.96,Single-ply,SBD,M
Boys,82.1,2,Brett Boles,McGregor,75.39,190.51,106.59,197.31,494.42,Single-ply,SBD,M
Boys,82.1,3,Jaen Lopez,Clifton,77.2,185.97,113.4,195.04,494.42,Single-ply,SBD,M
Boys,82.1,4,Romero Fraire,West,76.48,181.44,108.86,167.83,458.13,Single-ply,SBD,M
Boys,82.1,5,Matt Brown,Crawford,80.74,167.83,113.4,172.37,453.59,Single-ply,SBD,M
Boys,82.1,6,Matt Moseley,Lorena,78.02,158.76,74.84,183.7,417.3,Single-ply,SBD,M
Boys,82.1,7,Jeremiah Simpson,Fairfield,75.3,142.88,97.52,158.76,399.16,Single-ply,SBD,M
Boys,82.1,8,Joseph Holland,Riesel,79.65,124.74,92.99,145.15,362.87,Single-ply,SBD,M
Boys,89.81,9,Jason Marroquin,Axtell,82.19,145.15,72.57,142.88,360.61,Single-ply,SBD,M
Boys,82.1,10,Chance Binder,Lorena,80.01,124.74,88.45,136.08,349.27,Single-ply,SBD,M
Boys,82.1,DQ,JD VanDyke,Groesbeck,80.29,108.86,70.31,,,Single-ply,SBD,M
Boys,82.1,DQ,Cole Thigpen,Chilton,75.75,,,,,Single-ply,SBD,M
Boys,89.81,1,Brody Jones,Crawford,84.55,258.55,151.95,231.33,641.83,Single-ply,SBD,M
Boys,99.79,2,Tyler Martinez,Axtell,89.9,242.67,124.74,235.87,603.28,Single-ply,SBD,M
Boys,89.81,3,Gerald Horne II,Waco La Vega,89.18,215.46,147.42,231.33,594.21,Single-ply,SBD,M
Boys,89.81,4,Cole Anderson,West,85,208.65,120.2,190.51,519.36,Single-ply,SBD,M
Boys,89.81,5,Isaiah Gardea,Clifton,88.63,192.78,131.54,192.78,517.1,Single-ply,SBD,M
Boys,89.81,6,Tanner Coone,Axtell,86.73,204.12,124.74,183.7,512.56,Single-ply,SBD,M
Boys,89.81,7,Uriel Arroyo,Moody,87,195.04,113.4,181.44,489.88,Single-ply,SBD,M
Boys,89.81,8,Cody Williams,Lorena,89.18,183.7,111.13,176.9,471.74,Single-ply,SBD,M
Boys,89.81,9,Lovett Ledger,Lorena,83.82,192.78,99.79,165.56,458.13,Single-ply,SBD,M
Boys,89.81,10,Dillon Van Zandt,Crawford,85.91,183.7,102.06,167.83,453.59,Single-ply,SBD,M
Boys,89.81,11,Jason Schmidt,Clifton,83.19,165.56,83.91,183.7,433.18,Single-ply,SBD,M
Boys,89.81,12,Danny Cockerell,Fairfield,83.82,181.44,97.52,142.88,421.84,Single-ply,SBD,M
Boys,89.81,13,Brent Massey,Dawson,89.36,149.69,90.72,176.9,417.3,Single-ply,SBD,M
Boys,99.79,14,Donnell Jenkins,Bruceville-Eddy,89.9,158.76,97.52,149.69,405.97,Single-ply,SBD,M
Boys,89.81,15,Tristan Cale,Bosqueville,89.36,142.88,90.72,165.56,399.16,Single-ply,SBD,M
Boys,89.81,16,Cole Beddingfield,Fairfield,86.73,158.76,81.65,138.35,378.75,Single-ply,SBD,M
Boys,89.81,17,Gc Davis,McGregor,86.55,147.42,74.84,140.61,362.87,Single-ply,SBD,M
Boys,89.81,18,Billy Shilling,Axtell,83.37,117.93,74.84,136.08,328.85,Single-ply,SBD,M
Boys,89.81,19,Emanuel Chavez,Valley Mills,83.55,111.13,52.16,138.35,301.64,Single-ply,SBD,M
Boys,89.81,20,Luis Reyes,McGregor,87.54,113.4,68.04,115.67,297.1,Single-ply,SBD,M
Boys,89.81,DQ,Tyler Pustejovsky,West,85.55,181.44,,,,Single-ply,SBD,M
Boys,99.79,1,D'Andre Minnitt,Waco La Vega,97.61,247.21,140.61,240.4,628.23,Single-ply,SBD,M
Boys,99.79,2,Cody Sell,Fairfield,99.06,242.67,151.95,226.8,621.42,Single-ply,SBD,M
Boys,99.79,3,Shaq Walker,Waco La Vega,97.89,242.67,120.2,238.14,601.01,Single-ply,SBD,M
Boys,99.79,4,Jacob Kevil,Crawford,99.61,188.24,122.47,188.24,498.95,Single-ply,SBD,M
Boys,99.79,5,Gerald Horne III,Waco La Vega,90.81,183.7,120.2,192.78,496.68,Single-ply,SBD,M
Boys,99.79,6,Jason Harris,West,99.61,208.65,102.06,170.1,480.81,Single-ply,SBD,M
Boys,99.79,7,Sterling Cable,Groesbeck,95.16,172.37,106.59,174.63,453.59,Single-ply,SBD,M
Boys,99.79,8,Kameron Smith,Chilton,96.43,151.95,113.4,170.1,435.45,Single-ply,SBD,M
Boys,99.79,9,Justin Hargis,Wortham,91.08,158.76,65.77,147.42,371.95,Single-ply,SBD,M
Boys,99.79,10,Ryan Blackford,Valley Mills,94.71,136.08,72.57,136.08,344.73,Single-ply,SBD,M
Boys,99.79,11,Isaac Pena,Wortham,95.35,136.08,74.84,131.54,342.46,Single-ply,SBD,M
Boys,99.79,12,Dylan Morgan,Riesel,97.16,136.08,83.91,113.4,333.39,Single-ply,SBD,M
Boys,99.79,13,Jeremy Wood,Fairfield,91.53,113.4,79.38,122.47,315.25,Single-ply,SBD,M
Boys,99.79,DQ,Daniel Perez,Wortham,95.71,158.76,79.38,,,Single-ply,SBD,M
Boys,109.77,1,Shane Sibila,Clifton,109.41,249.48,138.35,226.8,614.62,Single-ply,SBD,M
Boys,109.77,2,Logan Willenborg,West,109.41,197.31,111.13,188.24,496.68,Single-ply,SBD,M
Boys,109.77,3,Jamie Saucedo,Bosqueville,104.78,156.49,97.52,165.56,419.57,Single-ply,SBD,M
Boys,109.77,4,Charles Lyons,Chilton,108.95,149.69,106.59,158.76,415.04,Single-ply,SBD,M
Boys,109.77,5,Jd King,Axtell,102.6,140.61,99.79,165.56,405.97,Single-ply,SBD,M
Boys,109.77,6,Drew Zacharias,McGregor,103.96,158.76,97.52,147.42,403.7,Single-ply,SBD,M
Boys,109.77,7,Kameron Turner,Waco La Vega,105.32,136.08,102.06,158.76,396.89,Single-ply,SBD,M
Boys,109.77,8,Taylor Chiles,West,100.15,142.88,99.79,149.69,392.36,Single-ply,SBD,M
Boys,109.77,9,Cody Ewing,Valley Mills,102.51,154.22,86.18,142.88,383.29,Single-ply,SBD,M
Boys,109.77,10,Steven Contreras,Groesbeck,103.87,151.95,79.38,147.42,378.75,Single-ply,SBD,M
Boys,124.74+,1,Trent Andrews,Bosqueville,124.92,285.76,136.08,263.08,684.92,Single-ply,SBD,M
Boys,124.74,2,Garrett Evans,Clifton,124.38,260.82,161.03,222.26,644.1,Single-ply,SBD,M
Boys,124.74,3,Austin Allsup,Lorena,118.48,204.12,102.06,192.78,498.95,Single-ply,SBD,M
Boys,124.74,4,Te Dixon,McGregor,117.21,204.12,115.67,165.56,485.34,Single-ply,SBD,M
Boys,124.74,5,Blake Kasparian,Crawford,113.13,185.97,111.13,181.44,478.54,Single-ply,SBD,M
Boys,124.74,6,Alex Balch,Valley Mills,114.21,165.56,77.11,181.44,424.11,Single-ply,SBD,M
Boys,124.74,7,Ryan Alexander,Riesel,115.85,113.4,61.23,111.13,285.76,Single-ply,SBD,M
Boys,124.74,8,Joshua LeBron,Crawford,115.3,117.93,61.23,124.74,303.91,Single-ply,SBD,M
Boys,124.74+,1,Dwight Holder,Waco La Vega,132,263.08,149.69,226.8,639.57,Single-ply,SBD,M
Boys,124.74+,2,Marcelo Ramirez,Waco La Vega,137.62,254.01,129.27,254.01,637.3,Single-ply,SBD,M
Boys,124.74+,3,Jordan Allen,Clifton,136.17,215.46,115.67,170.1,501.22,Single-ply,SBD,M
Boys,124.74+,4,Alex Coronado,Valley Mills,140.98,142.88,95.25,172.37,410.5,Single-ply,SBD,M
