Division,WeightClassKg,Place,Name,Team,BodyweightKg,Best3SquatKg,Best3BenchKg,Best3DeadliftKg,TotalKg,Equipment,Event,Sex
Boys,51.71,1,Antonio Ponce,Glen Rose,46.27,86.18,47.63,102.06,235.87,Single-ply,SBD,M
Boys,51.71,2,Julian Cornado,San Saba,44.54,61.23,38.56,79.38,179.17,Single-ply,SBD,M
Boys,51.71,3,Wyatt Ivey,Lometa,42.09,40.82,31.75,63.5,136.08,Single-ply,SBD,M
Boys,55.79,1,Nimo Vega,San Saba,54.16,122.47,65.77,138.35,326.59,Single-ply,SBD,M
Boys,55.79,2,Jonathan Taylor,Lingleville,53.89,124.74,61.23,138.35,324.32,Single-ply,SBD,M
Boys,55.79,3,Marcus Griffth,Lometa,53.61,49.9,40.82,86.18,176.9,Single-ply,SBD,M
Boys,59.87,1,Jose Morantes,Dublin,59.87,133.81,102.06,192.78,428.64,Single-ply,SBD,M
Boys,59.87,2,Walker Shelton,Tolar,59.87,161.03,83.91,165.56,410.5,Single-ply,SBD,M
Boys,59.87,3,Ricardo Pina,Comanche,58.06,131.54,88.45,170.1,390.09,Single-ply,SBD,M
Boys,59.87,4,Jordan Smith,Valley Mills,57.7,142.88,86.18,136.08,365.14,Single-ply,SBD,M
Boys,59.87,5,Saul Cervantes,San Saba,56.52,115.67,65.77,138.35,319.78,Single-ply,SBD,M
Boys,59.87,6,Sebastian Allen,Valley Mills,59.87,115.67,65.77,136.08,317.51,Single-ply,SBD,M
Boys,59.87,7,Justus Alaniz,Lometa,59.33,90.72,63.5,131.54,285.76,Single-ply,SBD,M
Boys,59.87,8,Jesse Franco,San Saba,57.15,95.25,54.43,117.93,267.62,Single-ply,SBD,M
Boys,59.87,9,Cole Allen,Dublin,59.33,92.99,61.23,106.59,260.82,Single-ply,SBD,M
Boys,59.87,10,Tristan Owens,San Saba,58.79,86.18,47.63,117.93,251.74,Single-ply,SBD,M
Boys,59.87,11,Christian Guerrero,San Saba,58.15,77.11,43.09,117.93,238.14,Single-ply,SBD,M
Boys,67.13,1,Levi Bamber,Dublin,65.32,215.46,151.95,215.46,582.87,Single-ply,SBD,M
Boys,67.13,2,Ian Valdez,Glen Rose,67.13,188.24,92.99,172.37,453.59,Single-ply,SBD,M
Boys,67.13,3,Jesse Luker,Comanche,64.86,136.08,86.18,161.03,383.29,Single-ply,SBD,M
Boys,67.13,4,Taylor Luce,Godley,62.05,136.08,83.91,154.22,374.21,Single-ply,SBD,M
Boys,67.13,5,Tasean Holt,Valley Mills,63.96,129.27,90.72,145.15,365.14,Single-ply,SBD,M
Boys,67.13,6,Nathan Smith,Glen Rose,64.05,117.93,79.38,147.42,344.73,Single-ply,SBD,M
Boys,67.13,7,Colton Reeves,Valley Mills,67.13,120.2,77.11,145.15,342.46,Single-ply,SBD,M
Boys,67.13,8,Cory Anderson,Godley,65.05,142.88,86.18,111.13,340.19,Single-ply,SBD,M
Boys,67.13,9,Sean Argote,San Saba,65.68,124.74,72.57,138.35,335.66,Single-ply,SBD,M
Boys,67.13,10,Angel Barrios,Glen Rose,62.41,136.08,72.57,124.74,333.39,Single-ply,SBD,M
Boys,67.13,11,Daniel Castillo,Early,65.68,104.33,65.77,147.42,317.51,Single-ply,SBD,M
Boys,67.13,12,Colton Miller,Glen Rose,65.95,113.4,70.31,124.74,308.44,Single-ply,SBD,M
Boys,67.13,13,Angel Amezena,Glen Rose,64.14,95.25,70.31,113.4,278.96,Single-ply,SBD,M
Boys,67.13,14,Brady Holleman,Dublin,62.96,92.99,65.77,97.52,256.28,Single-ply,SBD,M
Boys,67.13,15,Arturo Zuniga,Dublin,61.23,92.99,61.23,83.91,238.14,Single-ply,SBD,M
Boys,67.13,16,Dillon Sims,Lometa,67.13,63.5,54.43,117.93,235.87,Single-ply,SBD,M
Boys,67.13,DQ,Danny Cervantez,De Leon,66.5,124.74,,111.13,,Single-ply,SBD,M
Boys,67.13,DQ,Eddie Munoz,Sidney,62.69,95.25,56.7,,,Single-ply,SBD,M
Boys,74.84,1,Alex Cervantes,San Saba,68.13,206.38,115.67,231.33,553.38,Single-ply,SBD,M
Boys,74.84,2,Fidel Perez,Dublin,72.48,151.95,102.06,151.95,405.97,Single-ply,SBD,M
Boys,74.84,3,Addison Hunter,Lingleville,73.39,136.08,86.18,167.83,390.09,Single-ply,SBD,M
Boys,74.84,4,Justin Poole,Early,68.22,142.88,83.91,151.95,378.75,Single-ply,SBD,M
Boys,74.84,5,Daniel Sánchez,Rising Star,69.94,122.47,97.52,154.22,374.21,Single-ply,SBD,M
Boys,74.84,6,Christian Woolverton,Early,72.76,142.88,88.45,142.88,374.21,Single-ply,SBD,M
Boys,74.84,7,Jacob Leal,Lingleville,73.39,136.08,79.38,145.15,360.61,Single-ply,SBD,M
Boys,74.84,8,David Hutton,Early,68.22,145.15,61.23,151.95,358.34,Single-ply,SBD,M
Boys,74.84,9,Nathan Langstan,Tolar,71.58,138.35,74.84,142.88,356.07,Single-ply,SBD,M
Boys,74.84,10,Colt Arrington,Tolar,72.03,129.27,79.38,147.42,356.07,Single-ply,SBD,M
Boys,74.84,11,Logan Kilpatrick,Valley Mills,71.76,127.01,77.11,147.42,351.53,Single-ply,SBD,M
Boys,74.84,12,Payton Ashworth,Early,72.76,120.2,77.11,151.95,349.27,Single-ply,SBD,M
Boys,74.84,13,Aaron Anaya,Comanche,73.48,122.47,86.18,136.08,344.73,Single-ply,SBD,M
Boys,74.84,14,Joel Munoz,Dublin,68.86,115.67,92.99,120.2,328.85,Single-ply,SBD,M
Boys,74.84,15,Zane Karkagos,Comanche,73.48,106.59,70.31,136.08,312.98,Single-ply,SBD,M
Boys,74.84,16,Blake Crawford,Sidney,67.59,95.25,56.7,104.33,256.28,Single-ply,SBD,M
Boys,74.84,DQ,Abel Ledesma,Comanche,70.76,129.27,,138.35,,Single-ply,SBD,M
Boys,74.84,DQ,Travis Hickman,Comanche,70.31,133.81,,151.95,,Single-ply,SBD,M
Boys,74.84,DQ,Josh Brownlee,De Leon,67.77,131.54,,127.01,,Single-ply,SBD,M
Boys,82.1,1,Saul Lopez,Comanche,79.83,185.97,108.86,185.97,480.81,Single-ply,SBD,M
Boys,82.1,2,Gage Hodges,Valley Mills,75.3,161.03,92.99,170.1,424.11,Single-ply,SBD,M
Boys,82.1,3,Junior Sanchez,Early,81.01,165.56,88.45,170.1,424.11,Single-ply,SBD,M
Boys,82.1,4,Damian Hatcher,Dublin,81.56,149.69,104.33,170.1,424.11,Single-ply,SBD,M
Boys,82.1,5,Aaron Platt,Tolar,81.74,151.95,90.72,174.63,417.3,Single-ply,SBD,M
Boys,82.1,6,Zach Rogers,Valley Mills,77.38,129.27,83.91,156.49,369.68,Single-ply,SBD,M
Boys,82.1,7,Herik Bustamante,Rising Star,75.48,129.27,74.84,158.76,362.87,Single-ply,SBD,M
Boys,82.1,8,Lane Walker,Comanche,78.47,136.08,88.45,136.08,360.61,Single-ply,SBD,M
Boys,82.1,9,Dylan Esquivel,Godley,80.47,124.74,79.38,142.88,347,Single-ply,SBD,M
Boys,82.1,10,Brandon Reed,Rising Star,80.01,92.99,90.72,133.81,317.51,Single-ply,SBD,M
Boys,82.1,11,Tristan Teplicek,Rising Star,80.01,102.06,61.23,106.59,269.89,Single-ply,SBD,M
Boys,82.1,DQ,Jose Martinez,Rising Star,78.02,,83.91,133.81,,Single-ply,SBD,M
Boys,82.1,DQ,Salvador Marquez,Comanche,80.29,197.31,,176.9,,Single-ply,SBD,M
Boys,89.81,DQ,Chris Dominguez,Sidney,82.28,158.76,,158.76,,Single-ply,SBD,M
Boys,89.81,DQ,Gordon Lewis,Tolar,82.19,,61.23,145.15,,Single-ply,SBD,M
Boys,89.81,1,Ben Mungia,Glen Rose,84.37,215.46,127.01,188.24,530.7,Single-ply,SBD,M
Boys,89.81,2,Rudy Rodriguez,Dublin,85.37,161.03,97.52,197.31,455.86,Single-ply,SBD,M
Boys,89.81,3,Alex Agnew,Rising Star,84.1,133.81,97.52,142.88,374.21,Single-ply,SBD,M
Boys,89.81,4,Chance Benedict,Comanche,87.54,133.81,95.25,142.88,371.95,Single-ply,SBD,M
Boys,89.81,5,Izmiel Torres,Dublin,85.18,104.33,79.38,147.42,331.12,Single-ply,SBD,M
Boys,89.81,DQ,Tim Delatorre,De Leon,88.18,,,,,Single-ply,SBD,M
Boys,99.79,1,Joel Elizondo,Comanche,99.34,244.94,149.69,213.19,607.81,Single-ply,SBD,M
Boys,99.79,2,Zayne Gumler,Tolar,90.81,199.58,97.52,210.92,508.02,Single-ply,SBD,M
Boys,99.79,3,Ace Navarrete,Glen Rose,92.53,179.17,99.79,181.44,460.4,Single-ply,SBD,M
Boys,99.79,4,Juan Carlos García,San Saba,95.71,154.22,95.25,174.63,424.11,Single-ply,SBD,M
Boys,99.79,5,Heath Nicholson,Glen Rose,97.79,158.76,92.99,170.1,421.84,Single-ply,SBD,M
Boys,99.79,6,Martin Vasquez,Lingleville,93.71,149.69,86.18,167.83,403.7,Single-ply,SBD,M
Boys,99.79,7,Ambrosio Rodriguez,Dublin,92.08,147.42,74.84,170.1,392.36,Single-ply,SBD,M
Boys,99.79,8,Landon Beck,Early,93.62,142.88,92.99,147.42,383.29,Single-ply,SBD,M
Boys,99.79,9,Raymond Weckworth,Early,90.99,127.01,74.84,136.08,337.93,Single-ply,SBD,M
Boys,99.79,10,Rj Darch,Glen Rose,98.61,124.74,58.97,136.08,319.78,Single-ply,SBD,M
Boys,109.77,1,Marshall Wirtz,Comanche,103.87,158.76,104.33,163.29,426.38,Single-ply,SBD,M
Boys,109.77,2,Alex Rodriguez,Dublin,108.05,142.88,106.59,151.95,401.43,Single-ply,SBD,M
Boys,109.77,3,Estaban Carranza,Glen Rose,107.86,127.01,92.99,170.1,390.09,Single-ply,SBD,M
Boys,109.77,4,Max Driscoll,Godley,107.86,129.27,102.06,142.88,374.21,Single-ply,SBD,M
Boys,109.77,5,Drannon Brewer,Glen Rose,102.78,113.4,68.04,158.76,340.19,Single-ply,SBD,M
Boys,109.77,6,Dalton Webb,Tolar,101.79,102.06,70.31,117.93,290.3,Single-ply,SBD,M
Boys,109.77,DQ,Chris Delatorre,De Leon,100.88,,,183.7,,Single-ply,SBD,M
Boys,124.74,1,Jared Thames,Glen Rose,122.92,249.48,170.1,226.8,646.37,Single-ply,SBD,M
Boys,124.74,2,Brandon Lane,Tolar,121.29,226.8,136.08,238.14,601.01,Single-ply,SBD,M
Boys,124.74,3,Michael McKinnerney,San Saba,112.04,179.17,104.33,197.31,480.81,Single-ply,SBD,M
Boys,124.74,4,Fidel Olalde,Early,120.47,204.12,102.06,174.63,480.81,Single-ply,SBD,M
Boys,124.74,5,Dusty Parum,San Saba,123.47,172.37,108.86,174.63,455.86,Single-ply,SBD,M
Boys,124.74,6,Brian Rogers,San Saba,111.49,170.1,106.59,176.9,453.59,Single-ply,SBD,M
Boys,124.74,7,Nathan Amstead,San Saba,110.77,172.37,97.52,181.44,451.32,Single-ply,SBD,M
Boys,124.74,8,Diamond Cardona,Godley,112.31,136.08,90.72,183.7,410.5,Single-ply,SBD,M
Boys,124.74,9,Wesley Gates,San Saba,111.31,138.35,68.04,129.27,335.66,Single-ply,SBD,M
Boys,124.74,10,Zac Christian,Comanche,117.48,108.86,99.79,124.74,333.39,Single-ply,SBD,M
Boys,124.74+,1,Zac Perez,Glen Rose,129.91,283.5,170.1,226.8,680.39,Single-ply,SBD,M
Boys,124.74+,2,Diego Montoya,San Saba,137.53,222.26,142.88,242.67,607.81,Single-ply,SBD,M
Boys,124.74+,3,Kyle Speicher,Godley,130.63,204.12,136.08,240.4,580.6,Single-ply,SBD,M
Boys,124.74+,4,Jansen Fox,Rising Star,129.09,226.8,122.47,192.78,542.04,Single-ply,SBD,M
Boys,124.74+,5,Dylan Hamilton,Godley,143.52,197.31,129.27,190.51,517.1,Single-ply,SBD,M
