Division,WeightClassKg,Place,Name,Team,BodyweightKg,Best3SquatKg,Best3BenchKg,Best3DeadliftKg,TotalKg,Equipment,Event,Sex
Boys,51.71,1,Ryshad Johnson,Temple,50.8,113.4,56.7,124.74,294.84,Single-ply,SBD,M
Boys,51.71,2,Tye Ochoa,Temple,51.71,104.33,58.97,113.4,276.69,Single-ply,SBD,M
Boys,51.71,3,Evan Willis,Waco Midway,50.98,83.91,54.43,99.79,238.14,Single-ply,SBD,M
Boys,55.79,DQ,Isaiah Robinson,Waco Midway,52.44,,,,,Single-ply,SBD,M
Boys,55.79,1,Pete Contreras,Belton,55.61,151.95,90.72,138.35,381.02,Single-ply,SBD,M
Boys,55.79,2,Dominic Dickerson,Copperas Cove,53.07,104.33,65.77,124.74,294.84,Single-ply,SBD,M
Boys,55.79,DQ,Brian White,Belton,55.66,122.47,,,,Single-ply,SBD,M
Boys,67.13,1,Tyson Eno,Belton,59.96,133.81,97.52,158.76,390.09,Single-ply,SBD,M
Boys,67.13,2,Kadarius Wells,Waco,60.1,136.08,95.25,158.76,390.09,Single-ply,SBD,M
Boys,59.87,3,Dedriell Bell,Temple,59.78,124.74,77.11,176.9,378.75,Single-ply,SBD,M
Boys,67.13,4,Reamond Martinez,Belton,59.92,127.01,83.91,158.76,369.68,Single-ply,SBD,M
Boys,59.87,5,Marquis Collin,Temple,59.06,127.01,70.31,151.95,349.27,Single-ply,SBD,M
Boys,59.87,6,Michael Aguirre,Copperas Cove,58.33,122.47,65.77,156.49,344.73,Single-ply,SBD,M
Boys,67.13,7,Jovante Gray Mason,Waco,60.06,129.27,81.65,127.01,337.93,Single-ply,SBD,M
Boys,59.87,8,Justin Joe,Copperas Cove,56.43,111.13,70.31,129.27,310.71,Single-ply,SBD,M
Boys,59.87,9,Chris Yang,Waco Midway,57.88,90.72,77.11,131.54,299.37,Single-ply,SBD,M
Boys,74.84,DQ,Gary Goode,Waco Midway,67.36,,,,,Single-ply,SBD,M
Boys,67.13,1,Robert Martinez,Belton,67.13,172.37,92.99,217.72,483.08,Single-ply,SBD,M
Boys,67.13,2,Xavier Moffit,Belton,66.22,163.29,88.45,201.85,453.59,Single-ply,SBD,M
Boys,67.13,3,Akeel Wilson,Temple,66.13,133.81,83.91,192.78,410.5,Single-ply,SBD,M
Boys,67.13,4,Dedreon Bell,Temple,64.68,154.22,90.72,163.29,408.23,Single-ply,SBD,M
Boys,67.13,5,Jeff Carr,Temple,64.86,136.08,79.38,140.61,356.07,Single-ply,SBD,M
Boys,67.13,6,Andy Owens,Waco Midway,66.59,136.08,74.84,142.88,353.8,Single-ply,SBD,M
Boys,67.13,7,Sam Vega,Copperas Cove,64.5,111.13,83.91,142.88,337.93,Single-ply,SBD,M
Boys,67.13,DQ,Jacob Evans,Belton,66.22,111.13,,,,Single-ply,SBD,M
Boys,74.84,1,Stephen St John,Belton,73.3,215.46,122.47,231.33,569.26,Single-ply,SBD,M
Boys,74.84,2,Case D'Herde,Waco Midway,74.66,181.44,111.13,222.26,514.83,Single-ply,SBD,M
Boys,74.84,3,Brandon Julian,Belton,71.21,172.37,102.06,170.1,444.52,Single-ply,SBD,M
Boys,74.84,4,Dominique Johnson-Nealy,Temple,73.12,170.1,99.79,165.56,435.45,Single-ply,SBD,M
Boys,74.84,5,Isiah Coles,Copperas Cove,72.85,142.88,83.91,163.29,390.09,Single-ply,SBD,M
Boys,74.84,6,Breyone Jackson,Copperas Cove,69.4,131.54,83.91,158.76,374.21,Single-ply,SBD,M
Boys,74.84,7,David Irving,Copperas Cove,72.67,124.74,77.11,149.69,351.53,Single-ply,SBD,M
Boys,74.84,8,Trent Foster,Belton,69.4,138.35,74.84,136.08,349.27,Single-ply,SBD,M
Boys,74.84,9,Dererick Giles,Copperas Cove,69.31,113.4,68.04,117.93,299.37,Single-ply,SBD,M
Boys,82.1,1,Gaylon Sanders,Temple,77.56,204.12,117.93,208.65,530.7,Single-ply,SBD,M
Boys,82.1,2,Karim Sarhani,Copperas Cove,80.29,206.38,115.67,206.38,528.44,Single-ply,SBD,M
Boys,82.1,3,Devin Patterson,Belton,81.83,183.7,122.47,219.99,526.17,Single-ply,SBD,M
Boys,82.1,4,Mike Sumrall,Copperas Cove,77.75,181.44,92.99,199.58,474,Single-ply,SBD,M
Boys,82.1,5,Ryan Vincent,Belton,79.02,167.83,115.67,185.97,469.47,Single-ply,SBD,M
Boys,89.81,6,Cory Tull,Waco Midway,82.19,188.24,102.06,170.1,460.4,Single-ply,SBD,M
Boys,82.1,7,Dalton Randolph,Temple,77.56,165.56,88.45,183.7,437.72,Single-ply,SBD,M
Boys,82.1,8,Darren Countiss,Temple,82.01,165.56,99.79,161.03,426.38,Single-ply,SBD,M
Boys,82.1,9,Tyler Hawkins,Copperas Cove,80.29,133.81,79.38,163.29,376.48,Single-ply,SBD,M
Boys,82.1,10,Alfredo Sandoval,Waco Midway,75.75,124.74,97.52,142.88,365.14,Single-ply,SBD,M
Boys,82.1,11,Mike Sherman,Copperas Cove,76.75,151.95,81.65,131.54,365.14,Single-ply,SBD,M
Boys,82.1,12,Ryan Johnson,Belton,77.56,117.93,81.65,136.08,335.66,Single-ply,SBD,M
Boys,82.1,13,Mike Helbing,Copperas Cove,79.74,111.13,70.31,136.08,317.51,Single-ply,SBD,M
Boys,82.1,DQ,Andrue Keeler,Copperas Cove,82.1,142.88,,,,Single-ply,SBD,M
Boys,82.1,DQ,Garrett Trout,Belton,79.65,,,,,Single-ply,SBD,M
Boys,89.81,1,Jerikhoal Alvarez,Temple,88.45,219.99,145.15,217.72,582.87,Single-ply,SBD,M
Boys,89.81,2,Donavan Williams,Belton,89.58,192.78,111.13,251.74,555.65,Single-ply,SBD,M
Boys,89.81,3,Rayshun Jones,Belton,89.18,213.19,124.74,213.19,551.11,Single-ply,SBD,M
Boys,99.79,4,Dominick Thompson,Temple,89.9,204.12,113.4,199.58,517.1,Single-ply,SBD,M
Boys,89.81,5,Ryan Cox,Belton,89.54,201.85,127.01,185.97,514.83,Single-ply,SBD,M
Boys,89.81,6,Devin Mercer,Waco Midway,88.27,181.44,120.2,206.38,508.02,Single-ply,SBD,M
Boys,89.81,7,Nathan Hengst,Waco Midway,86,199.58,127.01,165.56,492.15,Single-ply,SBD,M
Boys,89.81,8,Michael Hicks,Temple,82.74,183.7,108.86,192.78,485.34,Single-ply,SBD,M
Boys,89.81,9,Chase McCosham,Belton,87.54,167.83,104.33,188.24,460.4,Single-ply,SBD,M
Boys,89.81,10,Shaq Fuela,Copperas Cove,88.27,181.44,111.13,167.83,460.4,Single-ply,SBD,M
Boys,89.81,11,Kyle Adamson,Belton,86.64,158.76,104.33,188.24,451.32,Single-ply,SBD,M
Boys,89.81,12,Alex Anderson,Waco Midway,82.92,165.56,106.59,163.29,435.45,Single-ply,SBD,M
Boys,89.81,13,John Ladner,Waco Midway,88.9,170.1,106.59,156.49,433.18,Single-ply,SBD,M
Boys,89.81,14,Roderrick Harris,Waco,88.18,170.1,88.45,158.76,417.3,Single-ply,SBD,M
Boys,89.81,15,Nick Deprisco,Copperas Cove,86.91,145.15,97.52,172.37,415.04,Single-ply,SBD,M
Boys,89.81,16,Michael Destremps,Copperas Cove,88.81,124.74,95.25,142.88,362.87,Single-ply,SBD,M
Boys,89.81,17,Reagan Frances,Belton,86.18,102.06,58.97,124.74,285.76,Single-ply,SBD,M
Boys,89.81,DQ,Matt Farmer,Copperas Cove,87,174.63,,,,Single-ply,SBD,M
Boys,99.79,1,Demarkes Mathis,Temple,99.52,226.8,140.61,238.14,605.55,Single-ply,SBD,M
Boys,99.79,2,Ryan Stinson,Belton,95.16,231.33,149.69,222.26,603.28,Single-ply,SBD,M
Boys,109.77,3,Xavier Bryant,Temple,99.88,226.8,133.81,206.38,566.99,Single-ply,SBD,M
Boys,99.79,4,Josh Owens,Waco,93.89,215.46,122.47,217.72,555.65,Single-ply,SBD,M
Boys,99.79,5,David Lopez,Temple,95.98,208.65,131.54,183.7,523.9,Single-ply,SBD,M
Boys,99.79,6,Derrick Moore,Waco,98.7,181.44,102.06,195.04,478.54,Single-ply,SBD,M
Boys,99.79,7,Lazarus Flores,Waco,92.17,154.22,113.4,192.78,460.4,Single-ply,SBD,M
Boys,99.79,8,Cody Caswell,Belton,95.62,161.03,102.06,195.04,458.13,Single-ply,SBD,M
Boys,99.79,9,Roelandoe Caldwell,Belton,92.99,129.27,79.38,136.08,344.73,Single-ply,SBD,M
Boys,109.77,1,Ray Jones,Copperas Cove,107.32,226.8,145.15,219.99,591.94,Single-ply,SBD,M
Boys,124.74,2,Koby Williams,Belton,109.95,210.92,115.67,217.72,544.31,Single-ply,SBD,M
Boys,109.77,3,Brandon Sullivan,Belton,109.32,192.78,120.2,197.31,510.29,Single-ply,SBD,M
Boys,109.77,4,Rodarius Birks,Belton,106.14,201.85,111.13,183.7,496.68,Single-ply,SBD,M
Boys,109.77,5,James Murphy,Belton,101.7,188.24,106.59,190.51,485.34,Single-ply,SBD,M
Boys,109.77,6,Brandon McGibney,Belton,106.14,165.56,117.93,185.97,469.47,Single-ply,SBD,M
Boys,109.77,7,Austin Farr,Belton,106.96,158.76,108.86,199.58,467.2,Single-ply,SBD,M
Boys,109.77,8,Matt Sampson,Copperas Cove,109.77,170.1,111.13,170.1,451.32,Single-ply,SBD,M
Boys,124.74,9,John Lara,Belton,109.86,163.29,117.93,161.03,442.25,Single-ply,SBD,M
Boys,109.77,10,Justin Murphy,Belton,105.6,154.22,115.67,170.1,439.98,Single-ply,SBD,M
Boys,109.77,11,Josh Deland,Copperas Cove,105.96,117.93,92.99,,210.92,Single-ply,SB,M
Boys,124.74,1,Donshay Johnson,Temple,118.84,247.21,131.54,219.99,598.74,Single-ply,SBD,M
Boys,124.74,2,Anthony Carvajal,Waco,118.39,235.87,122.47,215.46,573.79,Single-ply,SBD,M
Boys,124.74,3,Tanner Morgan,Temple,115.85,204.12,127.01,204.12,535.24,Single-ply,SBD,M
Boys,124.74,4,Jared Scaff,Belton,112.94,167.83,113.4,172.37,453.59,Single-ply,SBD,M
Boys,124.74,5,Jaquill Harden,Waco,121.56,149.69,108.86,185.97,444.52,Single-ply,SBD,M
Boys,124.74,DQ,Mj Morris,Waco Midway,121.11,,,,,Single-ply,SBD,M
Boys,124.74+,1,Andrew Billings,Waco,137.53,299.37,208.65,288.03,796.05,Single-ply,SBD,M
Boys,124.74+,2,Freddie Johnson,Temple,138.89,260.82,131.54,272.16,664.51,Single-ply,SBD,M
Boys,124.74+,3,Davontae Moore,Temple,136.71,272.16,151.95,226.8,650.91,Single-ply,SBD,M
Boys,124.74+,4,Les Sakaria,Copperas Cove,135.35,,147.42,219.99,367.41,Single-ply,BD,M
Boys,124.74+,5,Jacob Everett,Belton,157.85,185.97,122.47,190.51,498.95,Single-ply,SBD,M
Boys,124.74+,6,Noah Russell,Waco,153.4,174.63,124.74,181.44,480.81,Single-ply,SBD,M
Boys,124.74+,7,Kalee Ewing,Belton,128.09,161.03,113.4,154.22,428.64,Single-ply,SBD,M
Boys,124.74+,DQ,Troy Healy,Temple,130.18,267.62,149.69,,,Single-ply,SBD,M
