Division,WeightClassKg,Place,Name,Team,BodyweightKg,Best3SquatKg,Best3BenchKg,Best3DeadliftKg,TotalKg,Equipment,Event,Sex
Boys,51.71,1,Austin Mullennix,Sadler S & S Cons,51.44,197.31,83.91,163.29,444.52,Single-ply,SBD,M
Boys,51.71,2,Austin Cuthbertson,Van Alstyne,50.8,151.95,83.91,124.74,360.61,Single-ply,SBD,M
Boys,51.71,3,Destin Warr,Callisburg,49.17,113.4,68.04,120.2,301.64,Single-ply,SBD,M
Boys,51.71,4,Parker Redman,Alvord,50.12,106.59,70.31,124.74,301.64,Single-ply,SBD,M
Boys,51.71,5,Justin Baque,Tom Bean,51.62,108.86,58.97,124.74,292.57,Single-ply,SBD,M
Boys,51.71,6,Jack Lifsey,Tom Bean,50.17,115.67,54.43,111.13,281.23,Single-ply,SBD,M
Boys,51.71,7,Erik Tapia,Gunter,49.76,104.33,65.77,106.59,276.69,Single-ply,SBD,M
Boys,51.71,8,Justin Campbell,Leonard,51.26,104.33,56.7,108.86,269.89,Single-ply,SBD,M
Boys,51.71,9,Raiden Brezina,Bowie,45.77,104.33,47.63,102.06,254.01,Single-ply,SBD,M
Boys,51.71,10,Jesse Butler,Alvord,50.94,90.72,65.77,97.52,254.01,Single-ply,SBD,M
Boys,51.71,11,Trenton Cottrell,Paradise,47.76,102.06,54.43,83.91,240.4,Single-ply,SBD,M
Boys,51.71,12,Hunter Bowen,Boyd,46.45,95.25,45.36,86.18,226.8,Single-ply,SBD,M
Boys,51.71,NS,Michael Ellis,Nocona,,,,,,Single-ply,SBD,M
Boys,55.79,1,Justin Christensen,Alvord,54.7,181.44,83.91,165.56,430.91,Single-ply,SBD,M
Boys,55.79,2,Ignacio Salas,Whitesboro,55.38,158.76,95.25,163.29,417.3,Single-ply,SBD,M
Boys,55.79,3,Colton Covington,Bowie,55.11,117.93,83.91,145.15,347,Single-ply,SBD,M
Boys,55.79,4,Lance Jones,Van Alstyne,55.02,129.27,74.84,131.54,335.66,Single-ply,SBD,M
Boys,55.79,5,Riley Fish,Pottsboro,55.11,117.93,90.72,127.01,335.66,Single-ply,SBD,M
Boys,55.79,6,Trey Orsini,Strawn,55.16,127.01,65.77,140.61,333.39,Single-ply,SBD,M
Boys,55.79,7,Conner Jacobs,Whitesboro,55.43,129.27,65.77,133.81,328.85,Single-ply,SBD,M
Boys,55.79,8,Jimmy Rollins,Van Alstyne,55.79,117.93,65.77,136.08,319.78,Single-ply,SBD,M
Boys,55.79,9,Xavier Bollin,Leonard,54.98,111.13,74.84,131.54,317.51,Single-ply,SBD,M
Boys,55.79,10,Trenton Sizemore,Strawn,54.79,113.4,63.5,131.54,308.44,Single-ply,SBD,M
Boys,55.79,11,Caleb Beal,Collinsville,54.02,108.86,58.97,129.27,297.1,Single-ply,SBD,M
Boys,55.79,12,Jacob Crawford,Bowie,55.11,108.86,56.7,120.2,285.76,Single-ply,SBD,M
Boys,55.79,13,Nathan Curry,Bowie,54.98,108.86,65.77,99.79,274.42,Single-ply,SBD,M
Boys,59.87,1,Payton Miller,Alvord,58.51,213.19,102.06,192.78,508.02,Single-ply,SBD,M
Boys,59.87,2,Edwin Rodriguez,Pilot Point,58.42,165.56,86.18,176.9,428.64,Single-ply,SBD,M
Boys,59.87,3,Manuel Labrada,Whitesboro,59.42,156.49,95.25,167.83,419.57,Single-ply,SBD,M
Boys,59.87,4,Roman Rivas,Bowie,57.74,158.76,90.72,165.56,415.04,Single-ply,SBD,M
Boys,59.87,5,Ethan Meyers,Bowie,58.15,154.22,88.45,172.37,415.04,Single-ply,SBD,M
Boys,59.87,6,Asher Contreras,Whitesboro,58.74,147.42,83.91,172.37,403.7,Single-ply,SBD,M
Boys,59.87,7,Keane Ortega,Sadler S & S Cons,59.33,133.81,72.57,172.37,378.75,Single-ply,SBD,M
Boys,59.87,8,Kason Huschke,Bells,59.65,147.42,83.91,147.42,378.75,Single-ply,SBD,M
Boys,59.87,9,Samson Tighe,Brock,57.11,131.54,81.65,163.29,376.48,Single-ply,SBD,M
Boys,59.87,DQ,Justyn Simmons,Honey Grove,58.88,,,,,Single-ply,SBD,M
Boys,59.87,DQ,Josh Barlagne,Leonard,59.01,158.76,104.33,,,Single-ply,SBD,M
Boys,59.87,DQ,Hunter Burton,Millsap,58.11,172.37,,,,Single-ply,SBD,M
Boys,67.13,1,Tuan Hoang,Wichita Falls City View,66.04,233.6,117.93,204.12,555.65,Single-ply,SBD,M
Boys,67.13,2,Chris Graham,Wichita Falls City View,67.09,208.65,108.86,195.04,512.56,Single-ply,SBD,M
Boys,67.13,3,Carlos Villanueva,Strawn,63.68,215.46,97.52,185.97,498.95,Single-ply,SBD,M
Boys,67.13,4,Dalton Davis,Bowie,65.59,183.7,111.13,181.44,476.27,Single-ply,SBD,M
Boys,67.13,5,Basey Mitchell,Millsap,66.27,188.24,83.91,183.7,455.86,Single-ply,SBD,M
Boys,67.13,6,Jw Montgomery,Strawn,64.55,170.1,102.06,181.44,453.59,Single-ply,SBD,M
Boys,67.13,7,Jakob Dumke,Alvord,65.23,174.63,102.06,174.63,451.32,Single-ply,SBD,M
Boys,67.13,8,Jaymz Hemenway,Callisburg,64.91,165.56,104.33,161.03,430.91,Single-ply,SBD,M
Boys,67.13,9,Tyler Richards,Nocona,65.77,158.76,88.45,181.44,428.64,Single-ply,SBD,M
Boys,67.13,10,Julian Perez,Paradise,67,161.03,90.72,161.03,412.77,Single-ply,SBD,M
Boys,67.13,11,Ethan Sanders,Tom Bean,66.54,142.88,99.79,156.49,399.16,Single-ply,SBD,M
Boys,67.13,12,Greg Turner,Leonard,64.46,170.1,79.38,147.42,396.89,Single-ply,SBD,M
Boys,74.84,1,Wyatt Reeves,Paradise,72.53,213.19,127.01,204.12,544.31,Single-ply,SBD,M
Boys,74.84,2,Victor Martinez,Pilot Point,72.62,222.26,124.74,183.7,530.7,Single-ply,SBD,M
Boys,74.84,3,Javon Bruce,Pilot Point,74.84,204.12,113.4,206.38,523.9,Single-ply,SBD,M
Boys,74.84,4,Ty Harris,Bowie,70.67,199.58,122.47,185.97,508.02,Single-ply,SBD,M
Boys,74.84,5,Joey Crawford,Bowie,71.71,181.44,106.59,192.78,480.81,Single-ply,SBD,M
Boys,74.84,6,Enrique Colmenero,Pilot Point,70.62,183.7,81.65,210.92,476.27,Single-ply,SBD,M
Boys,74.84,7,Tj Bellah,Oakridge School,70.62,188.24,92.99,190.51,471.74,Single-ply,SBD,M
Boys,74.84,8,Keatyn Eitelman,Pottsboro,69.44,190.51,99.79,172.37,462.66,Single-ply,SBD,M
Boys,74.84,9,Tony Karleskint,Tom Bean,72.21,181.44,97.52,181.44,460.4,Single-ply,SBD,M
Boys,74.84,10,Auston McBroom,Millsap,73.98,181.44,97.52,170.1,449.06,Single-ply,SBD,M
Boys,74.84,DQ,Bryce Petty,Valley View,73.8,188.24,,,,Single-ply,SBD,M
Boys,74.84,DQ,Bobby Copeland,Wichita Falls City View,72.35,,,,,Single-ply,SBD,M
Boys,74.84,NS,Randal Hamilton,Jacksboro,,,,,,Single-ply,SBD,M
Boys,74.84,NS,Nico Starnes,Chico,,,,,,Single-ply,SBD,M
Boys,82.1,1,Dillon Inman,Boyd,80.2,226.8,145.15,208.65,580.6,Single-ply,SBD,M
Boys,82.1,2,Chris Gidney,Blue Ridge,81.15,210.92,147.42,215.46,573.79,Single-ply,SBD,M
Boys,82.1,3,Kyle Gault,Strawn,79.24,238.14,124.74,204.12,566.99,Single-ply,SBD,M
Boys,82.1,4,Jacob Skinner,Bowie,81.37,219.99,136.08,204.12,560.19,Single-ply,SBD,M
Boys,82.1,5,Trevor Coglon,Bells,80.2,204.12,136.08,208.65,548.85,Single-ply,SBD,M
Boys,82.1,6,Innis Mendoza,Pilot Point,81.19,204.12,145.15,188.24,537.51,Single-ply,SBD,M
Boys,82.1,7,Drayden Lawson,Pilot Point,80.2,206.38,111.13,215.46,532.97,Single-ply,SBD,M
Boys,82.1,8,Jacob Robinson,Paradise,80.51,206.38,102.06,217.72,526.17,Single-ply,SBD,M
Boys,82.1,9,Nolan Jackson,Wichita Falls City View,79.15,226.8,99.79,192.78,519.36,Single-ply,SBD,M
Boys,82.1,10,Crafton Lindenborn,Wichita Falls City View,80.47,190.51,106.59,210.92,508.02,Single-ply,SBD,M
Boys,82.1,11,Victor Tran,Bowie,79.2,213.19,111.13,,324.32,Single-ply,SB,M
Boys,82.1,DQ,Travis Swenson,Henrietta,80.78,,,,,Single-ply,SB,M
Boys,82.1,NS,Connor Glass,Sadler S & S Cons,,,,,,Single-ply,SB,M
Boys,89.81,1,Graham Ledbetter,Whitesboro,88.68,238.14,145.15,247.21,630.49,Single-ply,SBD,M
Boys,89.81,2,Luke Porter,Bonham,88.18,244.94,140.61,217.72,603.28,Single-ply,SBD,M
Boys,89.81,3,Hunter Griffin,Van Alstyne,85.82,226.8,131.54,213.19,571.53,Single-ply,SBD,M
Boys,89.81,4,Seth Baucum,Callisburg,84.59,215.46,124.74,226.8,566.99,Single-ply,SBD,M
Boys,89.81,5,Markos Morales,Whitesboro,85.73,204.12,124.74,219.99,548.85,Single-ply,SBD,M
Boys,89.81,6,Tristan Cummings,Brock,86.45,208.65,145.15,170.1,523.9,Single-ply,SBD,M
Boys,89.81,7,Sam Whittenburg,Sadler S & S Cons,88.9,201.85,120.2,201.85,523.9,Single-ply,SBD,M
Boys,89.81,8,Garrett Kemp,Whitesboro,82.33,176.9,111.13,217.72,505.76,Single-ply,SBD,M
Boys,89.81,9,Jacob Ramos,Paradise,87.59,192.78,108.86,204.12,505.76,Single-ply,SBD,M
Boys,89.81,10,Chris Nabors,Wichita Falls City View,86.27,204.12,106.59,192.78,503.49,Single-ply,SBD,M
Boys,89.81,11,Dawson White,Boyd,88.63,183.7,113.4,181.44,478.54,Single-ply,SBD,M
Boys,89.81,DQ,Anthony Lu,Oakridge School,84.46,204.12,106.59,,,Single-ply,SBD,M
Boys,89.81,NS,Rainier Corral,Valley View,,,,,,Single-ply,SBD,M
Boys,99.79,1,Erik Gonzalez,Valley View,99.61,242.67,154.22,226.8,623.69,Single-ply,SBD,M
Boys,99.79,2,Erick Varela,Inspired Vision,97.11,272.16,136.08,208.65,616.89,Single-ply,SBD,M
Boys,99.79,3,Zackary Otto,Bowie,95.53,249.48,145.15,201.85,596.47,Single-ply,SBD,M
Boys,99.79,4,Casey Breece,Honey Grove,95.3,242.67,113.4,210.92,566.99,Single-ply,SBD,M
Boys,99.79,5,Radley Hamm,Whitewright,95.35,233.6,138.35,195.04,566.99,Single-ply,SBD,M
Boys,99.79,6,Brendon Kirk,Callisburg,97.2,238.14,113.4,215.46,566.99,Single-ply,SBD,M
Boys,99.79,7,Cody Howard,Jacksboro,97.2,219.99,120.2,210.92,551.11,Single-ply,SBD,M
Boys,99.79,8,Colby Hammond,Callisburg,97.11,222.26,115.67,206.38,544.31,Single-ply,SBD,M
Boys,99.79,DQ,Nate Allen,Honey Grove,94.66,,,,,Single-ply,SBD,M
Boys,99.79,DQ,Brody Wiggins,Blue Ridge,97.7,226.8,,,,Single-ply,SBD,M
Boys,99.79,DQ,Brandon Woods,Whitewright,99.52,217.72,,,,Single-ply,SBD,M
Boys,99.79,DQ,Kaleb Evans,Paradise,92.67,,,,,Single-ply,SBD,M
Boys,109.77,1,Daniel Dowling,Bonham,107.18,306.17,238.14,235.87,780.18,Single-ply,SBD,M
Boys,109.77,2,Max Stava,Brock,108.18,240.4,167.83,235.87,644.1,Single-ply,SBD,M
Boys,109.77,3,Dylan Kays,Collinsville,108.5,249.48,151.95,235.87,637.3,Single-ply,SBD,M
Boys,109.77,4,Bryan Arellano,Bowie,106.96,254.01,165.56,190.51,610.08,Single-ply,SBD,M
Boys,109.77,5,Blake Peters,Bells,109.77,219.99,161.03,199.58,580.6,Single-ply,SBD,M
Boys,109.77,6,Daniel Aguilar,Millsap,107.09,247.21,122.47,201.85,571.53,Single-ply,SBD,M
Boys,109.77,7,Zack Matzke,Brock,102.69,235.87,131.54,181.44,548.85,Single-ply,SBD,M
Boys,109.77,8,Arturo Guerrero,Millsap,106,226.8,113.4,192.78,532.97,Single-ply,SBD,M
Boys,109.77,9,Dain Warnick,Alvord,100.06,222.26,106.59,185.97,514.83,Single-ply,SBD,M
Boys,109.77,DQ,Zack Shivers,Brock,107.05,204.12,117.93,,,Single-ply,SBD,M
Boys,109.77,DQ,Jason Daughtry,Nocona,107.37,208.65,113.4,,,Single-ply,SBD,M
Boys,109.77,NS,Casey Pounds,Lindsay,,,,,,Single-ply,SBD,M
Boys,109.77,DQ,Chase Stafford,Archer City,103.28,,,,,Single-ply,SBD,M
Boys,124.74,1,Bartolo Guevara,Boyd,118.21,322.05,156.49,229.06,707.6,Single-ply,SBD,M
Boys,124.74,2,Kamron Rogers,Leonard,118.71,288.03,142.88,210.92,641.83,Single-ply,SBD,M
Boys,124.74,3,Bryce Lowrey,Leonard,122.97,254.01,174.63,206.38,635.03,Single-ply,SBD,M
Boys,124.74,4,Deuce Glasker,Nocona,123.88,244.94,154.22,215.46,614.62,Single-ply,SBD,M
Boys,124.74,5,Alex Kinzer,Brock,111.22,240.4,138.35,233.6,612.35,Single-ply,SBD,M
Boys,124.74,6,Clayton Godwin,Paradise,117.62,244.94,127.01,208.65,580.6,Single-ply,SBD,M
Boys,124.74,7,Reagan Spencer,Gunter,119.98,226.8,120.2,165.56,512.56,Single-ply,SBD,M
Boys,124.74,8,Dayne Kelley,Sherman Texoma Christian School,111.77,190.51,124.74,183.7,498.95,Single-ply,SBD,M
Boys,124.74,9,Ethan Thomas,Sadler S & S Cons,119.98,190.51,124.74,183.7,498.95,Single-ply,SBD,M
Boys,124.74,10,Matt Billmeier,Sadler S & S Cons,110.04,183.7,131.54,170.1,485.34,Single-ply,SBD,M
Boys,124.74,11,Zane Myracle,Archer City,112.35,183.7,113.4,172.37,469.47,Single-ply,SBD,M
Boys,124.74,12,Kaleb Crable,Alvord,111.45,185.97,104.33,167.83,458.13,Single-ply,SBD,M
Boys,124.74+,1,Zach Brown,Alvord,138.07,322.05,149.69,249.48,721.21,Single-ply,SBD,M
Boys,124.74+,2,Tyler Yeck,Ponder,164.2,285.76,154.22,247.21,687.19,Single-ply,SBD,M
Boys,124.74+,3,Brady York,Nocona,134.58,258.55,158.76,242.67,659.98,Single-ply,SBD,M
Boys,124.74+,4,Jake Loganbill,Van Alstyne,129.46,278.96,147.42,231.33,657.71,Single-ply,SBD,M
Boys,124.74+,5,Chris Wilson,Bonham,165.15,222.26,158.76,244.94,625.96,Single-ply,SBD,M
Boys,124.74+,6,Nick Bourdelais,Millsap,134.26,235.87,129.27,231.33,596.47,Single-ply,SBD,M
Boys,124.74+,7,Colby McAdams,Leonard,140.93,229.06,138.35,185.97,553.38,Single-ply,SBD,M
Boys,124.74+,8,Sam Porter,Bonham,177.35,195.04,145.15,185.97,526.17,Single-ply,SBD,M
Boys,124.74+,9,Drake Stephens,Bells,140.57,226.8,113.4,181.44,521.63,Single-ply,SBD,M
Boys,124.74+,10,Elijah McFarlan,Bonham,181.71,176.9,140.61,188.24,505.76,Single-ply,SBD,M
Boys,124.74+,DQ,Mason Damron,Jacksboro,134.22,,,,,Single-ply,SBD,M
Boys,124.74+,DQ,Tate Sizemore,Henrietta,131.95,244.94,161.03,,,Single-ply,SBD,M
