Place,Sex,Name,Event,Division,WeightClassKg,Equipment,BirthYear,Team,State,BodyweightKg,Squat1Kg,Squat2Kg,Squat3Kg,Best3SquatKg,Bench1Kg,Bench2Kg,Bench3Kg,Best3BenchKg,Deadlift1Kg,Deadlift2Kg,Deadlift3Kg,Best3DeadliftKg,TotalKg
1,M,Jake Connolly,B,MR-V,74,Raw,1999,,MA,67.20,,,,,115,120,125,125.0,,,,,125
1,M,Daniel Baez,SBD,M-G,59,Single-ply,1998,,NJ,59.00,147.5,157.5,167.5,167.5,90,95,102.5,102.5,145,152.5,165,165.0,435
1,M,Max Freitas,SBD,M-JV,74,Single-ply,2001,,MA,71.00,107.5,117.5,-137.5,117.5,55,67.5,-72.5,67.5,95,110,125,125.0,310
2,M,Derek Hoang,SBD,M-JV,74,Single-ply,2001,Saint John's High School,MA,72.00,77.5,-82.5,87.5,87.5,55,60,65,65.0,-125,125,127.5,127.5,280
1,M,Brendon Bunnell,SBD,M-JV,83,Single-ply,2001,,MA,78.00,-90,-90,90,90.0,52.5,60,-67.5,60.0,80,95,110,110.0,260
1,M,Mark Doherty,SBD,M-JV,93,Single-ply,2001,,MA,89.80,-110,110,-125,110.0,60,72.5,-77.5,72.5,90,112.5,-130,112.5,295
1,M,Anthony Hirst,SBD,MR-HS,59,Raw,2001,Saint John's High School,MA,58.40,115,120,125,125.0,60,65,-70,65.0,100,110,120,120.0,310
1,M,Joseph Marinella,SBD,MR-HS,66,Raw,2001,,MA,63.90,105,112.5,120,120.0,65,70,-75,70.0,145,157.5,170,170.0,360
2,M,Patrick Ribeiro,SBD,MR-HS,66,Raw,2001,,MA,64.20,112.5,120,-132.5,120.0,70,75,-80,75.0,150,155,165,165.0,360
3,M,Hunter Athearn,SBD,MR-HS,66,Raw,2001,,MA,63.20,92.5,-102.5,105,105.0,67.5,70,72.5,72.5,120,132.5,140,140.0,317.5
4,M,Adrian Gunning,SBD,MR-HS,66,Raw,2000,,MA,61.70,82.5,92.5,100,100.0,67.5,80,-85,80.0,110,125,135,135.0,315
5,M,Jack Cummings,SBD,MR-HS,66,Raw,2002,,MA,65.40,57.5,67.5,77.5,77.5,42.5,-50,60,60.0,85,105,-125,105.0,242.5
1,M,Tristan Scheller,SBD,MR-HS,74,Raw,2000,,MA,66.40,135,145,150,150.0,82.5,87.5,92.5,92.5,150,157.5,162.5,162.5,405
2,M,Kevin Wu #1,SBD,MR-HS,74,Raw,2001,,MA,69.10,115,122.5,130,130.0,52.5,60,65,65.0,85,87.5,135,135.0,330
3,M,Corey Logan,SBD,MR-HS,74,Raw,2000,,MA,69.10,87.5,95,102.5,102.5,60,67.5,72.5,72.5,110,120,132.5,132.5,307.5
4,M,Dimitris Bourlos,SBD,MR-HS,74,Raw,2001,,MA,73.70,77.5,85,-95,85.0,47.5,55,60,60.0,137.5,147.5,160,160.0,305
5,M,Connor Garland,SBD,MR-HS,74,Raw,2002,,MA,66.70,82.5,90,107.5,107.5,65,70,-77.5,70.0,115,125,-140,125.0,302.5
6,M,Thomas Garland,SBD,MR-HS,74,Raw,2002,,MA,72.10,75,82.5,-100,82.5,-45,45,60,60.0,90,100,137.5,137.5,280
1,M,Mitchell Kalogeros,SBD,MR-HS,83,Raw,2001,,MA,80.90,87.5,95,102.5,102.5,75,82.5,-85,82.5,140,155,170,170.0,355
2,M,Sam Maloof,SBD,MR-HS,83,Raw,2002,,MA,79.90,47.5,75,100,100.0,-75,85,92.5,92.5,80,125,155,155.0,347.5
3,M,Zachary Hastings,SBD,MR-HS,83,Raw,2001,Saint John's High School,MA,82.50,95,100,107.5,107.5,65,70,-75,70.0,130,140,-150,140.0,317.5
4,M,Owen Eiermann,SBD,MR-HS,83,Raw,2001,Saint John's High School,MA,79.70,82.5,87.5,-92.5,87.5,60,65,70,70.0,90,95,105,105.0,262.5
1,M,Tyler Woolf,SBD,MR-HS,93,Raw,2002,,MA,89.20,-167.5,167.5,185,185.0,-107.5,107.5,112.5,112.5,170,182.5,197.5,197.5,495
2,M,Christian Siciliano,SBD,MR-HS,93,Raw,2001,Saint John's High School,MA,89.70,120,-125,127.5,127.5,50,55,57.5,57.5,140,150,157.5,157.5,342.5
1,M,Michael Masse,SBD,MR-HS,105,Raw,2001,,MA,103.30,182.5,195,210,210.0,85,92.5,-105,92.5,195,210,227.5,227.5,530
2,M,Joshua Malofsky,SBD,MR-HS,105,Raw,2001,Saint John's High School,MA,96.70,147.5,155,160,160.0,107.5,112.5,115,115.0,200,212.5,-222.5,212.5,487.5
3,M,Drew Kurina,SBD,MR-HS,105,Raw,2001,Saint John's High School,MA,101.50,142.5,147.5,152.5,152.5,70,-72.5,72.5,72.5,177.5,185,-195,185.0,410
4,M,Chris Peterson,SBD,MR-HS,105,Raw,1986,,MA,95.20,-125,125,130,130.0,82.5,87.5,92.5,92.5,-102.5,102.5,115,115.0,337.5
1,M,Cole Mooney,SBD,MR-HS,120,Raw,2000,,MA,113.60,237.5,250,257.5,257.5,125,132.5,-137.5,132.5,230,240,245,245.0,635
2,M,Lucas Ferraro,SBD,MR-HS,120,Raw,2001,,MA,111.50,-177.5,177.5,192.5,192.5,82.5,90,102.5,102.5,177.5,197.5,-217.5,197.5,492.5
3,M,Mohammad Dia,SBD,MR-HS,120,Raw,2000,,MA,110.80,115,-117.5,117.5,117.5,-87.5,87.5,-92.5,87.5,122.5,130,-137.5,130.0,335
1,M,Ryan Lataash,SBD,MR-V,53,Raw,1999,,MA,52.80,115,127.5,-130,127.5,60,67.5,70,70.0,-155,155,170,170.0,367.5
2,M,Ryan Cooper,SBD,MR-V,59,Raw,1999,,MA,58.80,97.5,107.5,125,125.0,60,65,72.5,72.5,147.5,157.5,165,165.0,362.5
3,M,Nicholas Cordeiro,SBD,MR-V,59,Raw,2001,,MA,56.60,110,120,127.5,127.5,67.5,72.5,75,75.0,145,155,-162.5,155.0,357.5
4,M,Nelson Wu,SBD,MR-V,59,Raw,2000,,MA,57.40,95,102.5,110,110.0,-60,60,-67.5,60.0,132.5,142.5,147.5,147.5,317.5
5,M,Gino Serra,SBD,MR-V,59,Raw,2000,Saint John's High School,MA,58.40,90,95,97.5,97.5,72.5,-77.5,-77.5,72.5,137.5,140,145,145.0,315
6,M,Wei Zhang,SBD,MR-V,53,Raw,2000,,MA,48.40,70,75,-80,75.0,32.5,37.5,-42.5,37.5,70,72.5,82.5,82.5,195
1,M,Michael Beaupre,SBD,MR-V,66,Raw,1998,,ME,64.40,140,152.5,157.5,157.5,112.5,120,125,125.0,175,187.5,197.5,197.5,480
2,M,Jonathan Lee,SBD,MR-V,66,Raw,1991,Saint John's High School,MA,63.50,155,160,167.5,167.5,85,90,92.5,92.5,170,180,190,190.0,450
3,M,John-Henry Hendley,SBD,MR-V,66,Raw,1999,Saint John's High School,MA,64.30,125,130,135,135.0,85,90,95,95.0,145,152.5,160,160.0,390
4,M,Wesley Johansen,SBD,MR-V,66,Raw,1999,Saint John's High School,MA,65.60,127.5,135,140,140.0,82.5,87.5,-90,87.5,147.5,152.5,-157.5,152.5,380
1,M,Danny Byers,SBD,MR-V,74,Raw,2000,Saint John's High School,MA,73.20,160,167.5,-172.5,167.5,117.5,122.5,125,125.0,160,175,190,190.0,482.5
2,M,Jeffrey Hoffman,SBD,MR-V,74,Raw,1999,Saint John's High School,MA,69.60,-132.5,-132.5,132.5,132.5,-97.5,97.5,-105,97.5,177.5,200,215,215.0,445
3,M,Benjamin Carr,SBD,MR-V,74,Raw,1999,Saint John's High School,MA,72.80,135,140,145,145.0,87.5,92.5,95,95.0,170,180,-190,180.0,420
4,M,Wahib Yared,SBD,MR-V,74,Raw,1999,,MA,70.00,130,140,150,150.0,80,85,92.5,92.5,145,155,-187.5,155.0,397.5
5,M,Christopher Baccari,SBD,MR-V,74,Raw,1998,,MA,73.80,85,92.5,102.5,102.5,92.5,102.5,-107.5,102.5,137.5,150,162.5,162.5,367.5
6,M,Jack Murphy,SBD,MR-V,74,Raw,2000,Saint John's High School,MA,72.00,-115,120,-122.5,120.0,82.5,87.5,,87.5,130,137.5,145,145.0,352.5
7,M,Nathan Hazlett,SBD,MR-V,74,Raw,2000,,MA,72.80,90,92.5,107.5,107.5,72.5,80,-85,80.0,135,150,157.5,157.5,345
8,M,Tahj Mathis,SBD,MR-V,74,Raw,1999,,MA,71.40,87.5,97.5,107.5,107.5,72.5,77.5,85,85.0,115,125,140,140.0,332.5
DQ,M,Gabriel Cimino,SBD,MR-V,74,Raw,2000,,MA,67.20,-142.5,-142.5,-142.5,,-70,75,-77.5,75.0,135,145,155,155.0,
1,M,Thomas Broderick,SBD,MR-V,83,Raw,1998,,MA,81.20,-180,180,192.5,192.5,-100,102.5,-107.5,102.5,-225,225,-240,225.0,520
2,M,John Aube,SBD,MR-V,83,Raw,1999,Saint John's High School,MA,80.00,182.5,-187.5,-187.5,182.5,97.5,102.5,107.5,107.5,200,212.5,220,220.0,510
3,M,Sheharyar Umar,SBD,MR-V,83,Raw,1999,,MA,82.80,152.5,160,170,170.0,87.5,92.5,97.5,97.5,192.5,200,210,210.0,477.5
4,M,Josh Hilton,SBD,MR-V,83,Raw,2000,,ME,80.80,-140,-150,150,150.0,100,105,-107.5,105.0,192.5,205,210,210.0,465
5,M,Harrison Tejada,SBD,MR-V,83,Raw,1999,,MA,81.60,132.5,-145,145,145.0,90,95,-102.5,95.0,150,160,185,185.0,425
6,M,Peter Lowrie,SBD,MR-V,83,Raw,1999,,MA,75.20,120,132.5,-142.5,132.5,90,97.5,-102.5,97.5,-142.5,152.5,185,185.0,415
7,M,Travis Sanborn,SBD,MR-V,83,Raw,1999,,ME,81.20,120,130,140,140.0,90,97.5,100,100.0,165,175,-182.5,175.0,415
8,M,Joseph Rombalski,SBD,MR-V,83,Raw,1998,,MA,81.80,130,-142.5,-145,130.0,85,92.5,-100,92.5,160,177.5,-187.5,177.5,400
9,M,Joe Emilius,SBD,MR-V,83,Raw,2000,,MA,79.20,102.5,-107.5,120,120.0,80,85,90,90.0,-127.5,127.5,142.5,142.5,352.5
10,M,Luke Melanson,SBD,MR-V,83,Raw,1999,,MA,80.80,112.5,120,-132.5,120.0,65,72.5,77.5,77.5,125,137.5,142.5,142.5,340
11,M,Raymond Hang,SBD,MR-V,83,Raw,2000,,MA,79.20,115,-122.5,125,125.0,57.5,65,67.5,67.5,125,137.5,145,145.0,337.5
12,M,Patrick McTiernan,SBD,MR-V,83,Raw,1998,,MA,79.00,102.5,112.5,-120,112.5,65,72.5,-75,72.5,125,137.5,145,145.0,330
13,M,Garrett Murphy,SBD,MR-V,83,Raw,2000,,CT,78.80,82.5,-92.5,92.5,92.5,67.5,75,82.5,82.5,-125,125,137.5,137.5,312.5
14,M,Victor Chau,SBD,MR-V,83,Raw,2000,,MA,81.80,92.5,100,107.5,107.5,60,65,-67.5,65.0,102.5,110,117.5,117.5,290
15,M,Vincent Dalai,SBD,MR-V,83,Raw,2000,,MA,81.40,70,80,92.5,92.5,-45,50,57.5,57.5,102.5,115,125,125.0,275
16,M,Tommy Duong,SBD,MR-V,83,Raw,2000,,MA,80.80,70,77.5,-82.5,77.5,55,60,65,65.0,90,97.5,105,105.0,247.5
1,M,Dylan Crawford,SBD,MR-V,93,Raw,2000,,NH,83.80,185,197.5,205,205.0,102.5,110,-115,110.0,230,245,-252.5,245.0,560
2,M,Ryan Kelly,SBD,MR-V,93,Raw,2000,Saint John's High School,MA,88.60,192.5,200,-210,200.0,105,112.5,120,120.0,182.5,197.5,210,210.0,530
3,M,Ryan Solitro,SBD,MR-V,93,Raw,1999,,RI,92.60,140,147.5,155,155.0,-105,105,-110,105.0,205,225,-230,225.0,485
4,M,Ian McMurray,SBD,MR-V,93,Raw,1999,Saint John's High School,MA,91.80,145,152.5,160,160.0,62.5,70,77.5,77.5,175,187.5,-197.5,187.5,425
5,M,David Diplacido,SBD,MR-V,93,Raw,2000,Saint John's High School,MA,87.40,137.5,147.5,152.5,152.5,97.5,102.5,-112.5,102.5,145,155,165,165.0,420
6,M,Max Rodriguez,SBD,MR-V,93,Raw,1998,,MA,92.80,110,122.5,142.5,142.5,100,107.5,-117.5,107.5,147.5,160,-172.5,160.0,410
7,M,Timothy Tat,SBD,MR-V,93,Raw,2000,,MA,88.60,-120,120,-130,120.0,75,80,-90,80.0,170,182.5,192.5,192.5,392.5
1,M,Joseph Chau,SBD,MR-V,105,Raw,1999,,MA,99.80,-202.5,202.5,217.5,217.5,102.5,107.5,-112.5,107.5,187.5,195,210,210.0,535
2,M,Dominic Parente,SBD,MR-V,105,Raw,1999,,RI,101.70,150,155,162.5,162.5,105,107.5,112.5,112.5,215,-230,-230,215.0,490
3,M,Matthew Petry,SBD,MR-V,105,Raw,1999,Saint John's High School,MA,104.60,-155,160,165,165.0,100,105,-107.5,105.0,182.5,192.5,205,205.0,475
4,M,Hayden Dillow,SBD,MR-V,105,Raw,2000,,MA,99.50,145,155,172.5,172.5,77.5,92.5,107.5,107.5,160,172.5,182.5,182.5,462.5
5,M,Ben Burton,SBD,MR-V,105,Raw,1999,Saint John's High School,MA,96.80,150,160,167.5,167.5,102.5,105,-107.5,105.0,150,162.5,170,170.0,442.5
6,M,Michael Mcshane,SBD,MR-V,105,Raw,1999,,MA,101.00,125,135,145,145.0,80,87.5,-92.5,87.5,140,157.5,167.5,167.5,400
7,M,Josh Polese,SBD,MR-V,105,Raw,1999,,MA,101.60,120,130,140,140.0,77.5,82.5,-87.5,82.5,152.5,162.5,172.5,172.5,395
8,M,Matthew Osborne,SBD,MR-V,105,Raw,2000,,MA,94.20,102.5,112.5,130,130.0,72.5,82.5,-90,82.5,147.5,160,167.5,167.5,380
DQ,M,James Walter,SBD,MR-V,105,Raw,2000,,MA,103.60,-165,-170,-170,,105,110,117.5,117.5,165,177.5,195,195.0,
1,M,Cullan Zampell,SBD,MR-V,120,Raw,2000,,MA,113.20,187.5,-195,200,200.0,95,102.5,-107.5,102.5,227.5,237.5,-250,237.5,540
2,M,Jamie Laing,SBD,MR-V,120,Raw,1998,,MA,110.00,165,175,-182.5,175.0,80,87.5,-92.5,87.5,187.5,-195,-195,187.5,450
1,M,Domenic Depaoli,SBD,MR-V,120+,Raw,1999,,MA,121.40,-175,182.5,192.5,192.5,110,117.5,120,120.0,195,220,230,230.0,542.5
2,M,Jack Cordova,SBD,MR-V,120+,Raw,1999,,MA,135.50,117.5,125,130,130.0,55,60,-70,60.0,-145,150,162.5,162.5,352.5
3,M,Richard Squires,SBD,MR-V,120+,Raw,1999,,CT,122.50,130,140,-147.5,140.0,67.5,72.5,-77.5,72.5,137.5,-142.5,-145,137.5,350
1,M,Johnny Feng,SBD,M-Y,74,Single-ply,2000,,MA,72.40,115,117.5,125,125.0,72.5,77.5,-80,77.5,140,150,165,165.0,367.5
2,M,Jack Gerrior,SBD,M-Y,74,Single-ply,2000,,MA,69.40,115,-122.5,122.5,122.5,77.5,92.5,-97.5,92.5,117.5,-127.5,-127.5,117.5,332.5
DQ,M,Christian Sotelo,SBD,M-Y,74,Single-ply,2000,,MA,69.00,-160,-160,-160,,-97.5,97.5,102.5,102.5,145,157.5,172.5,172.5,
1,M,Jacob Cabral,SBD,M-Y,83,Single-ply,2000,,MA,81.60,75,,,75.0,110,-115,-115,110.0,95,,,95.0,280
1,M,Mark Mulhern,SBD,M-Y,93,Single-ply,1999,,MA,90.20,187.5,-202.5,-202.5,187.5,95,105,-115,105.0,210,-227.5,-227.5,210.0,502.5
1,M,Owen Haynes,SBD,M-Y,120,Single-ply,1999,,MA,113.60,170,-190,-190,170.0,77.5,87.5,92.5,92.5,165,182.5,-190,182.5,445
1,M,Nicholas Cristina,SBD,M-Y,120+,Single-ply,1999,,MA,135.00,220,235,250,250.0,117.5,125,132.5,132.5,180,195,-207.5,195.0,577.5
1,F,Rebecca Semanski,SBD,FR-G,72,Raw,1994,,NJ,63.80,55,62.5,-70,62.5,35,37.5,-40,37.5,80,95,110,110.0,210
1,F,Lily Tran,SBD,FR-HS,57,Raw,2001,,MA,54.20,90,95,100,100.0,37.5,42.5,-45,42.5,92.5,100,-110,100.0,242.5
1,F,Engracia Scheller,SBD,FR-HS,72,Raw,2004,,MA,67.80,60,62.5,65,65.0,-32.5,35,-37.5,35.0,65,70,75,75.0,175
1,F,Tiffany Lam,SBD,FR-V,52,Raw,2000,,MA,50.00,60,65,70,70.0,35,40,-42.5,40.0,57.5,65,70,70.0,180
1,F,Maya Toth,SBD,FR-V,63,Raw,2000,,NH,62.00,90,100,-110,100.0,47.5,55,-60,55.0,97.5,105,-122.5,105.0,260
2,F,Jami Huang,SBD,FR-V,63,Raw,2000,,MA,59.00,82.5,87.5,92.5,92.5,-37.5,40,45,45.0,87.5,97.5,105,105.0,242.5
3,F,Kendra Gordillo,SBD,FR-V,63,Raw,1998,,CT,61.30,67.5,75,80,80.0,37.5,40,-42.5,40.0,87.5,97.5,-102.5,97.5,217.5
4,F,Rachel Odell,SBD,FR-V,63,Raw,2000,,NY,62.50,70,75,-80,75.0,27.5,-32.5,32.5,32.5,90,97.5,102.5,102.5,210
1,F,Emily Anderson,SBD,FR-V,72,Raw,1996,,CT,67.70,65,70,75,75.0,32.5,37.5,40,40.0,77.5,87.5,92.5,92.5,207.5
