Division,WeightClassKg,Place,Name,Team,BodyweightKg,Best3SquatKg,Best3BenchKg,Best3DeadliftKg,TotalKg,Equipment,Event,Sex
Boys,51.71,1,Jeremiah Carino,Ladonia Fannindel,51.71,136.08,61.23,142.88,340.19,Single-ply,SBD,M
Boys,51.71,2,Jackson Anderson,Cooper,51.71,104.33,52.16,102.06,258.55,Single-ply,SBD,M
Boys,51.71,3,Johnathan Taylor,Quinlan Ford,46.08,83.91,36.29,99.79,219.99,Single-ply,SBD,M
Boys,51.71,4,Roman Colsten,Commerce,37.74,70.31,29.48,86.18,185.97,Single-ply,SBD,M
Boys,55.79,1,Preston Booker,Honey Grove,53.34,145.15,65.77,149.69,360.61,Single-ply,SBD,M
Boys,55.79,2,Carl Shehane,Quinlan Ford,54.88,140.61,74.84,113.4,328.85,Single-ply,SBD,M
Boys,55.79,3,Austen Siscoe,Commerce,55.47,111.13,74.84,142.88,328.85,Single-ply,SBD,M
Boys,55.79,4,Caleb Ashley,Paris Chisum,55.25,111.13,81.65,120.2,312.98,Single-ply,SBD,M
Boys,59.87,1,Korrighan Smith,Commerce,59.51,124.74,83.91,122.47,331.12,Single-ply,SBD,M
Boys,59.87,2,Trey Corbett,Honey Grove,57.24,117.93,52.16,154.22,324.32,Single-ply,SBD,M
Boys,59.87,3,Colby Connelly,Honey Grove,55.97,108.86,58.97,113.4,281.23,Single-ply,SBD,M
Boys,59.87,4,Ryan Graham,Paris Chisum,59.6,95.25,61.23,122.47,278.96,Single-ply,SBD,M
Boys,59.87,5,Jesse Ortiz,Quinlan Ford,57.06,88.45,52.16,95.25,235.87,Single-ply,SBD,M
Boys,59.87,DQ,Aaron Nelson,Honey Grove,59.87,147.42,77.11,,,Single-ply,SBD,M
Boys,67.13,1,Brayden Lopez,Commerce,67.13,210.92,129.27,197.31,537.51,Single-ply,SBD,M
Boys,67.13,2,Dylan Bargerhuff,Lone Oak,66.95,204.12,88.45,174.63,467.2,Single-ply,SBD,M
Boys,67.13,3,Dakota Vanderburg,Paris Chisum,63.68,174.63,106.59,181.44,462.66,Single-ply,SBD,M
Boys,67.13,4,Garrett Davis,Quinlan Ford,63.32,181.44,99.79,167.83,449.06,Single-ply,SBD,M
Boys,67.13,5,Colby Smith,Ladonia Fannindel,66.13,136.08,81.65,181.44,399.16,Single-ply,SBD,M
Boys,67.13,6,Sam Collins,Paris Chisum,65.86,140.61,97.52,156.49,394.63,Single-ply,SBD,M
Boys,67.13,7,Josh Archer,Celeste,63.68,154.22,79.38,156.49,390.09,Single-ply,SBD,M
Boys,67.13,8,Myles Knudsen,Honey Grove,66.32,149.69,70.31,170.1,390.09,Single-ply,SBD,M
Boys,67.13,9,Brian Wilson,Paris Chisum,64.32,145.15,77.11,165.56,387.82,Single-ply,SBD,M
Boys,67.13,10,Brady Clifton,Wolfe City,67.13,136.08,97.52,124.74,358.34,Single-ply,SBD,M
Boys,67.13,11,DayDay Johnson,Ladonia Fannindel,62.69,136.08,68.04,142.88,347,Single-ply,SBD,M
Boys,67.13,12,Tomas Arguello,Wolfe City,65.5,129.27,74.84,120.2,324.32,Single-ply,SBD,M
Boys,67.13,DQ,Zach Flowers,Honey Grove,64.41,,,,,Single-ply,SBD,M
Boys,74.84,1,Joseph Moore,Cooper,72.39,151.95,88.45,158.76,399.16,Single-ply,SBD,M
Boys,74.84,2,Aaron Rodgers,Paris Chisum,67.86,145.15,81.65,156.49,383.29,Single-ply,SBD,M
Boys,74.84,3,Spencer Mohundro,Lone Oak,72.39,133.81,79.38,156.49,369.68,Single-ply,SBD,M
Boys,74.84,4,Nathan Slemmons,Lone Oak,71.12,147.42,74.84,145.15,367.41,Single-ply,SBD,M
Boys,74.84,5,Dylan Bell,Lone Oak,68.49,133.81,77.11,145.15,356.07,Single-ply,SBD,M
Boys,74.84,6,Coby Barnes,Wolfe City,74.48,145.15,77.11,117.93,340.19,Single-ply,SBD,M
Boys,74.84,7,Kenny Campbell,Honey Grove,67.86,117.93,63.5,140.61,322.05,Single-ply,SBD,M
Boys,74.84,8,Brock Braley,Honey Grove,72.57,117.93,61.23,122.47,301.64,Single-ply,SBD,M
Boys,74.84,9,Dylan Dillehay,Ladonia Fannindel,68.49,97.52,70.31,124.74,292.57,Single-ply,SBD,M
Boys,74.84,DQ,Imanol Gomez,Honey Grove,70.76,122.47,74.84,,,Single-ply,SBD,M
Boys,74.84,DQ,Tyler Kinickerbocker,Cooper,74.12,145.15,,,,Single-ply,SBD,M
Boys,74.84,DQ,Garrett Hawkins,Paris Chisum,70.76,,,,,Single-ply,SBD,M
Boys,82.1,1,Evan Wilson,Bonham,77.56,208.65,117.93,222.26,548.85,Single-ply,SBD,M
Boys,82.1,2,Isaiah Askew,Commerce,82.1,208.65,111.13,226.8,546.58,Single-ply,SBD,M
Boys,82.1,3,Austin Ballard,Bonham,76.11,201.85,122.47,213.19,537.51,Single-ply,SBD,M
Boys,82.1,4,Calvin Corbett,Honey Grove,78.47,181.44,99.79,208.65,489.88,Single-ply,SBD,M
Boys,82.1,5,Billy Webb,Wolfe City,77.93,176.9,122.47,165.56,464.93,Single-ply,SBD,M
Boys,82.1,6,Bryce Shafer,Ladonia Fannindel,76.57,124.74,77.11,158.76,360.61,Single-ply,SBD,M
Boys,82.1,7,Roman Gonzalez,Quinlan Ford,78.2,117.93,61.23,124.74,303.91,Single-ply,SBD,M
Boys,82.1,DQ,Drake Wooten,Honey Grove,75.75,,,,,Single-ply,SBD,M
Boys,89.81,1,Travis Williams,Wolfe City,89.81,215.46,122.47,215.46,553.38,Single-ply,SBD,M
Boys,89.81,2,Casey Breece,Honey Grove,89.49,201.85,88.45,174.63,464.93,Single-ply,SBD,M
Boys,89.81,3,John Bunch,Quinlan Ford,89.36,170.1,104.33,170.1,444.52,Single-ply,SBD,M
Boys,89.81,4,Seth Gammage,Lone Oak,86.45,163.29,97.52,181.44,442.25,Single-ply,SBD,M
Boys,89.81,5,Cameron N,Honey Grove,86.18,120.2,77.11,129.27,326.59,Single-ply,SBD,M
Boys,89.81,6,Danny Banker,Honey Grove,83.73,97.52,65.77,127.01,290.3,Single-ply,SBD,M
Boys,99.79,1,Bryton Jimenez,Lone Oak,95.62,249.48,122.47,210.92,582.87,Single-ply,SBD,M
Boys,99.79,2,Taylor Juarez-Conner,Honey Grove,94.8,201.85,111.13,185.97,498.95,Single-ply,SBD,M
Boys,99.79,3,Eric Fisk,Wolfe City,96.8,190.51,117.93,181.44,489.88,Single-ply,SBD,M
Boys,99.79,4,William Cotton,Quinlan Ford,98.43,188.24,97.52,192.78,478.54,Single-ply,SBD,M
Boys,99.79,5,Tanner Boggess,Ladonia Fannindel,98.43,154.22,108.86,195.04,458.13,Single-ply,SBD,M
Boys,99.79,6,Wesley Daugherty,Celeste,97.16,158.76,90.72,158.76,408.23,Single-ply,SBD,M
Boys,99.79,7,Erick Garcia,Ladonia Fannindel,92.99,81.65,45.36,158.76,285.76,Single-ply,SBD,M
Boys,99.79,8,Wesley Estes,Paris Chisum,91.35,90.72,68.04,111.13,269.89,Single-ply,SBD,M
Boys,99.79,DQ,Roberto Vasquez,Honey Grove,91.17,167.83,,,,Single-ply,SBD,M
Boys,109.77,1,Anthony Cork,Commerce,103.06,158.76,102.06,197.31,458.13,Single-ply,SBD,M
Boys,109.77,2,Victor Esparza,Honey Grove,107.41,172.37,86.18,181.44,439.98,Single-ply,SBD,M
Boys,109.77,3,Anthony Peak,Commerce,106.59,158.76,102.06,127.01,387.82,Single-ply,SBD,M
Boys,109.77,4,Parker Stedman,Wolfe City,107.77,136.08,86.18,138.35,360.61,Single-ply,SBD,M
Boys,124.74,1,Kellan Anderson,Wolfe City,122.47,247.21,131.54,219.99,598.74,Single-ply,SBD,M
Boys,124.74,2,Garrett Carpenter,Lone Oak,115.21,249.48,106.59,219.99,576.06,Single-ply,SBD,M
Boys,124.74,3,Dylan Hicks,Celeste,118.39,233.6,131.54,210.92,576.06,Single-ply,SBD,M
Boys,124.74,4,Adam Aldridge,Honey Grove,117.93,190.51,111.13,188.24,489.88,Single-ply,SBD,M
Boys,124.74,5,Justin Lewis,Quinlan Ford,118.75,204.12,102.06,181.44,487.61,Single-ply,SBD,M
Boys,124.74,6,Anthony Taraugo,Celeste,121.2,165.56,111.13,170.1,446.79,Single-ply,SBD,M
Boys,124.74+,1,Fili Rincon,Lone Oak,125.1,306.17,181.44,238.14,725.75,Single-ply,SBD,M
Boys,124.74+,2,Matt Kelly,Caddo Mills,138.35,317.51,147.42,229.06,694,Single-ply,SBD,M
Boys,124.74+,3,Ethan Price,Honey Grove,150.14,217.72,104.33,217.72,539.77,Single-ply,SBD,M
Boys,124.74+,4,Brayden Withrow,Cooper,132,163.29,122.47,158.76,444.52,Single-ply,SBD,M
Boys,124.74+,5,Matao Jacinto,Quinlan Ford,158.76,181.44,90.72,142.88,415.04,Single-ply,SBD,M
