Name,Place,Division,Sex,Equipment,State,WeightClassKg,BodyweightKg,Age,Best3SquatKg,Best3BenchKg,Bench4Kg,Best3DeadliftKg,Deadlift4Kg,TotalKg,Event
Francesca Paraz,1,Juniors 20-23,F,Raw,NV,56,53.21,20,92.5,60,,115,,267.5,SBD
Kristen Morgan,DQ,Juniors 20-23,F,Raw,NV,60,59.96,20,-95,60,,112.5,,,SBD
Karent Garrett,1,Open,F,Raw,NV,52,51.89,24,55,35,,97.5,,187.5,SBD
Francesca Paraz,1,Open,F,Raw,NV,56,53.21,20,92.5,60,,115,,267.5,SBD
Jessica Caldwell,2,Open,F,Raw,NV,56,54.79,27,65,37.5,,102.5,,205,SBD
Kelly Bumgarner,1,Open,F,Raw,NV,60,56.47,28,110,57.5,,110,125,277.5,SBD
Kristen Morgan,DQ,Open,F,Raw,NV,60,59.96,20,-95,60,,112.5,,,SBD
Christle Guevarra,1,Open,F,Raw,CA,75,67.86,31,125,57.5,,145,,327.5,SBD
Trace Ryan,2,Open,F,Raw,NV,75,69.35,43,82.5,70,,137.5,,290,SBD
Rachel Herrera,3,Open,F,Raw,NV,75,68.4,45,42.5,27.5,,95,,165,SBD
Grace Tacuyan-Witt,1,Submasters 35-39,F,Raw,NV,90+,102.19,36,122.5,70,,158,162.5,350.5,SBD
Heidi Bailey,1,Masters 40-44,F,Raw,NV,67.5,64.5,44,70,52.5,,110,,232.5,SBD
Trace Ryan,1,Masters 40-44,F,Raw,NV,75,69.35,43,82.5,70,,137.5,,290,SBD
Rachel Herrera,1,Masters 45-49,F,Raw,NV,75,68.4,45,42.5,27.5,,95,,165,SBD
Zee Helmick,1,Masters 45-49,F,Raw,NV,82.5,82.01,47,62.5,47.5,,115,,225,SBD
Darius Theos-King,1,Juniors 16-17,M,Raw,NV,67.5,65.41,17,130,82.5,,190,,402.5,SBD
Troy Prisbrey,1,Juniors 18-19,M,Raw,NV,67.5,61.28,18,132.5,92.5,,185,,410,SBD
Brian Kuveke,1,Juniors 20-23,M,Raw,NV,67.5,67.09,20,152.5,100,,190,,442.5,SBD
Tyler Teal,1,Juniors 20-23,M,Raw,NV,75,73.44,20,145,90,,195,,430,SBD
William Morris,1,Juniors 20-23,M,Raw,NV,82.5,80.33,21,160,127.5,,230,,517.5,SBD
Adrian Bernardo,DQ,Juniors 20-23,M,Raw,NV,82.5,78.93,20,155,-97.5,,185,,,SBD
Andrew Knapik,1,Juniors 16-17,M,Raw,NV,90,85.23,16,130,85,,165,,380,SBD
Alejandro Lara,1,Juniors 20-23,M,Raw,NV,90,86.64,21,182.5,110,,190,,482.5,SBD
Kyle Spoerl,1,Juniors 20-23,M,Raw,NV,100,98.88,21,165,122.5,,240,,527.5,SBD
Corey Bean,2,Juniors 20-23,M,Raw,NV,100,90.58,20,115,82.5,,165,,362.5,SBD
Brian Kuveke,1,Open,M,Raw,NV,67.5,67.09,20,152.5,100,,190,,442.5,SBD
Robert Bennett,2,Open,M,Raw,NV,67.5,65.63,27,125,102.5,,212.5,,440,SBD
Troy Prisbrey,3,Open,M,Raw,NV,67.5,61.28,18,132.5,92.5,,185,,410,SBD
Darius Theos-King,4,Open,M,Raw,NV,67.5,65.41,17,130,82.5,,190,,402.5,SBD
Thomas Stover,1,Open,M,Raw,NV,75,74.16,30,200,157.5,,240,,597.5,SBD
Bruce Randall,2,Open,M,Raw,NV,75,73.16,26,210,150,,235,,595,SBD
Anthony Lopez,3,Open,M,Raw,CA,75,71.08,38,187.5,127.5,,217.5,,532.5,SBD
Tyler Teal,4,Open,M,Raw,NV,75,73.44,20,145,90,,195,,430,SBD
Matthew Cartwright,5,Open,M,Raw,NV,75,71.62,43,95,65,,120,,280,SBD
Tony Rodriguez,1,Open,M,Raw,NV,82.5,81.37,45,212.5,117.5,,257.5,,587.5,SBD
William Morris,2,Open,M,Raw,NV,82.5,80.33,21,160,127.5,,230,,517.5,SBD
Dave Colvin,3,Open,M,Raw,NV,82.5,79.79,51,140,110,,162.5,,412.5,SBD
Adrian Bernardo,DQ,Open,M,Raw,NV,82.5,78.93,20,155,-97.5,,185,,,SBD
Phillip Watford,1,Open,M,Raw,NV,90,89.09,35,210,137.5,140,230,,577.5,SBD
Jason Sadora,2,Open,M,Raw,NV,90,86.64,28,197.5,117.5,,247.5,,562.5,SBD
Alejandro Lara,3,Open,M,Raw,NV,90,86.64,21,182.5,110,,190,,482.5,SBD
Andrew Knapik,4,Open,M,Raw,NV,90,85.23,16,130,85,,165,,380,SBD
Joseph Vrona,1,Open,M,Raw,NV,100,99.16,31,210,165,,245,,620,SBD
Kyle Spoerl,2,Open,M,Raw,NV,100,98.88,21,165,122.5,,240,,527.5,SBD
Daniel Zarrella,3,Open,M,Raw,NV,100,98.47,32,175,117.5,,220,,512.5,SBD
Charles Cooper,4,Open,M,Raw,NV,100,97.43,41,170,125,,212.5,,507.5,SBD
Corey Bean,5,Open,M,Raw,NV,100,90.58,20,115,82.5,,165,,362.5,SBD
Barrett Marum,1,Open,M,Raw,CA,110,109.23,35,227.5,172.5,,257.5,,657.5,SBD
Thomas Mani,2,Open,M,Raw,NV,110,101.47,26,182.5,110,,217.5,,510,SBD
Allen Manning,3,Open,M,Raw,NV,110,107.37,39,177.5,85,,192.5,,455,SBD
Chris Colon,1,Open,M,Raw,NV,125,112.49,24,245,160,,295,,700,SBD
Gary Witcher,2,Open,M,Raw,CA,125,124.1,44,240,192.5,,215,,647.5,SBD
Anthony Lopez,1,Submasters 35-39,M,Raw,CA,75,71.08,38,187.5,127.5,,217.5,,532.5,SBD
Phillip Watford,1,Submasters 35-39,M,Raw,NV,90,89.09,35,210,137.5,140,230,,577.5,SBD
Barrett Marum,1,Submasters 35-39,M,Raw,CA,110,109.23,35,227.5,172.5,,257.5,,657.5,SBD
Allen Manning,2,Submasters 35-39,M,Raw,NV,110,107.37,39,177.5,85,,192.5,,455,SBD
Matthew Cartwright,1,Masters 40-44,M,Raw,NV,75,71.62,43,95,65,,120,,280,SBD
Tony Rodriguez,1,Masters 45-49,M,Raw,NV,82.5,81.37,45,212.5,117.5,,257.5,,587.5,SBD
Dave Colvin,1,Masters 50-54,M,Raw,NV,82.5,79.79,51,140,110,,162.5,,412.5,SBD
Charles Cooper,1,Masters 40-44,M,Raw,NV,100,97.43,41,170,125,,212.5,,507.5,SBD
Gary Witcher,1,Masters 40-44,M,Raw,CA,125,124.1,44,240,192.5,,215,,647.5,SBD
Rebecca Brady,1,Open,F,Wraps,NV,67.5,65.05,29,60,37.5,,82.5,,180,SBD
Rolliz Pangilinan,1,Juniors 20-23,M,Wraps,NV,75,73.53,23,202.5,125,,235,,562.5,SBD
Israel Narvaez,2,Juniors 20-23,M,Wraps,NV,75,74.34,23,195,110,,205,,510,SBD
Hunter Rossman,1,Juniors 18-19,M,Wraps,NV,110,107.86,18,227.5,137.5,,272.5,,637.5,SBD
Rolliz Pangilinan,1,Open,M,Wraps,NV,75,73.53,23,202.5,125,,235,,562.5,SBD
Israel Narvaez,2,Open,M,Wraps,NV,75,74.34,23,195,110,,205,,510,SBD
Jorge Gonzalez #3,1,Open,M,Wraps,NV,90,88.99,24,237.5,177.5,,237.5,,652.5,SBD
Corey Sobania,2,Open,M,Wraps,NV,90,87.04,27,175,142.5,,212.5,,530,SBD
Carlos Castro,1,Open,M,Wraps,NV,100,98.97,24,265,132.5,,250,,647.5,SBD
Joseph Vespo,2,Open,M,Wraps,NV,100,99.38,28,242.5,115,,272.5,,630,SBD
Zack McDole,1,Open,M,Wraps,NV,110,102.38,29,250,182.5,,227.5,,660,SBD
Hunter Rossman,2,Open,M,Wraps,NV,110,107.86,18,227.5,137.5,,272.5,,637.5,SBD
Brandon Allen #1,DQ,Open,M,Wraps,NV,140,127.05,25,340,220,,-317.5,,,SBD
Joe Dentice,1,Masters 55-59,M,Wraps,NV,125,122.65,55,182.5,160,,235,,577.5,SBD
Andreas Gallagher,1,Open,M,Single-ply,NV,125,119.16,32,295,195,,275,,765,SBD
Dan Martin,1,Masters 70-74,M,Single-ply,NV,82.5,81.42,73,132.5,85,,145,,362.5,SBD
Karent Garrett,1,Open,F,Raw,NV,52,51.89,24,,35,,,,35,B
Kristine Castro,1,Open,F,Raw,NV,60,58.97,39,,67.5,,,,67.5,B
Rebecca Brady,1,Open,F,Raw,NV,67.5,65.05,29,,37.5,,,,37.5,B
Kristine Castro,1,Submasters 35-39,F,Raw,NV,60,58.97,39,,67.5,,,,67.5,B
Grace Tacuyan-Witt,1,Submasters 35-39,F,Raw,NV,90+,102.19,36,,70,,,,70,B
Zee Helmick,1,Masters 45-49,F,Raw,NV,82.5,82.01,47,,47.5,,,,47.5,B
Andrew Knapik,1,Juniors 16-17,M,Raw,NV,90,85.23,16,,85,,,,85,B
Will Shearer,1,Open,M,Raw,NV,67.5,67.45,24,,100,,,,100,B
Zach Miller,1,Open,M,Raw,WA,90,82.64,26,,177.5,,,,177.5,B
Rafael Henderson,1,Open,M,Raw,NV,100,94.35,32,,142.5,,,,142.5,B
Chad Kalilimoku,1,Open,M,Raw,NV,125,121.02,33,,265,,,,265,B
Alan Aerts,1,Open,M,Raw,NV,140,129.46,57,,187.5,,,,187.5,B
Alan Aerts,1,Masters 55-59,M,Raw,NV,140,129.46,57,,187.5,,,,187.5,B
Sabra Callahan,1,Masters 55-59,F,Single-ply,NV,60,58.11,58,,55,,,,55,B
Nicholas Pastorello,1,Juniors 16-17,M,Single-ply,NV,125,115.76,16,,170,,,,170,B
Tom Masters,1,Open,M,Single-ply,NV,140,135.31,37,,227.5,,,,227.5,B
Alan Aerts,2,Open,M,Single-ply,NV,140,129.46,57,,220,,,,220,B
Tom Masters,1,Submasters 35-39,M,Single-ply,NV,140,135.31,37,,227.5,,,,227.5,B
Alan Aerts,1,Masters 55-59,M,Single-ply,NV,140,129.46,57,,220,,,,220,B
Anthony Pastorello,DQ,Open,M,Multi-ply,NV,140,133.04,43,,-365,,,,,B
Anthony Pastorello,DQ,Masters 40-44,M,Multi-ply,NV,140,133.04,43,,-365,,,,,B
Karent Garrett,1,Open,F,Raw,NV,52,51.89,24,,,,97.5,,97.5,D
Rebecca Brady,1,Open,F,Raw,NV,67.5,65.05,29,,,,82.5,,82.5,D
Grace Tacuyan-Witt,1,Submasters 35-39,F,Raw,NV,90+,102.19,36,,,,158,162.5,158,D
Zee Helmick,1,Masters 45-49,F,Raw,NV,82.5,82.01,47,,,,115,,115,D
Andrew Knapik,1,Juniors 16-17,M,Raw,NV,90,85.23,16,,,,165,,165,D
Dillon Smith,1,Juniors 20-23,M,Raw,NV,90,86.18,22,,,,225,,225,D
Will Shearer,1,Open,M,Raw,NV,67.5,67.45,24,,,,202.5,,202.5,D
Daniel Zarrella,1,Open,M,Raw,NV,100,98.47,32,,,,220,,220,D
Joe Dentice,1,Masters 55-59,M,Raw,NV,125,122.65,55,,,,235,,235,D
Sabra Callahan,1,Masters 55-59,F,Single-ply,NV,60,58.11,58,,,,102.5,,102.5,D
JR Mancini,1,Open,M,Single-ply,NV,100,97.48,35,,,,300,,300,D
Gary Menaker,1,Masters 60-64,M,Single-ply,NV,75,70.67,61,,,,182.5,,182.5,D
Stan Miyahira,1,Masters 75-79,M,Single-ply,NV,82.5,81.51,75,,,,145,,145,D
