Division,WeightClassKg,Place,Name,Team,BodyweightKg,Best3SquatKg,Best3BenchKg,Best3DeadliftKg,TotalKg,Equipment,Event,Sex
Boys,51.71,1,Sam Cooper,Leander,50.48,92.99,58.97,92.99,244.94,Single-ply,SBD,M
Boys,51.71,2,Joseph Lendo,Leander,48.35,83.91,54.43,92.99,231.33,Single-ply,SBD,M
Boys,51.71,3,Adrian Dominguez,Leander,50.26,72.57,31.75,83.91,188.24,Single-ply,SBD,M
Boys,51.71,4,Chad Gouge,Pflugerville Hendrickson,47.17,56.7,34.02,79.38,170.1,Single-ply,SBD,M
Boys,55.79,1,Forrest Warren,Georgetown,54.43,136.08,63.5,129.27,328.85,Single-ply,SBD,M
Boys,55.79,2,Esidro Arce,Lampasas,55.79,106.59,65.77,124.74,297.1,Single-ply,SBD,M
Boys,55.79,3,Misael Ramos,Leander,55.79,113.4,56.7,122.47,292.57,Single-ply,SBD,M
Boys,55.79,4,Ty Smith,Dripping Springs,54.43,92.99,58.97,127.01,278.96,Single-ply,SBD,M
Boys,59.87,1,Zac Bryant,Lampasas,59.87,142.88,90.72,151.95,385.55,Single-ply,SBD,M
Boys,59.87,2,Lee Mitchell,Hutto,58.51,108.86,90.72,138.35,337.93,Single-ply,SBD,M
Boys,59.87,3,Ernie Faz,Cedar Park Vista Ridge,59.42,108.86,88.45,113.4,310.71,Single-ply,SBD,M
Boys,59.87,4,Jermey Gamel,Pflugerville Hendrickson,56.7,111.13,61.23,124.74,297.1,Single-ply,SBD,M
Boys,59.87,5,Kevion Harris,Pflugerville Connally,56.25,106.59,56.7,115.67,278.96,Single-ply,SBD,M
Boys,67.13,DQ,Justin Manigault,Lampasas,66.22,,,,,Single-ply,SBD,M
Boys,67.13,2,Colin Gillis,Dripping Springs,66.22,165.56,95.25,158.76,419.57,Single-ply,SBD,M
Boys,67.13,3,Dylan Lyon,Cedar Park Vista Ridge,63.96,156.49,88.45,158.76,403.7,Single-ply,SBD,M
Boys,67.13,4,Tyler Blakely,Dripping Springs,62.14,149.69,86.18,158.76,394.63,Single-ply,SBD,M
Boys,67.13,5,Joseph Quiroz,Leander,63.87,136.08,90.72,136.08,362.87,Single-ply,SBD,M
Boys,67.13,6,Raul Nava,Georgetown,66.68,142.88,81.65,138.35,362.87,Single-ply,SBD,M
Boys,67.13,7,Josh Toungate,Cedar Park Vista Ridge,61.23,129.27,77.11,147.42,353.8,Single-ply,SBD,M
Boys,67.13,8,Tyler Rountree,Leander,63.59,124.74,74.84,154.22,353.8,Single-ply,SBD,M
Boys,67.13,9,Ryan Arneld,Georgetown,60.78,122.47,63.5,136.08,322.05,Single-ply,SBD,M
Boys,67.13,10,James Plagge,Cedar Park Vista Ridge,64.86,99.79,63.5,149.69,312.98,Single-ply,SBD,M
Boys,67.13,11,Robert Bueno,Georgetown,61.23,115.67,72.57,111.13,299.37,Single-ply,SBD,M
Boys,67.13,12,Andre Silva,Pflugerville,67.13,111.13,65.77,111.13,288.03,Single-ply,SBD,M
Boys,67.13,13,Andy Zapata,Austin,64.86,,54.43,97.52,151.95,Single-ply,BD,M
Boys,67.13,DQ,Colt Aitken,Leander,61.42,102.06,61.23,102.06,,Single-ply,SBD,M
Boys,67.13,DQ,Leo Quintana,Leander,61.6,106.59,,,,Single-ply,SBD,M
Boys,67.13,DQ,Austin Mendonca,Leander,66.63,74.84,,,,Single-ply,SBD,M
Boys,67.13,DQ,Patrick Williams,Hutto,66.68,122.47,,,,Single-ply,SBD,M
Boys,67.13,DQ,Luke Wells,Pflugerville Hendrickson,64.86,131.54,,,,Single-ply,SBD,M
Boys,74.84,1,Jacob Crosby,Dripping Springs,73.03,188.24,120.2,183.7,492.15,Single-ply,SBD,M
Boys,74.84,2,John Zavala,Leander,73.94,183.7,97.52,172.37,453.59,Single-ply,SBD,M
Boys,74.84,3,Taylor Sachs,Georgetown,67.59,156.49,92.99,170.1,419.57,Single-ply,SBD,M
Boys,74.84,4,Darius Davis,Georgetown,72.12,170.1,104.33,138.35,412.77,Single-ply,SBD,M
Boys,74.84,5,Dasmond Gorrer,Austin,73.94,142.88,92.99,161.03,396.89,Single-ply,SBD,M
Boys,74.84,6,Chris Reeves,Hutto,68.49,131.54,83.91,151.95,367.41,Single-ply,SBD,M
Boys,74.84,7,Angel Capote,Austin,70.76,142.88,88.45,133.81,365.14,Single-ply,SBD,M
Boys,74.84,8,Braxton Peck,Cedar Park Vista Ridge,72.12,133.81,88.45,142.88,365.14,Single-ply,SBD,M
Boys,74.84,9,Brandon Fritz,Cedar Park Vista Ridge,69.4,124.74,88.45,149.69,362.87,Single-ply,SBD,M
Boys,74.84,10,Luke Mokry,Cedar Park Vista Ridge,73.94,113.4,97.52,151.95,362.87,Single-ply,SBD,M
Boys,74.84,11,Adrian Duncan,Cedar Park Vista Ridge,73.94,117.93,83.91,151.95,353.8,Single-ply,SBD,M
Boys,74.84,12,Daniel Gibson,Cedar Park Vista Ridge,68.95,111.13,88.45,111.13,310.71,Single-ply,SBD,M
Boys,74.84,13,Connor Dierienger,Georgetown,71.67,120.2,68.04,108.86,297.1,Single-ply,SBD,M
Boys,74.84,DQ,Hunter Gabbard,Cedar Park Vista Ridge,70.76,113.4,77.11,124.74,,Single-ply,SBD,M
Boys,74.84,DQ,Patrick Cunningham,Cedar Park Vista Ridge,69.85,108.86,74.84,127.01,,Single-ply,SBD,M
Boys,74.84,DQ,Jamison Cotterall,Cedar Park Vista Ridge,73.94,83.91,61.23,138.35,,Single-ply,SBD,M
Boys,74.84,DQ,Patrick Carreon,Leander,73.03,127.01,79.38,113.4,,Single-ply,SBD,M
Boys,74.84,DQ,Hunter Orona,Leander,74.12,122.47,,,,Single-ply,SBD,M
Boys,74.84,DQ,Josh Kuehne,Lampasas,74.84,142.88,,,,Single-ply,SBD,M
Boys,74.84,DQ,Temple Baker,Austin,74.39,151.95,,,,Single-ply,SBD,M
Boys,74.84,DQ,Rondo Middleton,Austin,70.31,111.13,88.45,,,Single-ply,SBD,M
Boys,82.1,1,Ed Hall,Lampasas,81.19,208.65,124.74,204.12,537.51,Single-ply,SBD,M
Boys,82.1,2,Nii Tagoc,Pflugerville Connally,80.74,195.04,113.4,208.65,517.1,Single-ply,SBD,M
Boys,82.1,3,James Azar,Dripping Springs,79.83,185.97,113.4,215.46,514.83,Single-ply,SBD,M
Boys,82.1,4,Jesse Hunt,Dripping Springs,82.1,199.58,95.25,195.04,489.88,Single-ply,SBD,M
Boys,82.1,5,Rickey Harper,Leander,80.29,199.58,102.06,181.44,483.08,Single-ply,SBD,M
Boys,82.1,6,Nelson Lugala,Pflugerville Connally,80.29,183.7,92.99,188.24,464.93,Single-ply,SBD,M
Boys,82.1,7,Tanner Swinford,Lampasas,78.93,183.7,90.72,185.97,460.4,Single-ply,SBD,M
Boys,82.1,8,Frank Ortiz,Hutto,76.66,181.44,90.72,183.7,455.86,Single-ply,SBD,M
Boys,82.1,9,Chase Keltgen,Leander,80.01,165.56,95.25,192.78,453.59,Single-ply,SBD,M
Boys,82.1,10,Ian Reeves,Georgetown,82.1,170.1,97.52,185.97,453.59,Single-ply,SBD,M
Boys,82.1,11,Tim Alverson,Leander,82.01,163.29,90.72,188.24,442.25,Single-ply,SBD,M
Boys,82.1,12,Jacob Green,Leander,79.42,165.56,79.38,188.24,433.18,Single-ply,SBD,M
Boys,82.1,13,James Wade,Georgetown,78.47,170.1,83.91,167.83,421.84,Single-ply,SBD,M
Boys,82.1,14,Wynn Doughtie,Austin,80.74,151.95,99.79,147.42,399.16,Single-ply,SBD,M
Boys,82.1,15,Dylan Righter,Hutto,75.3,151.95,90.72,151.95,394.63,Single-ply,SBD,M
Boys,82.1,16,Phillip Doughtie,Austin,81.65,147.42,102.06,142.88,392.36,Single-ply,SBD,M
Boys,82.1,17,Nathan Tapley,Georgetown,76.2,124.74,92.99,138.35,356.07,Single-ply,SBD,M
Boys,82.1,DQ,Hayden Newsom,Leander,82.01,131.54,86.18,142.88,,Single-ply,SBD,M
Boys,82.1,DQ,Jordan Orona,Leander,80.38,136.08,,,,Single-ply,SBD,M
Boys,82.1,DQ,Albert Walker,Pflugerville,79.83,147.42,,,,Single-ply,SBD,M
Boys,82.1,DQ,Mason Thom,Cedar Park Vista Ridge,79.83,156.49,,,,Single-ply,SBD,M
Boys,89.81,1,Grame Ramsey,Dripping Springs,88.45,204.12,129.27,226.8,560.19,Single-ply,SBD,M
Boys,89.81,2,Elijah Brown,Pflugerville Connally,86.18,201.85,117.93,204.12,523.9,Single-ply,SBD,M
Boys,89.81,3,Zack Foreman,Dripping Springs,85.28,181.44,108.86,185.97,476.27,Single-ply,SBD,M
Boys,89.81,4,Kevin Henderson,Hutto,86.18,219.99,90.72,163.29,474,Single-ply,SBD,M
Boys,89.81,5,Tanner Hughey,Austin Anderson,83.91,163.29,117.93,185.97,467.2,Single-ply,SBD,M
Boys,89.81,6,Luke Duhon,Cedar Park Vista Ridge,87.09,156.49,129.27,181.44,467.2,Single-ply,SBD,M
Boys,89.81,7,Zac Freeland,Pflugerville Connally,84.82,172.37,122.47,170.1,464.93,Single-ply,SBD,M
Boys,89.81,8,Brandon Mitchell,Cedar Park Vista Ridge,87.09,181.44,95.25,179.17,455.86,Single-ply,SBD,M
Boys,89.81,9,Brock Grigsby,Leander,83.01,170.1,102.06,165.56,437.72,Single-ply,SBD,M
Boys,89.81,10,Stephen McKinney,Lampasas,86.18,158.76,106.59,172.37,437.72,Single-ply,SBD,M
Boys,89.81,11,James Balagia,Austin,85.28,145.15,113.4,142.88,401.43,Single-ply,SBD,M
Boys,89.81,12,Robert Becerra,Pflugerville,87.09,151.95,92.99,151.95,396.89,Single-ply,SBD,M
Boys,89.81,13,Blake Estes,Cedar Park Vista Ridge,87.54,142.88,86.18,158.76,387.82,Single-ply,SBD,M
Boys,89.81,14,Justin Luttrell,Pflugerville Connally,83.91,145.15,81.65,124.74,351.53,Single-ply,SBD,M
Boys,89.81,15,Jake Hinson,Cedar Park Vista Ridge,86.64,142.88,72.57,136.08,351.53,Single-ply,SBD,M
Boys,89.81,16,Everett Holloway,Pflugerville Hendrickson,86.64,97.52,81.65,124.74,303.91,Single-ply,SBD,M
Boys,89.81,DQ,Jacob Essary,Leander,84.37,127.01,88.45,149.69,,Single-ply,SBD,M
Boys,89.81,DQ,Layton Irvin,Lampasas,85.73,136.08,,,,Single-ply,SBD,M
Boys,99.79,1,Ryan Ruyle,Dripping Springs,96.16,217.72,117.93,215.46,551.11,Single-ply,SBD,M
Boys,99.79,2,Andy Gonzales,Leander,93.44,204.12,124.74,195.04,523.9,Single-ply,SBD,M
Boys,99.79,3,Terrance Johnson,Leander,90.26,217.72,108.86,181.44,508.02,Single-ply,SBD,M
Boys,99.79,4,Victor Irokamsi,Pflugerville Hendrickson,94.35,165.56,117.93,192.78,476.27,Single-ply,SBD,M
Boys,99.79,5,Chauncey Cuffie,Lampasas,92.99,172.37,113.4,163.29,449.06,Single-ply,SBD,M
Boys,99.79,6,Josh Valles,Lampasas,92.99,183.7,102.06,156.49,442.25,Single-ply,SBD,M
Boys,99.79,7,Jonathan Roman,Pflugerville Connally,97.52,163.29,102.06,163.29,428.64,Single-ply,SBD,M
Boys,99.79,8,Brett Leatherwood,Austin Anderson,94.35,145.15,95.25,156.49,396.89,Single-ply,SBD,M
Boys,99.79,9,Chris Woods,Pflugerville Connally,95.71,136.08,83.91,170.1,390.09,Single-ply,SBD,M
Boys,99.79,10,Garrett Cox,Cedar Park Vista Ridge,94.8,136.08,92.99,158.76,387.82,Single-ply,SBD,M
Boys,99.79,11,Josh Heine,Georgetown,94.35,129.27,88.45,161.03,378.75,Single-ply,SBD,M
Boys,99.79,12,Trevor Montgomery,Cedar Park Vista Ridge,90.26,124.74,70.31,147.42,342.46,Single-ply,SBD,M
Boys,99.79,13,Adrian Connor,Pflugerville Hendrickson,91.63,120.2,72.57,113.4,306.17,Single-ply,SBD,M
Boys,99.79,14,Joseph Aniekwe,Pflugerville Connally,95.25,102.06,68.04,117.93,288.03,Single-ply,SBD,M
Boys,99.79,15,Carlos Regalado,Austin,94.35,104.33,65.77,113.4,283.5,Single-ply,SBD,M
Boys,99.79,DQ,Jerome Mohammed,Austin,95.25,156.49,,,,Single-ply,SBD,M
Boys,99.79,DQ,Brodie Lemons,Cedar Park Vista Ridge,92.99,124.74,,,,Single-ply,SBD,M
Boys,99.79,DQ,Sam McClain,Georgetown,94.35,165.56,,,,Single-ply,SBD,M
Boys,99.79,DQ,Chief Okarocha,Pflugerville Connally,90.08,181.44,,,,Single-ply,SBD,M
Boys,109.77,1,Daniel Ross,Pflugerville,107.95,215.46,138.35,229.06,582.87,Single-ply,SBD,M
Boys,109.77,2,Zach Spires,Dripping Springs,100.24,231.33,127.01,204.12,562.45,Single-ply,SBD,M
Boys,109.77,3,Kyle Malone,Leander,109.32,235.87,122.47,197.31,555.65,Single-ply,SBD,M
Boys,109.77,4,Eric Alvarez,Georgetown,104.78,183.7,129.27,226.8,539.77,Single-ply,SBD,M
Boys,109.77,5,Mac Arnett,Hutto,104.78,210.92,104.33,208.65,523.9,Single-ply,SBD,M
Boys,109.77,6,Matt Van Horn,Leander,108.59,192.78,129.27,181.44,503.49,Single-ply,SBD,M
Boys,109.77,7,Rafael Cazares,Lampasas,105.23,204.12,104.33,190.51,498.95,Single-ply,SBD,M
Boys,109.77,8,Michael Salazar,Georgetown,104.78,181.44,113.4,170.1,464.93,Single-ply,SBD,M
Boys,109.77,9,Ethan Kennedy,Georgetown,103.87,165.56,102.06,183.7,451.32,Single-ply,SBD,M
Boys,109.77,10,Andy Gomez,Lampasas,107.5,176.9,99.79,165.56,442.25,Single-ply,SBD,M
Boys,109.77,11,Adam Berenson,Austin Anderson,104.33,156.49,111.13,170.1,437.72,Single-ply,SBD,M
Boys,109.77,12,Lorenzo Martinez,Georgetown,103.87,183.7,81.65,124.74,390.09,Single-ply,SBD,M
Boys,109.77,13,Tyler Espy,Georgetown,104.78,145.15,68.04,124.74,337.93,Single-ply,SBD,M
Boys,109.77,14,James Reyes,Austin,102.06,113.4,102.06,120.2,335.66,Single-ply,SBD,M
Boys,109.77,15,Cedric Carson,Pflugerville,106.59,113.4,81.65,120.2,315.25,Single-ply,SBD,M
Boys,109.77,16,Matt Jones,Austin,102.51,102.06,61.23,102.06,265.35,Single-ply,SBD,M
Boys,109.77,DQ,Matt Rincones,Leander,106.5,174.63,86.18,179.17,,Single-ply,SBD,M
Boys,109.77,DQ,Victor Don Juan,Leander,109.68,,,,,Single-ply,SBD,M
Boys,124.74,1,Sawn Thomas,Pflugerville,116.57,265.35,151.95,,417.3,Single-ply,SB,M
Boys,124.74,2,Silvio Diaz,Leander,117.93,238.14,172.37,204.12,614.62,Single-ply,SBD,M
Boys,124.74,3,Ivan Shelnutt,Leander,113.4,249.48,131.54,226.8,607.81,Single-ply,SBD,M
Boys,124.74,4,David Koschel,Georgetown,122.47,210.92,136.08,188.24,535.24,Single-ply,SBD,M
Boys,124.74,5,Bob Crozier,Austin Anderson,124.74,172.37,115.67,183.7,471.74,Single-ply,SBD,M
Boys,124.74,6,Jacob Gonzales,Austin Anderson,113.4,172.37,111.13,183.7,467.2,Single-ply,SBD,M
Boys,124.74,7,Adam Burns,Pflugerville Connally,110.68,170.1,90.72,185.97,446.79,Single-ply,SBD,M
Boys,124.74,8,Jose Reyes,Georgetown,119.29,158.76,90.72,163.29,412.77,Single-ply,SBD,M
Boys,124.74,9,David Cockrell,Lampasas,115.21,124.74,102.06,151.95,378.75,Single-ply,SBD,M
Boys,124.74,DQ,Dean Wood,Georgetown,117.93,99.79,70.31,,,Single-ply,SBD,M
Boys,124.74,DQ,Jay Perez,Cedar Park Vista Ridge,122.92,,,,,Single-ply,SBD,M
Boys,124.74+,1,DeVontae Robinson,Pflugerville Hendrickson,131.09,226.8,145.15,219.99,591.94,Single-ply,SBD,M
Boys,124.74+,2,Shawn Robinson,Pflugerville,127.01,229.06,102.06,229.06,560.19,Single-ply,SBD,M
Boys,124.74+,3,Keith Hammitt,Leander,132,215.46,104.33,226.8,546.58,Single-ply,SBD,M
Boys,124.74+,4,Michael Parson,Austin,128.82,192.78,115.67,199.58,508.02,Single-ply,SBD,M
Boys,124.74+,5,Riley Mckenna,Cedar Park Vista Ridge,127.01,158.76,83.91,165.56,408.23,Single-ply,SBD,M
Boys,124.74+,6,David Trullinger,Leander,126.1,136.08,92.99,174.63,403.7,Single-ply,SBD,M
Boys,124.74+,7,Dylan Hinojosa,Pflugerville Connally,163.29,147.42,95.25,142.88,385.55,Single-ply,SBD,M
Boys,124.74+,8,Damon Cowart,Cedar Park Vista Ridge,133.36,127.01,83.91,149.69,360.61,Single-ply,SBD,M
Boys,124.74+,DQ,Bryan Mullins,Leander,147.42,238.14,113.4,208.65,,Single-ply,SBD,M
Boys,124.74+,DQ,Matt Carr,Leander,138.8,181.44,,,,Single-ply,SBD,M
Boys,124.74+,DQ,Jonathan Roberson,Pflugerville,156.04,197.31,,,,Single-ply,SBD,M
