Division,WeightClassKg,Place,Name,Team,BodyweightKg,Best3SquatKg,Best3BenchKg,Best3DeadliftKg,TotalKg,Equipment,Event,Sex
Boys,51.71,1,James Hughes,Rice,47.26,88.45,61.23,90.72,240.4,Single-ply,SBD,M
Boys,51.71,2,Ivan Navarro,Corsicana Mildred,48.35,77.11,52.16,90.72,219.99,Single-ply,SBD,M
Boys,51.71,3,Dylan Hooper,Oakridge School,51.48,65.77,40.82,90.72,197.31,Single-ply,SBD,M
Boys,55.79,1,Ivan Marez,Mexia,55.43,124.74,72.57,138.35,335.66,Single-ply,SBD,M
Boys,55.79,2,Max Snodgrass,Blooming Grove,55.16,115.67,70.31,142.88,328.85,Single-ply,SBD,M
Boys,55.79,3,Aditya Misra,Oakridge School,53.89,106.59,56.7,127.01,290.3,Single-ply,SBD,M
Boys,55.79,4,Trey Russell,Eustace,54.79,97.52,65.77,127.01,290.3,Single-ply,SBD,M
Boys,55.79,5,Roberto Oropeza,Rice,54.25,102.06,61.23,124.74,288.03,Single-ply,SBD,M
Boys,55.79,6,Justin Talley,Quinlan Boles,55.7,83.91,52.16,113.4,249.48,Single-ply,SBD,M
Boys,55.79,7,Dalton Long,Dawson,53.34,81.65,49.9,88.45,219.99,Single-ply,SBD,M
Boys,59.87,1,Aj Durham,Kemp,58.88,181.44,99.79,145.15,426.38,Single-ply,SBD,M
Boys,67.13,2,David Marez,Mexia,59.96,149.69,74.84,163.29,387.82,Single-ply,SBD,M
Boys,59.87,3,Nathan Stibbens,Scurry-Rosser,57.7,147.42,72.57,131.54,351.53,Single-ply,SBD,M
Boys,67.13,4,Tony Wooldrigde,Italy,60.06,120.2,86.18,140.61,347,Single-ply,SBD,M
Boys,67.13,5,Colton Monroe,Blooming Grove,60.06,129.27,68.04,142.88,340.19,Single-ply,SBD,M
Boys,59.87,6,Jesus Barcenas,Eustace,59.78,113.4,74.84,149.69,337.93,Single-ply,SBD,M
Boys,59.87,7,Shaquille Fields,Rice,58.79,129.27,70.31,136.08,335.66,Single-ply,SBD,M
Boys,67.13,8,Luis Dominguez,Rice,60.06,120.2,72.57,142.88,335.66,Single-ply,SBD,M
Boys,59.87,9,Tristin LaChapple,Rice,58.24,138.35,74.84,111.13,324.32,Single-ply,SBD,M
Boys,59.87,10,Josh Bruso,Rice,59.33,92.99,65.77,117.93,276.69,Single-ply,SBD,M
Boys,59.87,11,Jacob Whisman,Scurry-Rosser,56.7,88.45,72.57,113.4,274.42,Single-ply,SBD,M
Boys,59.87,12,Montana Mason,Quinlan Boles,58.6,97.52,58.97,117.93,274.42,Single-ply,SBD,M
Boys,59.87,13,Brandon Lay,Kemp,59.06,106.59,58.97,102.06,267.62,Single-ply,SBD,M
Boys,59.87,14,Jorge Urteaga,Eustace,57.42,79.38,63.5,113.4,256.28,Single-ply,SBD,M
Boys,67.13,1,Garrett Truong,Oakridge School,63.68,204.12,108.86,206.38,519.36,Single-ply,SBD,M
Boys,67.13,2,Rody Seilheimer,Corsicana Mildred,67.04,154.22,104.33,163.29,421.84,Single-ply,SBD,M
Boys,67.13,3,Juan Hernández,Mexia,62.41,149.69,79.38,161.03,390.09,Single-ply,SBD,M
Boys,67.13,4,Jayson Jordan,Rice,66.5,147.42,88.45,149.69,385.55,Single-ply,SBD,M
Boys,67.13,5,Oscar Bonilla,Corsicana Mildred,65.14,136.08,74.84,158.76,369.68,Single-ply,SBD,M
Boys,67.13,6,Jesus Lopez,Buffalo,67.04,145.15,77.11,147.42,369.68,Single-ply,SBD,M
Boys,67.13,7,Blake Whisenant,Wortham,60.33,129.27,83.91,142.88,356.07,Single-ply,SBD,M
Boys,67.13,8,Jeremy Ballard,Corsicana Mildred,64.86,131.54,74.84,147.42,353.8,Single-ply,SBD,M
Boys,67.13,9,David Martin,Eustace,61.05,113.4,63.5,136.08,312.98,Single-ply,SBD,M
Boys,67.13,10,Osvaldo Solis,Rice,63.32,129.27,70.31,113.4,312.98,Single-ply,SBD,M
Boys,67.13,11,Kenney Hepner,Quinlan Boles,65.86,102.06,65.77,136.08,303.91,Single-ply,SBD,M
Boys,67.13,12,Wayne Wernicke,Kemp,64.77,90.72,65.77,117.93,274.42,Single-ply,SBD,M
Boys,74.84,1,Justin Lawler,Kemp,72.21,195.04,113.4,210.92,519.36,Single-ply,SBD,M
Boys,74.84,2,Ben Song,Oakridge School,68.67,170.1,117.93,185.97,474,Single-ply,SBD,M
Boys,74.84,3,Rylee Littrell,Scurry-Rosser,74.21,176.9,102.06,167.83,446.79,Single-ply,SBD,M
Boys,74.84,4,Logan Shelton,Corsicana Mildred,70.58,172.37,92.99,170.1,435.45,Single-ply,SBD,M
Boys,74.84,5,Lucas D'Agostino,Oakridge School,73.12,156.49,86.18,181.44,424.11,Single-ply,SBD,M
Boys,74.84,6,Preston Amason,Eustace,69.04,151.95,95.25,161.03,408.23,Single-ply,SBD,M
Boys,74.84,7,Jalcolby Cox,Scurry-Rosser,69.31,142.88,88.45,163.29,394.63,Single-ply,SBD,M
Boys,74.84,8,Kenneth Hart,Rice,68.95,124.74,104.33,156.49,385.55,Single-ply,SBD,M
Boys,74.84,9,Brandon Souder,Italy,71.49,133.81,97.52,149.69,381.02,Single-ply,SBD,M
Boys,82.1,10,Zach Starkey,Kerens,74.93,136.08,77.11,158.76,371.95,Single-ply,SBD,M
Boys,74.84,11,Justin McClain,Quinlan Boles,74.21,115.67,88.45,161.03,365.14,Single-ply,SBD,M
Boys,74.84,12,Brayden Frank,Oakridge School,69.58,127.01,86.18,149.69,362.87,Single-ply,SBD,M
Boys,74.84,13,Chase Hamilton,Italy,71.76,136.08,86.18,140.61,362.87,Single-ply,SBD,M
Boys,74.84,14,Jake Shinn,Quinlan Boles,71.03,127.01,74.84,147.42,349.27,Single-ply,SBD,M
Boys,74.84,15,David Busby,Wortham,70.13,142.88,79.38,124.74,347,Single-ply,SBD,M
Boys,74.84,16,Josh Martinez,Quinlan Boles,73.21,113.4,68.04,156.49,337.93,Single-ply,SBD,M
Boys,74.84,17,Dustin Todd,Scurry-Rosser,71.49,136.08,58.97,129.27,324.32,Single-ply,SBD,M
Boys,74.84,18,Daniel Broyles,Quinlan Boles,70.4,115.67,77.11,115.67,308.44,Single-ply,SBD,M
Boys,74.84,19,Haven Proulx,Wortham,71.67,90.72,68.04,147.42,306.17,Single-ply,SBD,M
Boys,74.84,20,Cody Madrano,Italy,71.85,111.13,63.5,127.01,301.64,Single-ply,SBD,M
Boys,74.84,21,Travis Tidwell,Quinlan Boles,70.31,104.33,65.77,120.2,290.3,Single-ply,SBD,M
Boys,74.84,DQ,Michael Collines,Eustace,71.21,,,,,Single-ply,SBD,M
Boys,82.1,1,Johnny Kilgore,Kemp,76.48,219.99,136.08,199.58,555.65,Single-ply,SBD,M
Boys,82.1,2,Caide Southard,Corsicana Mildred,81.74,167.83,124.74,197.31,489.88,Single-ply,SBD,M
Boys,82.1,3,Jonathan Cates,Buffalo,81.83,181.44,113.4,195.04,489.88,Single-ply,SBD,M
Boys,82.1,4,Carlos Cruz,Scurry-Rosser,81.74,190.51,111.13,174.63,476.27,Single-ply,SBD,M
Boys,82.1,5,Grant von Wellsheim,Oakridge School,80.74,170.1,120.2,181.44,471.74,Single-ply,SBD,M
Boys,82.1,6,Michael Hohn,Oakridge School,77.2,136.08,102.06,222.26,460.4,Single-ply,SBD,M
Boys,82.1,7,Tyler Garrison,Scurry-Rosser,75.75,170.1,92.99,172.37,435.45,Single-ply,SBD,M
Boys,82.1,8,Thomas Tilford,Scurry-Rosser,77.66,163.29,97.52,151.95,412.77,Single-ply,SBD,M
Boys,82.1,9,Dylan Woods,Kerens,79.92,149.69,83.91,163.29,396.89,Single-ply,SBD,M
Boys,82.1,10,Clint LaCour,Scurry-Rosser,80.83,140.61,95.25,154.22,390.09,Single-ply,SBD,M
Boys,82.1,11,Vernon Busby,Wortham,78.93,136.08,92.99,158.76,387.82,Single-ply,SBD,M
Boys,82.1,12,John Day,Scurry-Rosser,80.1,158.76,79.38,133.81,371.95,Single-ply,SBD,M
Boys,89.81,13,Paul Harris,Italy,82.19,111.13,79.38,136.08,326.59,Single-ply,SBD,M
Boys,82.1,14,Zack Boikin,Italy,79.92,108.86,61.23,136.08,306.17,Single-ply,SBD,M
Boys,82.1,DQ,Ethan Simon,Italy,78.93,183.7,,,,Single-ply,SBD,M
Boys,82.1,DQ,Colton Henson,Buffalo,77.11,138.35,,,,Single-ply,SBD,M
Boys,82.1,DQ,Jd Baxter,Buffalo,80.29,131.54,,,,Single-ply,SBD,M
Boys,82.1,DQ,Jose Dominguez,Buffalo,77.66,204.12,,,,Single-ply,SBD,M
Boys,89.81,1,Curt Allen,Oakridge School,87,272.16,165.56,274.42,712.14,Single-ply,SBD,M
Boys,89.81,2,Ben Torres,Rice,86.64,190.51,117.93,181.44,489.88,Single-ply,SBD,M
Boys,89.81,3,Jody Bernal,Rice,84.82,170.1,108.86,195.04,474,Single-ply,SBD,M
Boys,89.81,4,Josh Freeman,Hubbard,85.37,188.24,99.79,183.7,471.74,Single-ply,SBD,M
Boys,89.81,5,Brandon Morris,Scurry-Rosser,86.36,167.83,86.18,176.9,430.91,Single-ply,SBD,M
Boys,89.81,6,Michael Kline,Kerens,87.72,158.76,90.72,161.03,410.5,Single-ply,SBD,M
Boys,89.81,7,Rustin Feaster,Blooming Grove,88.18,158.76,83.91,167.83,410.5,Single-ply,SBD,M
Boys,89.81,8,Dj Young,Buffalo,84.55,149.69,81.65,165.56,396.89,Single-ply,SBD,M
Boys,89.81,9,Justin Smith,Rice,87.72,149.69,79.38,161.03,390.09,Single-ply,SBD,M
Boys,89.81,10,Chase Miller,Corsicana Mildred,86.55,129.27,86.18,158.76,374.21,Single-ply,SBD,M
Boys,89.81,11,Jared Key,Quinlan Boles,87.45,122.47,74.84,158.76,356.07,Single-ply,SBD,M
Boys,89.81,12,Garrett Yates,Scurry-Rosser,83.82,113.4,83.91,129.27,326.59,Single-ply,SBD,M
Boys,89.81,13,Tim Davis,Quinlan Boles,85.64,115.67,72.57,138.35,326.59,Single-ply,SBD,M
Boys,89.81,14,Ben Dillon,Kemp,83.91,90.72,92.99,127.01,310.71,Single-ply,SBD,M
Boys,89.81,15,Chris Bernal,Rice,89.45,108.86,68.04,106.59,283.5,Single-ply,SBD,M
Boys,89.81,DQ,Daniel Perez,Wortham,85.73,102.06,,,,Single-ply,SBD,M
Boys,89.81,DQ,Josh Wooten,Kerens,88.36,172.37,,,,Single-ply,SBD,M
Boys,89.81,DQ,Ty Chambers,Blooming Grove,89.63,170.1,,,,Single-ply,SBD,M
Boys,99.79,1,Ryan Wetteland,Quinlan Boles,93.53,188.24,131.54,224.53,544.31,Single-ply,SBD,M
Boys,99.79,2,Ragan Henderson,Rice,98.25,204.12,124.74,215.46,544.31,Single-ply,SBD,M
Boys,99.79,3,Jonathan Perez,Scurry-Rosser,97.52,204.12,104.33,197.31,505.76,Single-ply,SBD,M
Boys,99.79,4,Jon Jennings,Kemp,92.08,195.04,117.93,185.97,498.95,Single-ply,SBD,M
Boys,99.79,5,Leonard Smith,Wortham,90.99,188.24,95.25,204.12,487.61,Single-ply,SBD,M
Boys,99.79,6,Brant Sims,Quinlan Boles,93.89,174.63,111.13,192.78,478.54,Single-ply,SBD,M
Boys,99.79,7,Chris Perez,Wortham,98.61,174.63,113.4,188.24,476.27,Single-ply,SBD,M
Boys,99.79,8,Josh Carrillo,Buffalo,96.89,181.44,92.99,170.1,444.52,Single-ply,SBD,M
Boys,99.79,9,Dustin Simpson,Hubbard,98.88,151.95,104.33,163.29,419.57,Single-ply,SBD,M
Boys,99.79,10,Grant Johnson,Oakridge School,98.16,154.22,90.72,158.76,403.7,Single-ply,SBD,M
Boys,99.79,11,David Allen,Scurry-Rosser,96.98,158.76,97.52,142.88,399.16,Single-ply,SBD,M
Boys,99.79,12,Nathan Harris,Corsicana Mildred,98.97,142.88,74.84,170.1,387.82,Single-ply,SBD,M
Boys,99.79,13,Taylor Barlow,Corsicana Mildred,92.53,129.27,92.99,151.95,374.21,Single-ply,SBD,M
Boys,99.79,14,Lionel Garcia,Eustace,95.07,115.67,70.31,158.76,344.73,Single-ply,SBD,M
Boys,109.77,1,James Forrest,Kemp,108.86,240.4,154.22,199.58,594.21,Single-ply,SBD,M
Boys,109.77,2,Andres Lara,Mexia,109.5,249.48,124.74,204.12,578.33,Single-ply,SBD,M
Boys,109.77,3,Kyle Golden,Dawson,106.68,170.1,113.4,154.22,437.72,Single-ply,SBD,M
Boys,109.77,4,Ricky Dixon,Eustace,102.87,147.42,102.06,181.44,430.91,Single-ply,SBD,M
Boys,109.77,4,Tanner Reynolds,Corsicana Mildred,108.77,170.1,97.52,174.63,442.25,Single-ply,SBD,M
Boys,109.77,5,Danny Hanna,Corsicana Mildred,101.88,163.29,97.52,165.56,426.38,Single-ply,SBD,M
Boys,109.77,6,Ricardo Molina,Mexia,100.97,149.69,81.65,158.76,390.09,Single-ply,SBD,M
Boys,109.77,7,Adam Sherbert,Wortham,103.33,124.74,74.84,140.61,340.19,Single-ply,SBD,M
Boys,109.77,8,Wally Baker,Eustace,107.86,79.38,81.65,83.91,244.94,Single-ply,SBD,M
Boys,109.77,DQ,Noah Pennell,Corsicana Mildred,103.87,217.72,117.93,,,Single-ply,SBD,M
Boys,124.74,1,Feyi Oyewole,Oakridge School,120.84,217.72,154.22,222.26,594.21,Single-ply,SBD,M
Boys,124.74,2,Roddy Williams,Hubbard,117.3,192.78,122.47,208.65,523.9,Single-ply,SBD,M
Boys,124.74,3,Alex Montano,Buffalo,114.58,188.24,111.13,181.44,480.81,Single-ply,SBD,M
Boys,124.74,5,Scott Sykora,Wortham,111.49,136.08,92.99,147.42,376.48,Single-ply,SBD,M
Boys,124.74,6,Donovan Freeman,Wortham,119.29,136.08,97.52,142.88,376.48,Single-ply,SBD,M
Boys,124.74,7,Garrett Lane,Blooming Grove,115.76,124.74,79.38,127.01,331.12,Single-ply,SBD,M
Boys,124.74+,1,Jaime Gomez,Mexia,143.15,256.28,136.08,226.8,619.15,Single-ply,SBD,M
Boys,124.74+,2,Tyler Heard,Scurry-Rosser,128.73,215.46,129.27,174.63,519.36,Single-ply,SBD,M
Boys,124.74+,3,Ethan Still,Kerens,174.45,172.37,99.79,167.83,439.98,Single-ply,SBD,M
Boys,124.74+,4,Hank Seabolt,Italy,130.54,163.29,115.67,145.15,424.11,Single-ply,SBD,M
Boys,124.74+,5,Cameron Lewis,Wortham,125.55,136.08,88.45,145.15,369.68,Single-ply,SBD,M
Boys,124.74+,DQ,Beau Jenkins,Corsicana Mildred,125.28,,,,,Single-ply,SBD,M
Boys,,NS,Shawn McKinney,Hubbard,,,,,,Single-ply,SBD,M
