Division,WeightClassKg,Place,Name,Team,BodyweightKg,Best3SquatKg,Best3BenchKg,Best3DeadliftKg,TotalKg,Equipment,Event,Sex
Boys,51.71,1,Andrew Flores,Abilene,51.71,92.99,61.23,106.59,260.82,Single-ply,SBD,M
Boys,51.71,2,Corey Footer,Abilene Cooper,47.17,68.04,43.09,83.91,195.04,Single-ply,SBD,M
Boys,55.79,1,Jonathon Rodriguez,Abilene Cooper,52.8,113.4,70.31,142.88,326.59,Single-ply,SBD,M
Boys,55.79,2,Christian Alexander,Tuscola Jim Ned,55.79,117.93,68.04,122.47,308.44,Single-ply,SBD,M
Boys,55.79,3,William Jackson,Merkel,55.16,104.33,56.7,111.13,272.16,Single-ply,SBD,M
Boys,55.79,DQ,Weston Hartman,Abilene,53.07,,,,,Single-ply,SBD,M
Boys,55.79,DQ,Phillip Ballenger,Roscoe,55.34,90.72,,,,Single-ply,SBD,M
Boys,59.87,1,Rex Wyatt,Hawley,56.88,147.42,83.91,113.4,344.73,Single-ply,SBD,M
Boys,59.87,2,Drew Votaw,Merkel,58.69,124.74,77.11,127.01,328.85,Single-ply,SBD,M
Boys,59.87,3,John Iragena,Abilene Cooper,57.88,102.06,70.31,124.74,297.1,Single-ply,SBD,M
Boys,59.87,4,Zach Gil,Abilene Cooper,56.88,102.06,70.31,117.93,290.3,Single-ply,SBD,M
Boys,59.87,5,Jacob Lomas,Roscoe,58.06,102.06,52.16,111.13,265.35,Single-ply,SBD,M
Boys,59.87,DQ,Clayton Thompson,Hawley,59.87,,,,,Single-ply,SBD,M
Boys,74.84,1,Mark Robles,Abilene Cooper,67.31,158.76,97.52,161.03,417.3,Single-ply,SBD,M
Boys,74.84,2,Alex De La Rosa,Abilene Cooper,67.27,142.88,113.4,158.76,415.04,Single-ply,SBD,M
Boys,74.84,3,Corey Boone,Abilene Cooper,67.36,158.76,83.91,158.76,401.43,Single-ply,SBD,M
Boys,67.13,4,Elijah Revilla,Abilene Cooper,64.32,136.08,92.99,154.22,383.29,Single-ply,SBD,M
Boys,67.13,5,Zack Longoria,Roscoe,66.77,142.88,88.45,149.69,381.02,Single-ply,SBD,M
Boys,67.13,6,Peyton Polston,Tuscola Jim Ned,62.6,124.74,88.45,145.15,358.34,Single-ply,SBD,M
Boys,67.13,7,Joseph Rees,Tuscola Jim Ned,67.13,127.01,68.04,154.22,349.27,Single-ply,SBD,M
Boys,67.13,8,Matthew Fisher,Tuscola Jim Ned,64.41,117.93,81.65,142.88,342.46,Single-ply,SBD,M
Boys,67.13,9,Dustin Moore,Anson,65.5,108.86,79.38,129.27,317.51,Single-ply,SBD,M
Boys,67.13,10,Gavin Hill,Anson,61.69,113.4,70.31,129.27,312.98,Single-ply,SBD,M
Boys,67.13,11,Paul Ballenger,Roscoe,67.13,77.11,54.43,92.99,224.53,Single-ply,SBD,M
Boys,67.13,DQ,Nick Lozano,Anson,67.13,,,,,Single-ply,SBD,M
Boys,74.84,1,Kneeland Donnelly,Hawley,71.21,238.14,147.42,226.8,612.35,Single-ply,SBD,M
Boys,74.84,2,Jose Rangel,Roscoe,74.84,217.72,124.74,192.78,535.24,Single-ply,SBD,M
Boys,74.84,3,Morgan Lytle,Christoval,72.57,183.7,99.79,181.44,464.93,Single-ply,SBD,M
Boys,74.84,4,Parker Luke,Christoval,70.67,167.83,95.25,181.44,444.52,Single-ply,SBD,M
Boys,74.84,5,Colton Honea,Tuscola Jim Ned,70.94,154.22,99.79,161.03,415.04,Single-ply,SBD,M
Boys,74.84,6,Morgan Smith,Tuscola Jim Ned,74.84,158.76,97.52,158.76,415.04,Single-ply,SBD,M
Boys,82.1,7,Tyler Gill,Abilene Cooper,74.98,145.15,102.06,158.76,405.97,Single-ply,SBD,M
Boys,74.84,8,Daniel Salazar,Abilene,73.94,149.69,97.52,147.42,394.63,Single-ply,SBD,M
Boys,74.84,9,Cody Lewis,Abilene,70.31,124.74,92.99,147.42,365.14,Single-ply,SBD,M
Boys,74.84,10,Sam Jacobs,Christoval,70.22,131.54,68.04,158.76,358.34,Single-ply,SBD,M
Boys,74.84,11,Aj Renteria,Roscoe,74.21,149.69,68.04,127.01,344.73,Single-ply,SBD,M
Boys,74.84,12,Malcom Thompson,Merkel,68.67,111.13,63.5,117.93,292.57,Single-ply,SBD,M
Boys,74.84,13,Matt Clem,Merkel,69.85,108.86,58.97,111.13,278.96,Single-ply,SBD,M
Boys,74.84,DQ,Ben Singleton,Hawley,72.85,149.69,,,,Single-ply,SBD,M
Boys,82.1,1,Clancy Manuel,Hawley,80.2,226.8,154.22,233.6,614.62,Single-ply,SBD,M
Boys,82.1,2,Landon Jones,Roscoe,82.1,204.12,120.2,215.46,539.77,Single-ply,SBD,M
Boys,82.1,3,Abriel Martinez,Abilene,78.02,188.24,113.4,167.83,469.47,Single-ply,SBD,M
Boys,89.81,4,Daniel Cooper,Abilene Cooper,82.28,181.44,102.06,172.37,455.86,Single-ply,SBD,M
Boys,82.1,5,Mitchel Hudson,Anson,76.84,174.63,102.06,156.49,433.18,Single-ply,SBD,M
Boys,82.1,6,Collin Heidenheimer,Anson,77.93,165.56,97.52,156.49,419.57,Single-ply,SBD,M
Boys,82.1,7,Damon Delacruz,Abilene,75.75,154.22,90.72,165.56,410.5,Single-ply,SBD,M
Boys,82.1,8,Juan Burns,Hawley,77.56,151.95,88.45,161.03,401.43,Single-ply,SBD,M
Boys,82.1,9,Dusty Pruit,Christoval,76.2,142.88,83.91,151.95,378.75,Single-ply,SBD,M
Boys,82.1,10,James Volko,Merkel,81.83,113.4,81.65,142.88,337.93,Single-ply,SBD,M
Boys,82.1,11,Anthony Zacniewski,Abilene Cooper,79.65,113.4,79.38,138.35,331.12,Single-ply,SBD,M
Boys,82.1,12,Kyle Fowler,Merkel,76.29,124.74,74.84,113.4,312.98,Single-ply,SBD,M
Boys,82.1,DQ,Jacob Williams,Christoval,82.1,,,,,Single-ply,SBD,M
Boys,82.1,DQ,Brady Presley,Anson,78.11,127.01,88.45,,,Single-ply,SBD,M
Boys,89.81,1,Levi Irby,Hawley,89.81,238.14,183.7,217.72,639.57,Single-ply,SBD,M
Boys,99.79,2,William Coleman,Abilene Cooper,89.9,195.04,124.74,215.46,535.24,Single-ply,SBD,M
Boys,89.81,3,Lance Norman,Anson,86,165.56,111.13,179.17,455.86,Single-ply,SBD,M
Boys,89.81,4,Damian Guevara,Abilene,87.18,181.44,106.59,165.56,453.59,Single-ply,SBD,M
Boys,89.81,5,Colt Baker,Anson,83.91,165.56,97.52,183.7,446.79,Single-ply,SBD,M
Boys,89.81,6,Nathaniel Chriesman,Abilene Cooper,89.18,174.63,106.59,161.03,442.25,Single-ply,SBD,M
Boys,89.81,7,Tom Berry,Abilene,87.54,142.88,115.67,172.37,430.91,Single-ply,SBD,M
Boys,89.81,8,Dj Davis,Hawley,87.63,183.7,95.25,142.88,421.84,Single-ply,SBD,M
Boys,89.81,9,Michael Lozano,Anson,89.45,170.1,92.99,156.49,419.57,Single-ply,SBD,M
Boys,89.81,10,Austin McLeod,Abilene,89.72,136.08,90.72,183.7,410.5,Single-ply,SBD,M
Boys,89.81,11,Nick Russell,Abilene Cooper,86.68,161.03,95.25,151.95,408.23,Single-ply,SBD,M
Boys,89.81,12,Jonathan Arrieta,Anson,89.81,138.35,74.84,151.95,365.14,Single-ply,SBD,M
Boys,89.81,13,Chris Keith,Tuscola Jim Ned,87.54,113.4,72.57,138.35,324.32,Single-ply,SBD,M
Boys,99.79,DQ,Paul Lowe,Abilene Cooper,90.04,154.22,115.67,,,Single-ply,SBD,M
Boys,99.79,1,Aric Ramzanali,Hawley,92.26,204.12,158.76,188.24,551.11,Single-ply,SBD,M
Boys,99.79,2,Miguel Espinoza,Abilene,94.8,195.04,129.27,208.65,532.97,Single-ply,SBD,M
Boys,99.79,3,Blake Baldock,Hawley,92.71,181.44,145.15,183.7,510.29,Single-ply,SBD,M
Boys,99.79,4,Alexis Bonilla,Abilene Cooper,99.65,181.44,147.42,181.44,510.29,Single-ply,SBD,M
Boys,99.79,5,Ethan Miko,Abilene,98.88,204.12,117.93,183.7,505.76,Single-ply,SBD,M
Boys,99.79,6,Chico Ramos,Anson,97.25,197.31,102.06,183.7,483.08,Single-ply,SBD,M
Boys,99.79,7,Gabriel Jordan,Abilene,99.34,183.7,108.86,188.24,480.81,Single-ply,SBD,M
Boys,99.79,8,Reagan Cooke,Abilene,98.43,183.7,120.2,170.1,474,Single-ply,SBD,M
Boys,99.79,9,Kyler Shy,Abilene Cooper,92.26,161.03,113.4,183.7,458.13,Single-ply,SBD,M
Boys,99.79,10,Ronnell Wilson,Abilene,94.8,183.7,92.99,163.29,439.98,Single-ply,SBD,M
Boys,99.79,11,Zac Boyd,Abilene Cooper,94.17,158.76,90.72,183.7,433.18,Single-ply,SBD,M
Boys,99.79,12,Dawson Worgull,Abilene,97.52,142.88,83.91,151.95,378.75,Single-ply,SBD,M
Boys,99.79,13,Chris Carlin,Abilene,95.25,142.88,74.84,154.22,371.95,Single-ply,SBD,M
Boys,99.79,14,Jacob Vines,Abilene Cooper,99.25,142.88,86.18,142.88,371.95,Single-ply,SBD,M
Boys,99.79,15,Slaton Hansen,Anson,94.53,133.81,74.84,142.88,351.53,Single-ply,SBD,M
Boys,99.79,16,Rowdy Riggins,Abilene,90.72,124.74,61.23,124.74,310.71,Single-ply,SBD,M
Boys,99.79,17,Tanner Brown,Abilene Cooper,92.99,92.99,72.57,104.33,269.89,Single-ply,SBD,M
Boys,99.79,DQ,John Perry,Christoval,99.79,,,,,Single-ply,SBD,M
Boys,109.77,1,Josh Hunter,Abilene,103.42,226.8,111.13,217.72,555.65,Single-ply,SBD,M
Boys,109.77,2,Harold James,Christoval,106.87,183.7,92.99,165.56,442.25,Single-ply,SBD,M
Boys,109.77,3,David Brown,Abilene,103.87,156.49,113.4,165.56,435.45,Single-ply,SBD,M
Boys,109.77,4,Tony Silva,Abilene,108.86,170.1,92.99,142.88,405.97,Single-ply,SBD,M
Boys,109.77,5,Randy Holguin,Abilene,100.7,149.69,74.84,174.63,399.16,Single-ply,SBD,M
Boys,109.77,6,Tanner Underwood,Tuscola Jim Ned,109.77,142.88,83.91,138.35,365.14,Single-ply,SBD,M
Boys,109.77,7,Slayde Anderson,Abilene,101.15,136.08,61.23,133.81,331.12,Single-ply,SBD,M
Boys,109.77,8,Martin Prieto,Merkel,109.77,113.4,72.57,136.08,322.05,Single-ply,SBD,M
Boys,109.77,DQ,Michael Taylor,Merkel,109.77,,,,,Single-ply,SBD,M
Boys,109.77,DQ,Brandon Baker,Merkel,109.77,,,,,Single-ply,SBD,M
Boys,109.77,DQ,Aaron McAndrew,Hawley,103.19,,,,,Single-ply,SBD,M
Boys,124.74,1,Chantz Anderson,Abilene,112.49,254.01,151.95,204.12,610.08,Single-ply,SBD,M
Boys,124.74,2,Evan Tate,Tuscola Jim Ned,124.74,190.51,113.4,181.44,485.34,Single-ply,SBD,M
Boys,124.74,3,David Bolisomi,Abilene,120.2,129.27,83.91,149.69,362.87,Single-ply,SBD,M
Boys,124.74+,1,Anthony Drayton,Abilene,141.97,244.94,124.74,190.51,560.19,Single-ply,SBD,M
Boys,124.74+,2,Conner Willis,Tuscola Jim Ned,126.55,226.8,117.93,192.78,537.51,Single-ply,SBD,M
Boys,124.74+,3,Chris Villanueva,Anson,137.08,183.7,115.67,161.03,460.4,Single-ply,SBD,M
Boys,124.74+,4,Hunter Hawkins,Abilene Cooper,125.46,183.7,113.4,158.76,455.86,Single-ply,SBD,M
Boys,124.74+,5,Cody Harris,Anson,134.04,106.59,74.84,108.86,290.3,Single-ply,SBD,M
Boys,124.74+,DQ,Riley Owens,Abilene Cooper,132.09,238.14,,,,Single-ply,SBD,M
