Division,WeightClassKg,Place,Name,Team,BodyweightKg,Best3SquatKg,Best3BenchKg,Best3DeadliftKg,TotalKg,Equipment,Event,Sex
Boys,51.71,1,Gunnar McNeill,San Angelo Grape Creek,49.99,106.59,54.43,122.47,283.5,Single-ply,SBD,M
Boys,55.79,2,Jacob Schultz,San Angelo Grape Creek,51.89,106.59,54.43,106.59,267.62,Single-ply,SBD,M
Boys,51.71,3,Jose Hernandez,Midland Greenwood,50.26,83.91,47.63,111.13,242.67,Single-ply,SBD,M
Boys,51.71,4,Chris Sanchez,Lamesa,47.81,81.65,47.63,92.99,222.26,Single-ply,SBD,M
Boys,51.71,DQ,Weston Griswald,Lazbuddie,50.98,,,,,Single-ply,SBD,M
Boys,51.71,DQ,Josh Post,Rankin,50.08,,,,,Single-ply,SBD,M
Boys,55.79,1,Marcus Renteria,Lamesa,55.34,113.4,81.65,136.08,331.12,Single-ply,SBD,M
Boys,55.79,2,Jacob Rizo,Colorado City Colorado,54.16,90.72,74.84,133.81,299.37,Single-ply,SBD,M
Boys,55.79,3,Jay Lomas,Sweetwater,55.07,117.93,72.57,102.06,292.57,Single-ply,SBD,M
Boys,55.79,DQ,Toby Pippin,Roby,53.43,,,,,Single-ply,SBD,M
Boys,55.79,DQ,Zach Hernandez,Big Spring,54.34,,,,,Single-ply,SBD,M
Boys,59.87,1,DJ Brown,Post,58.42,149.69,83.91,154.22,387.82,Single-ply,SBD,M
Boys,59.87,2,Braylin Moreland,Midland Greenwood,58.06,120.2,72.57,140.61,333.39,Single-ply,SBD,M
Boys,59.87,3,Julius DeLaCruz,Lamesa,59.87,122.47,74.84,136.08,333.39,Single-ply,SBD,M
Boys,59.87,4,Zack Rosas,Sweetwater,59.69,120.2,72.57,136.08,328.85,Single-ply,SBD,M
Boys,59.87,5,David Denton,Wolfforth Frenship,59.78,113.4,68.04,136.08,317.51,Single-ply,SBD,M
Boys,59.87,6,German Martinez,Midland Greenwood,57.06,120.2,61.23,129.27,310.71,Single-ply,SBD,M
Boys,59.87,7,Robert Martinez,Big Spring,59.24,102.06,61.23,115.67,278.96,Single-ply,SBD,M
Boys,59.87,8,Braedon Gibson,Lamesa,56.88,97.52,49.9,120.2,267.62,Single-ply,SBD,M
Boys,59.87,DQ,Pablo Hinojosa,Lamesa,59.51,156.49,,,,Single-ply,SBD,M
Boys,67.13,1,Dusty Ortiz,Lamesa,65.59,183.7,108.86,185.97,478.54,Single-ply,SBD,M
Boys,67.13,2,Casey Sanders,Wolfforth Frenship,66.86,167.83,102.06,183.7,453.59,Single-ply,SBD,M
Boys,67.13,3,Robert Clanton,Midland Greenwood,67.04,161.03,92.99,174.63,428.64,Single-ply,SBD,M
Boys,67.13,4,Adrian Lopez,Sweetwater,67.13,149.69,108.86,170.1,428.64,Single-ply,SBD,M
Boys,67.13,5,Chris Hanke,Anson,66.13,165.56,88.45,158.76,412.77,Single-ply,SBD,M
Boys,67.13,6,Trey Cave,Midland Greenwood,62.51,149.69,90.72,158.76,399.16,Single-ply,SBD,M
Boys,67.13,7,Martin Zambrano,Big Spring,66.41,142.88,83.91,158.76,385.55,Single-ply,SBD,M
Boys,67.13,8,Donald Baker,Sweetwater,63.41,145.15,83.91,142.88,371.95,Single-ply,SBD,M
Boys,67.13,9,Dillon Stevens,Wolfforth Frenship,63.68,142.88,81.65,131.54,356.07,Single-ply,SBD,M
Boys,67.13,10,Isaac Stern,Post,65.86,129.27,83.91,136.08,349.27,Single-ply,SBD,M
Boys,67.13,11,Aaron Castillo,Rankin,65.59,120.2,86.18,138.35,344.73,Single-ply,SBD,M
Boys,67.13,12,Caelon Gibson,Lamesa,61.87,115.67,72.57,149.69,337.93,Single-ply,SBD,M
Boys,67.13,13,Trey Harvey,Sweetwater,67.13,122.47,70.31,136.08,328.85,Single-ply,SBD,M
Boys,67.13,14,Victor Plasencia,Lubbock Monterey,67.13,115.67,79.38,129.27,324.32,Single-ply,SBD,M
Boys,67.13,15,Rodrigo Saldania,San Angelo Grape Creek,61.42,124.74,68.04,129.27,322.05,Single-ply,SBD,M
Boys,67.13,16,Cody Thomas,Colorado City Colorado,66.13,127.01,81.65,113.4,322.05,Single-ply,SBD,M
Boys,67.13,17,Lane Storie,Rankin,61.14,124.74,63.5,124.74,312.98,Single-ply,SBD,M
Boys,67.13,18,Jacob Ludwig,Colorado City Colorado,61.69,124.74,52.16,136.08,312.98,Single-ply,SBD,M
Boys,67.13,19,Doyle Mills,Lubbock Monterey,63.68,111.13,52.16,147.42,310.71,Single-ply,SBD,M
Boys,67.13,20,Nick Nemir,Sweetwater,63.05,113.4,81.65,113.4,308.44,Single-ply,SBD,M
Boys,67.13,21,Roger Cordova,Midland Greenwood,60.42,108.86,72.57,120.2,301.64,Single-ply,SBD,M
Boys,67.13,22,Mitchel Hudson,Anson,65.05,124.74,52.16,115.67,292.57,Single-ply,SBD,M
Boys,67.13,23,Tyler Johnson,Midland Lee,66.5,72.57,70.31,99.79,242.67,Single-ply,SBD,M
Boys,67.13,DQ,Riley Justice,Midland Lee,61.87,,,,,Single-ply,SBD,M
Boys,67.13,DQ,Landon Leshper,Anson,65.77,,,,,Single-ply,SBD,M
Boys,67.13,DQ,Kristian Guajardo,Lamesa,64.86,149.69,,,,Single-ply,SBD,M
Boys,74.84,1,Sam Nemir,Sweetwater,74.84,206.38,117.93,204.12,528.44,Single-ply,SBD,M
Boys,74.84,2,Ryan Linebaugh,Sweetwater,71.76,195.04,106.59,199.58,501.22,Single-ply,SBD,M
Boys,74.84,3,Kevin Williams,Wolfforth Frenship,72.94,167.83,102.06,165.56,435.45,Single-ply,SBD,M
Boys,74.84,4,Dustin Rea,Midland Greenwood,72.21,136.08,92.99,149.69,378.75,Single-ply,SBD,M
Boys,74.84,5,Caden Dean,Post,67.77,147.42,90.72,131.54,369.68,Single-ply,SBD,M
Boys,74.84,6,Brandon Galindo,Sweetwater,68.76,124.74,86.18,158.76,369.68,Single-ply,SBD,M
Boys,74.84,7,Juan Cabrera,Post,70.22,145.15,81.65,142.88,369.68,Single-ply,SBD,M
Boys,74.84,8,Dallas Cox,Lazbuddie,70.85,122.47,79.38,158.76,360.61,Single-ply,SBD,M
Boys,74.84,9,David Ramirez,Lubbock Monterey,70.85,124.74,88.45,142.88,356.07,Single-ply,SBD,M
Boys,74.84,10,Magoo Grimaldo,Lubbock Monterey,74.75,124.74,81.65,147.42,353.8,Single-ply,SBD,M
Boys,74.84,11,Dumarcus Austin,Midland Lee,70.4,129.27,72.57,149.69,351.53,Single-ply,SBD,M
Boys,74.84,12,Taylor Robertson,Big Spring,67.68,124.74,65.77,136.08,326.59,Single-ply,SBD,M
Boys,74.84,13,Daravion Williams,Midland Lee,67.95,113.4,61.23,129.27,303.91,Single-ply,SBD,M
Boys,74.84,14,Caden Coots,Midland Lee,74.75,92.99,74.84,129.27,297.1,Single-ply,SBD,M
Boys,74.84,15,Michael Lozano,Anson,74.48,115.67,61.23,102.06,278.96,Single-ply,SBD,M
Boys,74.84,16,Roy Carillo,Big Spring,71.49,83.91,56.7,90.72,231.33,Single-ply,SBD,M
Boys,74.84,DQ,Nathan Jackson,Colorado City Colorado,74.12,,,,,Single-ply,SBD,M
Boys,74.84,DQ,Justin Robinson,Wolfforth Frenship,70.4,158.76,,,,Single-ply,SBD,M
Boys,74.84,DQ,Michael Soto,Wolfforth Frenship,68.58,,,,,Single-ply,SBD,M
Boys,82.1,1,Cole Barton,Midland Greenwood,81.92,226.8,142.88,208.65,578.33,Single-ply,SBD,M
Boys,82.1,2,Jorge Castillo,Rankin,75.11,183.7,145.15,213.19,542.04,Single-ply,SBD,M
Boys,82.1,3,Alex Garcia,Sweetwater,79.47,188.24,97.52,219.99,505.76,Single-ply,SBD,M
Boys,82.1,4,Max Pappajohn,Big Spring,81.01,192.78,102.06,192.78,487.61,Single-ply,SBD,M
Boys,82.1,5,Nathaniel Gill,Post,80.74,181.44,97.52,188.24,467.2,Single-ply,SBD,M
Boys,82.1,6,Ryan Thomas,Rankin,80.92,172.37,106.59,185.97,464.93,Single-ply,SBD,M
Boys,82.1,7,Stetson Casey,Wolfforth Frenship,81.74,161.03,97.52,188.24,446.79,Single-ply,SBD,M
Boys,89.81,8,Andrew Mendez,Wolfforth Frenship,82.19,158.76,97.52,188.24,444.52,Single-ply,SBD,M
Boys,82.1,9,Stetson Hilger,Midland Greenwood,77.2,154.22,115.67,158.76,428.64,Single-ply,SBD,M
Boys,82.1,10,Blake Smith,Midland Greenwood,81.74,156.49,77.11,181.44,415.04,Single-ply,SBD,M
Boys,82.1,11,Logan Wren,Lubbock Monterey,80.74,151.95,104.33,149.69,405.97,Single-ply,SBD,M
Boys,82.1,12,Juan Beltran,Colorado City Colorado,78.29,147.42,86.18,142.88,376.48,Single-ply,SBD,M
Boys,82.1,13,Brives Turner,Midland Lee,81.28,129.27,70.31,149.69,349.27,Single-ply,SBD,M
Boys,82.1,DQ,Jahari Vanover,Big Spring,78.93,,,,,Single-ply,SBD,M
Boys,82.1,DQ,Austin Hunt,Big Spring,79.92,113.4,,,,Single-ply,SBD,M
Boys,82.1,DQ,Garrett Bawcom,Lubbock Monterey,78.38,172.37,,,,Single-ply,SBD,M
Boys,89.81,1,Ramiro Reyes,Colorado City Colorado,89.81,213.19,161.03,215.46,589.67,Single-ply,SBD,M
Boys,89.81,2,Cory Burns,Sweetwater,89.72,172.37,117.93,206.38,496.68,Single-ply,SBD,M
Boys,89.81,3,Spencer Young,Sweetwater,83.82,170.1,106.59,204.12,480.81,Single-ply,SBD,M
Boys,89.81,4,Matthew Samarron,Lazbuddie,87.54,190.51,102.06,183.7,476.27,Single-ply,SBD,M
Boys,89.81,5,Anthony Palacios,Sweetwater,87.54,172.37,102.06,185.97,460.4,Single-ply,SBD,M
Boys,89.81,6,Ignacio Jimenez,Lamesa,88,181.44,111.13,165.56,458.13,Single-ply,SBD,M
Boys,89.81,7,Jordan Aguilar,Post,82.55,172.37,99.79,174.63,446.79,Single-ply,SBD,M
Boys,89.81,8,Will McKinney,Colorado City Colorado,84.64,149.69,108.86,185.97,444.52,Single-ply,SBD,M
Boys,89.81,9,Paul Childress,Lubbock Monterey,85.73,165.56,92.99,181.44,439.98,Single-ply,SBD,M
Boys,89.81,10,Kyle Lambert,Sweetwater,84.1,158.76,113.4,163.29,435.45,Single-ply,SBD,M
Boys,89.81,11,Derrick Fitzpatrick,Midland Greenwood,86.27,147.42,77.11,149.69,374.21,Single-ply,SBD,M
Boys,89.81,12,Chris Armstrong,San Angelo Grape Creek,86.36,133.81,58.97,124.74,317.51,Single-ply,SBD,M
Boys,89.81,13,Daniel Marquez,Midland Lee,84.55,92.99,61.23,115.67,269.89,Single-ply,SBD,M
Boys,89.81,DQ,Steve Bolton,Lubbock Monterey,84.46,,,,,Single-ply,SBD,M
Boys,89.81,DQ,Relandus Swann,Midland Lee,85.91,,,,,Single-ply,SBD,M
Boys,99.79,1,James Iglesias,Lamesa,96.25,219.99,122.47,208.65,551.11,Single-ply,SBD,M
Boys,99.79,2,Dray Smith,Big Spring,91.81,163.29,115.67,192.78,471.74,Single-ply,SBD,M
Boys,99.79,3,Anthony McCarson,San Angelo Grape Creek,99.52,181.44,99.79,176.9,458.13,Single-ply,SBD,M
Boys,99.79,4,Diamond Bailey,Big Spring,97.52,174.63,95.25,183.7,453.59,Single-ply,SBD,M
Boys,99.79,5,Matt Foster,Wolfforth Frenship,94.98,176.9,83.91,174.63,435.45,Single-ply,SBD,M
Boys,99.79,6,Kendall Rea,Sweetwater,95.89,142.88,113.4,174.63,430.91,Single-ply,SBD,M
Boys,99.79,7,Daniel Diaz,Wolfforth Frenship,98.52,167.83,102.06,142.88,412.77,Single-ply,SBD,M
Boys,99.79,8,Mondo Martinez,Post,97.7,145.15,72.57,151.95,369.68,Single-ply,SBD,M
Boys,99.79,9,Andrew Davis,Sweetwater,99.43,111.13,79.38,131.54,322.05,Single-ply,SBD,M
Boys,109.77,1,Gerald Williams,San Angelo Grape Creek,104.51,272.16,136.08,267.62,675.85,Single-ply,SBD,M
Boys,109.77,2,Daniel Montez,Roby,103.96,238.14,145.15,226.8,610.08,Single-ply,SBD,M
Boys,109.77,3,Ramiro Rodriguez,Lubbock Monterey,107.95,238.14,158.76,204.12,601.01,Single-ply,SBD,M
Boys,109.77,4,Shaquille Walters,Midland Greenwood,100.7,238.14,120.2,226.8,585.13,Single-ply,SBD,M
Boys,109.77,5,Coy Carney,San Angelo Grape Creek,100.52,195.04,122.47,199.58,517.1,Single-ply,SBD,M
Boys,109.77,6,Robert Barker,Wolfforth Frenship,108.86,185.97,115.67,195.04,496.68,Single-ply,SBD,M
Boys,109.77,7,Slade Hansen,Anson,108.68,190.51,120.2,183.7,494.42,Single-ply,SBD,M
Boys,109.77,8,Hunter Johnson,Sweetwater,106.14,176.9,117.93,192.78,487.61,Single-ply,SBD,M
Boys,109.77,9,Austin Wills,Wolfforth Frenship,103.87,154.22,104.33,172.37,430.91,Single-ply,SBD,M
Boys,109.77,10,Victor Perez,Lamesa,107.86,161.03,88.45,158.76,408.23,Single-ply,SBD,M
Boys,109.77,11,Vincent Machvca,Midland Lee,108.23,151.95,92.99,158.76,403.7,Single-ply,SBD,M
Boys,109.77,12,Hardy Berber,Colorado City Colorado,109.41,136.08,83.91,142.88,362.87,Single-ply,SBD,M
Boys,109.77,13,Garrett Grear,Midland Lee,100.88,117.93,70.31,136.08,324.32,Single-ply,SBD,M
Boys,109.77,14,Donato Gaxiola,Sweetwater,106.23,102.06,77.11,129.27,308.44,Single-ply,SBD,M
Boys,109.77,15,Diego Alvarado,Midland Lee,102.51,102.06,72.57,129.27,303.91,Single-ply,SBD,M
Boys,109.77,16,Garret Devault,Midland Lee,107.23,72.57,61.23,99.79,233.6,Single-ply,SBD,M
Boys,109.77,DQ,Anthony Rivera,Colorado City Colorado,104.96,163.29,113.4,,,Single-ply,SBD,M
Boys,109.77,DQ,Dillon Ogle,Big Spring,106.68,117.93,,,,Single-ply,SBD,M
Boys,124.74,1,Fabian Gutierrez,Colorado City Colorado,120.75,217.72,133.81,204.12,555.65,Single-ply,SBD,M
Boys,124.74,2,Freddie Savage,Wolfforth Frenship,115.76,222.26,133.81,192.78,548.85,Single-ply,SBD,M
Boys,124.74,3,Emiliano Renteria,Lamesa,117.66,208.65,122.47,199.58,530.7,Single-ply,SBD,M
Boys,124.74,4,Caleb Wrinkle,Rankin,118.48,195.04,106.59,226.8,528.44,Single-ply,SBD,M
Boys,124.74,5,Jacob Wylie,Big Spring,115.94,208.65,136.08,172.37,517.1,Single-ply,SBD,M
Boys,124.74,6,Chris Nunez,Big Spring,115.48,174.63,120.2,206.38,501.22,Single-ply,SBD,M
Boys,124.74,7,Ed Aguado,Anson,114.21,215.46,122.47,158.76,496.68,Single-ply,SBD,M
Boys,124.74,8,Malcolm Jackson,Sweetwater,119.48,158.76,127.01,158.76,444.52,Single-ply,SBD,M
Boys,124.74,9,Michael Nguyen,Midland Greenwood,115.94,163.29,99.79,170.1,433.18,Single-ply,SBD,M
Boys,124.74,10,Aric Rutledge,Big Spring,111.49,147.42,90.72,145.15,383.29,Single-ply,SBD,M
Boys,124.74,11,Chad Milne,Midland Lee,113.94,106.59,86.18,124.74,317.51,Single-ply,SBD,M
Boys,124.74,12,Aj Martinez,Big Spring,115.21,136.08,65.77,111.13,312.98,Single-ply,SBD,M
Boys,124.74,DQ,Jose Garcia,Sweetwater,110.13,181.44,124.74,,,Single-ply,SBD,M
Boys,124.74+,1,Sawyer Roberts,Big Spring,178.35,199.58,124.74,238.14,562.45,Single-ply,SBD,M
Boys,124.74+,2,Larson Crume,Wolfforth Frenship,145.33,201.85,117.93,192.78,512.56,Single-ply,SBD,M
Boys,124.74+,3,Chance Kelly,Lubbock Monterey,126.46,183.7,122.47,197.31,503.49,Single-ply,SBD,M
Boys,124.74+,4,Aj Coronado,Colorado City Colorado,146.06,181.44,106.59,172.37,460.4,Single-ply,SBD,M
Boys,124.74+,5,Taylor York,Wolfforth Frenship,132,181.44,102.06,158.76,442.25,Single-ply,SBD,M
