Name,Sex,Age,Division,Equipment,BodyweightKg,WeightClassKg,Squat1Kg,Squat2Kg,Squat3Kg,Best3SquatKg,Bench1Kg,Bench2Kg,Bench3Kg,Best3BenchKg,Deadlift1Kg,Deadlift2Kg,Deadlift3Kg,Best3DeadliftKg,TotalKg,Event,Place,Country
Rhianon Lovelace,F,,F_J_R_WPC,Raw,56.1,60,,,,,80,-82.5,-82.5,80,,,,,80,B,1,England
Dagmar Liptáková,F,,F_M1_M_WPC,Multi-ply,63.1,67.5,,,,,130,135,140,140,,,,,140,B,1,Slovakia
Anna Rosén,F,,F_M1_R_WPC,Raw,95.8,90+,,,,,120,125,131,131,,,,,131,B,1,Sweden
Irina Pomerantsev,F,,F_M2_R_WPC,Raw,41.2,44,,,,,60,62.5,65,65,,,,,65,B,1,Israel
Patricia Page,F,,F_M2_R_WPC,Raw,88.5,90,,,,,45,47.5,-52.5,47.5,,,,,47.5,B,2,Ireland
Mo Proctor,F,,F_M2_R_WPC,Raw,84.6,90,,,,,62.5,67.5,-72.5,67.5,,,,,67.5,B,1,England
Patricia Wetton,F,,F_M3_S_WPC,Single-ply,74.7,75,,,,,75,-80,-80,75,,,,,75,B,1,England
Wiebke Hinrichsen,F,,F_O_M_WPC,Multi-ply,66.8,67.5,,,,,110,120,-130,120,,,,,120,B,1,Germany
Júlia Kostúrová,F,,F_O_M_WPC,Multi-ply,72.3,75,,,,,165,175,187.5,187.5,,,,,187.5,B,1,Slovakia
Zdenka Hudíková,F,,F_O_M_WPC,Multi-ply,83.2,90,,,,,-145,-150,150,150,,,,,150,B,1,Slovakia
Irina Pomerantsev,F,,F_O_R_WPC,Raw,41.2,44,,,,,60,62.5,65,65,,,,,65,B,1,Israel
Leslie Watson,F,,F_O_R_WPC,Raw,46.1,48,,,,,57.5,60,62.5,62.5,,,,,62.5,B,1,England
Steph Taylor,F,,F_O_R_WPC,Raw,58,60,,,,,55,57.5,-60,57.5,,,,,57.5,B,2,England
Rhianon Lovelace,F,,F_O_R_WPC,Raw,56.1,60,,,,,80,-82.5,-82.5,80,,,,,80,B,1,England
Cerys Walker,F,,F_O_R_WPC,Raw,62.3,67.5,,,,,45,50,-52.5,50,,,,,50,B,1,England
Linda Scully,F,,F_O_R_WPC,Raw,73.7,75,,,,,75,80,-82.5,80,,,,,80,B,1,Ireland
Hannah Venn-Munns,F,,F_O_R_WPC,Raw,78.1,82.5,,,,,62.5,67.5,-70,67.5,,,,,67.5,B,1,England
Anki Oberg,F,,F_O_R_WPC,Raw,87.9,90,,,,,90,105,,105,,,,,105,B,1,Sweden
Laura Parker,F,,F_O_R_WPC,Raw,94.8,90+,,,,,82.5,87.5,90,90,,,,,90,B,3,England
Nicola Goodwill,F,,F_O_R_WPC,Raw,90.8,90+,,,,,118,-122.5,-122.5,118,,,,,118,B,2,England
Anna Rosén,F,,F_O_R_WPC,Raw,95.8,90+,,,,,120,125,131,131,,,,,131,B,1,Sweden
Sara Bradley,F,,F_T3_R_WPC,Raw,58.4,60,,,,,65,70,-75,70,,,,,70,B,1,England
Geni Devonish,F,,M_M1_R_WPC,Raw,86.9,90,,,,,55,60,65,65,,,,,65,B,1,England
Denisa Polova,F,,F_J_R_WPC,Raw,57.8,60,,,,,,,,,140,-152.5,,140,140,D,2,Czechia
Rhianon Lovelace,F,,F_J_R_WPC,Raw,56.1,60,,,,,,,,,150,-160,160,160,160,D,1,England
Radostona Lulova,F,,F_J_R_WPC,Raw,62.2,67.5,,,,,,,,,150,157.5,162.5,162.5,162.5,D,1,
Geni Devonish,F,,F_M1_R_WPC,Raw,86.9,90,,,,,,,,,110,120,130,130,130,D,1,England
Anna Rosén,F,,F_M1_R_WPC,Raw,95.8,90+,,,,,,,,,190,205,-210,205,205,D,1,Sweden
Patricia Page,F,,F_M2_R_WPC,Raw,88.5,90,,,,,,,,,125,-132.5,-132.5,125,125,D,2,Ireland
Mo Proctor,F,,F_M2_R_WPC,Raw,84.6,90,,,,,,,,,125,130,-132.5,130,130,D,1,England
Patricia Wetton,F,,F_M3_R_WPC,Raw,,,,,,,,,,,115,122.5,127.5,127.5,127.5,D,1,England
Irina Pomerantsev,F,,F_M4_R_WPC,Raw,41.2,44,,,,,,,,,102.5,107.5,-110,107.5,107.5,D,1,Israel
Valerie Tinker,F,,F_M4_R_WPC,Raw,66.4,67.5,,,,,,,,,100,110,-120,110,110,D,1,England
Irina Pomerantsev,F,,F_O_R_WPC,Raw,41.2,44,,,,,,,,,102.5,107.5,-110,107.5,107.5,D,1,Israel
Nikki Carter,F,,F_O_R_WPC,Raw,57.5,60,,,,,,,,,70,90,-100,90,90,D,2,England
Steph Taylor,F,,F_O_R_WPC,Raw,58,60,,,,,,,,,125,130,-132.5,130,130,D,1,England
Rhianon Lovelace,F,,F_O_R_WPC,Raw,56.1,60,,,,,,,,,150,-160,160,160,160,D,1,England
Cerys Walker,F,,F_O_R_WPC,Raw,62.3,67.5,,,,,,,,,120,130,-135,130,130,D,3,England
Aimee Rutherford,F,,F_O_R_WPC,Raw,60.1,67.5,,,,,,,,,135,-150,150,150,150,D,2,England
Jenna Karhapää,F,,F_O_R_WPC,Raw,66,67.5,,,,,,,,,155,-162.5,-162.5,155,155,D,1,Finland
Hannah Venn-Munns,F,,F_O_R_WPC,Raw,78.1,82.5,,,,,,,,,110,120,-125,120,120,D,1,England
Nicola Goodwill,F,,F_O_R_WPC,Raw,90.8,90+,,,,,,,,,200,-207.5,-207.5,200,200,D,2,England
Anna Rosén,F,,F_O_R_WPC,Raw,95.8,90+,,,,,,,,,190,205,-210,205,205,D,1,Sweden
Sara Bradley,F,,F_T3_R_WPC,Raw,58.4,60,,,,,,,,,137.5,145,-150,145,145,D,1,England
Angela Harrison,F,,F_J_C_WPC,Wraps,65.4,67.5,107.5,115,-122.5,115,67.5,72.5,77.5,77.5,137.5,150,160,160,352.5,SBD,2,England
Amelia Crook,F,,F_J_C_WPC,Wraps,63.1,67.5,122.5,127.5,132.5,132.5,70,75,-77.5,75,145,152.5,-160,152.5,360,SBD,1,England
Jessica Pallot,F,,F_J_R_WPC,Raw,55.6,56,72.5,-77.5,-77.5,72.5,42.5,-47.5,-47.5,42.5,100,105,112.5,112.5,227.5,SBD,2,England
Sara Matos,F,,F_J_R_WPC,Raw,54.1,56,110,-120,-120,110,45,52.5,57.5,57.5,110,122.5,130,130,297.5,SBD,1,Portugal
Rhianon Lovelace,F,,F_J_R_WPC,Raw,58.3,60,120,-125,-125,120,-80,80,-82.5,80,150,-155,155,155,355,SBD,1,England
Radostina Lulova,F,,F_J_R_WPC,Raw,62.3,67.5,120,130,-132.5,130,60,-65,65,65,150,-160,,150,345,SBD,1,Bulgaria
Charlotte McIntyre,F,,F_J_R_WPC,Raw,71.3,75,90,100,-105,100,50,55,-60,55,135,145,150,150,305,SBD,1,England
Angela McNamara,F,,F_M1_M_WPC,Multi-ply,80.8,82.5,185,220,235,235,140,,,140,200,-207.5,,200,575,SBD,1,Ireland
Dominique Fisher #1,F,,F_M1_R_WPC,Raw,65.9,67.5,130,142.5,-152.5,142.5,65,70,-72.5,70,150,-160,-160,150,362.5,SBD,1,England
Geni Devonish,F,,F_M1_R_WPC,Raw,87.2,90,110,120,-125,120,55,60,-65,60,120,130,135,135,315,SBD,1,England
Tara O'Shaughnessy,F,,F_M1_S_WPC,Single-ply,73.7,75,190,-205,-205,190,105,-110,110,110,180,190,-200,190,490,SBD,1,Ireland
Irina Pomerantsev,F,,F_M2_R_WPC,Raw,40.8,44,75,80,81,81,-60,62.5,-65,62.5,100,-105,105,105,248.5,SBD,1,Israel
Amanda Cunliffe,F,,F_M2_R_WPC,Raw,53.8,56,75,80,85,85,40,-45,-45,40,105,115,-122.5,115,240,SBD,1,England
Emma Mallon,F,,F_M2_R_WPC,Raw,67.3,67.5,-90,90,107.5,107.5,57.5,-62.5,62.5,62.5,120,130,140,140,310,SBD,1,England
Mo Proctor,F,,F_M2_R_WPC,Raw,82,82.5,95,-105,-105,95,62.5,-67.5,67.5,67.5,125,-135,-135,125,287.5,SBD,2,England
Karla Frater,F,,F_M2_R_WPC,Raw,81.4,82.5,100,-105,107.5,107.5,40,-45,45,45,140,150,160,160,312.5,SBD,1,England
Bev Johnson,F,,F_M3_R_WPC,Raw,65.3,67.5,55,-60,-60,55,37.5,40,45,45,90,100,110,110,210,SBD,1,England
Patricia Wetton,F,,F_M3_R_WPC,Raw,73.4,75,85,-95,105,105,57.5,-62.5,62.5,62.5,110,-130,,110,277.5,SBD,1,England
Allison Hough,F,,F_M3_S_WPC,Single-ply,59.4,60,120,135,145,145,87.5,92.5,97.5,97.5,130,145,152.5,152.5,395,SBD,1,England
Amy O'Neill,F,,F_O_C_WPC,Wraps,58.3,60,110,-120,120,120,50,52.5,55,55,120,125,130,130,305,SBD,1,Ireland
Rachel Murphy,F,,F_O_C_WPC,Wraps,66.4,67.5,-110,110,-122.5,110,55,60,62.5,62.5,130,137.5,145,145,317.5,SBD,1,Ireland
Joanne Connolly,F,,F_O_C_WPC,Wraps,74.9,75,-110,110,-120,110,40,,,40,140,147.5,150,150,300,SBD,3,Ireland
Holly Ware,F,,F_O_C_WPC,Wraps,71.4,75,150,160,-165,160,90,95,100,100,180,185,192.5,192.5,452.5,SBD,1,England
Denise Herber,F,,F_O_C_WPC,Wraps,72.4,75,-160,160,172.5,172.5,87.5,92.5,97.5,97.5,165,175,182.5,182.5,452.5,SBD,2,Germany
Wiebke Hinrichsen,F,,F_O_M_WPC,Multi-ply,66.3,67.5,150,-160,-160,150,-107.5,107.5,120,120,140,152.5,-162.5,152.5,422.5,SBD,1,Germany
Angela McNamara,F,,F_O_M_WPC,Multi-ply,80.8,82.5,185,220,235,235,140,,,140,200,-207.5,,200,575,SBD,1,Ireland
Irina Pomerantsev,F,,F_O_R_WPC,Raw,40.8,44,75,80,81,81,-60,62.5,-65,62.5,100,-105,105,105,248.5,SBD,1,Israel
Anna Chojnacka,F,,F_O_R_WPC,Raw,53.4,56,75,80,-85,80,35,-40,40,40,90,100,-110,100,220,SBD,1,England
Steph Taylor,F,,F_O_R_WPC,Raw,55.4,56,-72.5,-72.5,72.5,72.5,55,-57.5,-57.5,55,-125,125,-130,125,252.5,SBD,3,England
Sylwia Tomaszek,F,,F_O_R_WPC,Raw,56,56,85,90,-95,90,45,-50,-50,45,100,110,120,120,255,SBD,2,England
Cheryl Stanley,F,,F_O_R_WPC,Raw,55.9,56,85,95,100,100,45,50,-55,50,105,115,-125,115,265,SBD,1,England
Kat Osborne,F,,F_O_R_WPC,Raw,59.1,60,100,105,110,110,52.5,55,-57.5,55,130,135,-137.5,135,300,SBD,2,England
Amanda Hillary,F,,F_O_R_WPC,Raw,59.6,60,105,107.5,110,110,-55,-55,55,55,130,137.5,140,140,305,SBD,1,England
Cerys Walker,F,,F_O_R_WPC,Raw,59.1,60,90,-100,-100,90,47.5,-50,-50,47.5,-130,-130,-130,,,SBD,DQ,England
Emma Mallon,F,,F_O_R_WPC,Raw,67.3,67.5,-90,90,107.5,107.5,57.5,-62.5,62.5,62.5,120,130,140,140,310,SBD,6,England
Donna Phillips,F,,F_O_R_WPC,Raw,67.2,67.5,95,100,-105,100,55,60,65,65,130,140,150,150,315,SBD,5,England
Simone Bennett,F,,F_O_R_WPC,Raw,61.7,67.5,-95,95,-107.5,95,-65,65,-70,65,160,165,-170,165,325,SBD,3,England
Dominique Fisher #1,F,,F_O_R_WPC,Raw,65.9,67.5,130,142.5,-152.5,142.5,65,70,-72.5,70,150,-160,-160,150,362.5,SBD,1,England
Rachel Bradish,F,,F_O_R_WPC,Raw,67.1,67.5,115,117.5,-120,117.5,75,-80,-80,75,165,170,-175,170,362.5,SBD,2,England
Hannah Venn-Munns,F,,F_O_R_WPC,Raw,74,75,80,87.5,-90,87.5,62.5,-67.5,-67.5,62.5,-115,115,-120,115,265,SBD,4,England
Kelly Matthews,F,,F_O_R_WPC,Raw,71.9,75,-85,-90,90,90,55,57.5,-60,57.5,120,130,-140,130,277.5,SBD,3,England
Alexandra Foster,F,,F_O_R_WPC,Raw,72.6,75,105,-120,120,120,50,-55,-55,50,140,150,-160,150,320,SBD,2,England
Naomi Sheppard,F,,F_O_R_WPC,Raw,74.2,75,130,140,145,145,70,77.5,-80,77.5,140,-150,150,150,372.5,SBD,1,England
Alison Dufour,F,,F_O_R_WPC,Raw,80,82.5,95,110,-115,110,65,-72.5,-72.5,65,125,-142.5,142.5,142.5,317.5,SBD,2,England
Tanya Brodie,F,,F_O_R_WPC,Raw,80.6,82.5,110,-120,120,120,50,55,-60,55,125,145,-155,145,320,SBD,1,England
Ruth Farrelly,F,,F_O_R_WPC,Raw,65.5,67.5,110,120,-130,120,50,57.5,-65,57.5,127.5,137.5,-145,137.5,315,SBD,4,Ireland
Lisa Bulcock,F,,F_O_R_WPC,Raw,80.1,82.5,125,132.5,137.5,137.5,67.5,72.5,-75,72.5,145,150,160,160,370,SBD,1,England
Iwona Karwowska,F,,F_O_R_WPC,Raw,85.1,90,140,-150,150,150,70,75,80,80,-140,150,-160,150,380,SBD,1,England
Victoria Brodie,F,,F_O_R_WPC,Raw,96.3,90+,110,-125,-130,110,60,-67.5,-67.5,60,130,147.5,-157.5,147.5,317.5,SBD,2,England
Laura Parker,F,,F_O_R_WPC,Raw,93.2,90+,-135,135,145,145,80,87.5,-92.5,87.5,140,150,-160,150,382.5,SBD,1,England
Tara O'Shaughnessy,F,,F_O_S_WPC,Single-ply,73.7,75,190,-205,-205,190,105,-110,110,110,180,190,-200,190,490,SBD,1,Ireland
Chloe Passmore,F,,F_T1_R_WPC,Raw,74.1,75,55,62.5,70,70,35,40,-45,40,75,87.5,95,95,205,SBD,1,England
Dana Smith,F,,F_T2_R_WPC,Raw,55.2,56,75,-82.5,-82.5,75,-47.5,47.5,52.5,52.5,95,105,-110,105,232.5,SBD,2,England
Brooke Hill,F,,F_T2_R_WPC,Raw,54.8,56,85,92.5,-100,92.5,45,52.5,-55,52.5,97.5,-105,105,105,250,SBD,1,England
Bruna Faria,F,,F_T3_C_WPC,Wraps,64.9,67.5,100,115,-125,115,50,55,60,60,95,107.5,115,115,290,SBD,1,Portugal
Andrew Whitaker,M,,M_Dis_R_WPC,Raw,95.6,100,,,,,180,190,201,201,,,,,201,B,1,England
Marek Herák,M,,M_J_M_WPC,Multi-ply,65.3,67.5,,,,,180,190,200,200,,,,,200,B,1,
Gabriel Kováč,M,,M_J_M_WPC,Multi-ply,81.6,82.5,,,,,260,280,300,300,,,,,300,B,1,
Róbert Majoros,M,,M_J_R_WPC,Raw,98.2,100,,,,,160,180,-200,180,,,,,180,B,1,Hungary
Ewan Cunliffe,M,,M_J_R_WPC,Raw,108.2,110,,,,,170,180,-192.5,180,,,,,180,B,1,England
Hyuseim Ashakov,M,,M_J_R_WPC,Raw,109.6,110,,,,,-180,-185,-185,,,,,,,B,DQ,Bulgaria
Matt Gibson,M,,M_J_R_WPC,Raw,122,125,,,,,160,165,170,170,,,,,170,B,1,England
Romauld Masse,M,,M_J_R_WPC,Raw,135.9,140,,,,,225,235,-240,235,,,,,235,B,1,France
Valentin Rohm,M,,M_J_R_WPC,Raw,84.9,90,,,,,150,-155,-155,150,,,,,150,B,1,Germany
Neil Stewart,M,,M_M1_M_WPC,Multi-ply,99.3,100,,,,,155,167.5,175,175,,,,,175,B,1,England
Vagif Mammadov,M,,M_M1_M_WPC,Multi-ply,90,90,,,,,180,200,-220,200,,,,,200,B,1,Azerbaijan
Klaus Renfors,M,,M_M1_R_WPC,Raw,95.6,100,,,,,152.5,162.5,165,165,,,,,165,B,1,Finland
Eric Platel,M,,M_M1_R_WPC,Raw,107.3,110,,,,,185,200,-207.5,200,,,,,200,B,1,France
Petri Salonen,M,,M_M1_R_WPC,Raw,113.6,125,,,,,180,190,195,195,,,,,195,B,1,Finland
Peter Diethalm,M,,M_M1_R_WPC,Raw,126.6,140,,,,,205,215,220,220,,,,,220,B,1,Switzerland
Alexander Benik,M,,M_M1_R_WPC,Raw,88.6,90,,,,,160,-170,-170,160,,,,,160,B,2,Germany
Paul Morgan,M,,M_M1_R_WPC,Raw,89.4,90,,,,,160,-172.5,-172.5,160,,,,,160,B,3,England
Florindo Figueiredo Pinheiro,M,,M_M1_R_WPC,Raw,88.6,90,,,,,230,-238,-238,230,,,,,230,B,1,Portugal
Adam Browne,M,,M_M1_S_WPC,Single-ply,98.3,100,,,,,195,210,227.5,227.5,,,,,227.5,B,1,England
Paul Morgan,M,,M_M1_S_WPC,Single-ply,89.3,90,,,,,165,180,190,190,,,,,190,B,1,England
Vladimir Omelkov,M,,M_M2_M_WPC,Multi-ply,108,110,,,,,-265,-265,265,265,,,,,265,B,1,Russia
David Gibson,M,,M_M2_R_WPC,Raw,92.7,100,,,,,140,145,150,150,,,,,150,B,2,England
David Pennington,M,,M_M2_R_WPC,Raw,96.8,100,,,,,160,172.5,180,180,,,,,180,B,1,England
Sean Blackburn,M,,M_M2_R_WPC,Raw,107.2,110,,,,,175,187.5,-202.5,187.5,,,,,187.5,B,1,England
Oleg Pivovarov,M,,M_M3_M_WPC,Multi-ply,107.1,110,,,,,230,240,,240,,,,,240,B,1,Russia
Ismo Sahlsten,M,,M_M3_M_WPC,Multi-ply,119.6,125,,,,,210,220,227.5,227.5,,,,,227.5,B,1,Finland
Stéphane Gurini,M,,M_M3_R_WPC,Raw,99.6,100,,,,,145,152.5,-160,152.5,,,,,152.5,B,1,France
Chris Apark,M,,M_M3_R_WPC,Raw,108.8,110,,,,,130,140,142.5,142.5,,,,,142.5,B,2,England
Göran Rosén,M,,M_M3_R_WPC,Raw,108.8,110,,,,,180,190,202.5,202.5,,,,,202.5,B,1,Sweden
Per Holm,M,,M_M3_R_WPC,Raw,137.3,140,,,,,152.5,157.5,-160,157.5,,,,,157.5,B,1,Sweden
Aleksandr Romanichev,M,,M_M3_R_WPC,Raw,58.9,60,,,,,-95,-95,,,,,,,,B,DQ,Israel
Pedro Claro,M,,M_M3_R_WPC,Raw,73.5,75,,,,,125,135,-140,135,,,,,135,B,1,Portugal
Martin Randall,M,,M_M3_R_WPC,Raw,88.1,90,,,,,-132.5,132.5,-137.5,132.5,,,,,132.5,B,2,England
Tilo Kupper,M,,M_M3_R_WPC,Raw,89.2,90,,,,,150,155,160,160,,,,,160,B,1,Switzerland
Oleg Pivovarov,M,,M_M3_S_WPC,Single-ply,107.1,110,,,,,220,230,240,240,,,,,240,B,1,Russia
Didier Theux,M,,M_M4_M_WPC,Multi-ply,82.1,82.5,,,,,210,220,230,230,,,,,230,B,1,France
Joaquim Morais,M,,M_M4_R_WPC,Raw,112.2,125,,,,,155,165,-170,165,,,,,165,B,2,Portugal
Paul Edmonds,M,,M_M4_R_WPC,Raw,120.1,125,,,,,192.5,200,207.5,207.5,,,,,207.5,B,1,England
Bruno Dedieu,M,,M_M4_R_WPC,Raw,80.8,82.5,,,,,110,120,122.5,122.5,,,,,122.5,B,1,France
Rich Fricker,M,,M_M4_S_WPC,Single-ply,146,140+,,,,,150,157.5,165,165,,,,,165,B,1,England
Rui Faria,M,,M_M5_R_WPC,Raw,83.8,90,,,,,95,-105,105,105,,,,,105,B,1,Portugal
Tapio Laine,M,,M_M5_S_WPC,Single-ply,126.8,140,,,,,230,-240,-240,230,,,,,230,B,1,Finland
Michael King,M,,M_M6_R_WPC,Raw,124.6,125,,,,,180,190,-200,190,,,,,190,B,1,England
Michael King,M,,M_M6_S_WPC,Single-ply,123.7,125,,,,,200,-215,215,215,,,,,215,B,1,England
György Fonyódi,M,,M_M7_R_WPC,Raw,64.9,67.5,,,,,75,80,-88,80,,,,,80,B,1,
Rubin Grigari,M,,M_M9_S_WPC,Single-ply,73.3,75,,,,,105,110,112.5,112.5,,,,,112.5,B,1,Israel
Neil Stewart,M,,M_O_M_WPC,Multi-ply,99.3,100,,,,,155,167.5,175,175,,,,,175,B,5,England
Mikko Matkainen,M,,M_O_M_WPC,Multi-ply,99.4,100,,,,,195,-205,205,205,,,,,205,B,4,Finland
Namig Muruyev,M,,M_O_M_WPC,Multi-ply,96.6,100,,,,,270,-285,-290,270,,,,,270,B,3,Azerbaijan
Eldar Mammadov,M,,M_O_M_WPC,Multi-ply,99.3,100,,,,,255,-272.5,272.5,272.5,,,,,272.5,B,2,Azerbaijan
Jaromír Kratochvíl,M,,M_O_M_WPC,Multi-ply,99.9,100,,,,,285,290,-302.5,290,,,,,290,B,1,Czechia
Vladimir Omelkov,M,,M_O_M_WPC,Multi-ply,108,110,,,,,-265,-265,265,265,,,,,265,B,4,Russia
Bruno Alves,M,,M_O_M_WPC,Multi-ply,107.6,110,,,,,260,-272.5,272.5,272.5,,,,,272.5,B,3,Portugal
Patrik Navara,M,,M_O_M_WPC,Multi-ply,106.2,110,,,,,270,277.5,290,290,,,,,290,B,2,Czechia
Marcus Heuer,M,,M_O_M_WPC,Multi-ply,106.1,110,,,,,-287.5,287.5,300,300,,,,,300,B,1,Germany
Iain Connors,M,,M_O_M_WPC,Multi-ply,115.5,125,,,,,280,-290,,280,,,,,280,B,1,England
Vlastimil Pol,M,,M_O_M_WPC,Multi-ply,116.1,125,,,,,-250,-250,-255,,,,,,,B,DQ,Czechia
Steve Macneil,M,,M_O_M_WPC,Multi-ply,,140,,,,,-332.5,-340,-340,,,,,,,B,DQ,England
Agshin Ismayilov,M,,M_O_M_WPC,Multi-ply,75,75,,,,,220,-240,-240,220,,,,,220,B,1,Azerbaijan
Bayram Aliyev,M,,M_O_M_WPC,Multi-ply,81.9,82.5,,,,,235,-247.5,-247.5,235,,,,,235,B,1,Azerbaijan
Filip Stanko,M,,M_O_M_WPC,Multi-ply,84.1,90,,,,,240,250,260,260,,,,,260,B,1,Slovakia
Owen Hodgson,M,,M_O_R_WPC,Raw,97.5,100,,,,,140,150,-160,150,,,,,150,B,6,England
Aaron Fillery,M,,M_O_R_WPC,Raw,96.8,100,,,,,155,160,-165,160,,,,,160,B,5,England
Klaus Renfors,M,,M_O_R_WPC,Raw,95.6,100,,,,,152.5,162.5,165,165,,,,,165,B,4,Finland
Gary Topley,M,,M_O_R_WPC,Raw,98.3,100,,,,,185,-197.5,-197.5,185,,,,,185,B,3,England
Andrew Whitaker,M,,M_O_R_WPC,Raw,95.6,100,,,,,180,190,201,201,,,,,201,B,2,England
Aamar Mahmood,M,,M_O_R_WPC,Raw,93.6,100,,,,,217.5,-222.5,222.5,222.5,,,,,222.5,B,1,England
Todor Kapashikov,M,,M_O_R_WPC,Raw,105.3,110,,,,,202.5,212.5,-225,212.5,,,,,212.5,B,3,Bulgaria
Dmitriy Podgorniy,M,,M_O_R_WPC,Raw,105.8,110,,,,,205,215,-225,215,,,,,215,B,1,Russia
Daniel Boss,M,,M_O_R_WPC,Raw,108.9,110,,,,,200,207.5,215,215,,,,,215,B,2,Switzerland
Darren McCormac,M,,M_O_R_WPC,Raw,131.9,140,,,,,190,200,-207.5,200,,,,,200,B,1,England
Paul Beckford,M,,M_O_R_WPC,Raw,181.1,140+,,,,,175,-185,-185,175,,,,,175,B,2,England
Rikard Erlandsson,M,,M_O_R_WPC,Raw,161.1,140+,,,,,230,242.5,-252.5,242.5,,,,,242.5,B,1,Sweden
Richard Davalle,M,,M_O_R_WPC,Raw,50.2,52,,,,,105,110,,110,,,,,110,B,1,France
Gurnaik Birring,M,,M_O_R_WPC,Raw,58.9,60,,,,,110,115,-120,115,,,,,115,B,1,England
Aleksandr Romanichev,M,,M_O_R_WPC,Raw,58.9,60,,,,,-95,-95,,,,,,,,B,DQ,Israel
Aleksandrs Ņikitins,M,,M_O_R_WPC,Raw,65.4,67.5,,,,,95,102.5,107.5,107.5,,,,,107.5,B,1,Russia
Pedro Claro,M,,M_O_R_WPC,Raw,73.5,75,,,,,125,135,-140,135,,,,,135,B,3,Portugal
Fábio Brás,M,,M_O_R_WPC,Raw,73.9,75,,,,,135,145,-155,145,,,,,145,B,1,Portugal
Sean Kilbride,M,,M_O_R_WPC,Raw,74.5,75,,,,,130,140,145,145,,,,,145,B,2,England
Niall O'Keefe,M,,M_O_R_WPC,Raw,82.1,82.5,,,,,165,175,182.5,182.5,,,,,182.5,B,3,Ireland
Luis Simões,M,,M_O_R_WPC,Raw,82.5,82.5,,,,,185,192.5,-197.5,192.5,,,,,192.5,B,2,Portugal
Attila Gembiczki,M,,M_O_R_WPC,Raw,80.9,82.5,,,,,180,190,195,195,,,,,195,B,1,Hungary
Bruno Horta,M,,M_O_R_WPC,Raw,86.1,90,,,,,135,145,-150,145,,,,,145,B,3,Portugal
Diogo Acurcio,M,,M_O_R_WPC,Raw,90,90,,,,,135,145,-152.5,145,,,,,145,B,4,Portugal
Chris Pike,M,,M_O_R_WPC,Raw,88.1,90,,,,,155,-165,170,170,,,,,170,B,2,England
Florindo Figueiredo Pinheiro,M,,M_O_R_WPC,Raw,88.6,90,,,,,230,-238,-238,230,,,,,230,B,1,Portugal
Todor Kapashikov,M,,M_O_S_WPC,Single-ply,109.3,110,,,,,-295,295,-305,295,,,,,295,B,1,Bulgaria
Ryan Hough,M,,M_O_S_WPC,Single-ply,139.6,140,,,,,-240,240,-262.5,240,,,,,240,B,1,England
Fábio Brás,M,,M_O_S_WPC,Single-ply,71.1,75,,,,,-155,155,160,160,,,,,160,B,1,Portugal
Pedro Rocha,M,,M_O_S_WPC,Single-ply,80.9,82.5,,,,,-130,130,140,140,,,,,140,B,2,Portugal
Arttu Wahlström,M,,M_O_S_WPC,Single-ply,79.7,82.5,,,,,210,217.5,-222.5,217.5,,,,,217.5,B,1,Finland
Diogo Acurcio,M,,M_O_S_WPC,Single-ply,89,90,,,,,165,172.5,-182.5,172.5,,,,,172.5,B,3,Portugal
Paul Morgan,M,,M_O_S_WPC,Single-ply,89.3,90,,,,,165,180,190,190,,,,,190,B,2,England
Aleksandrs Ņikitins,M,,M_O_S_WPC,Single-ply,88.9,90,,,,,235,-245,-252.5,235,,,,,235,B,1,Latvia
Denis Borcha,M,,M_T1_M_WPC,Multi-ply,131.7,140,,,,,-170,170,180,180,,,,,180,B,1,
Faisal Hercules Al Wahabi,M,,M_T1_M_WPC,Multi-ply,68.8,75,,,,,-160,160,170,170,,,,,170,B,1,
Leon De Roeck,M,,M_T2_R_WPC,Raw,110.1,125,,,,,160,170,-180,170,,,,,170,B,1,Portugal
Mihails Rapoports,M,,M_T2_R_WPC,Raw,66.7,67.5,,,,,112.5,117.5,122.5,122.5,,,,,122.5,B,1,Latvia
Miroslav Adamove,M,,M_T3_M_WPC,Multi-ply,96.1,100,,,,,270,300,-312.5,300,,,,,300,B,1,Slovakia
Dominik Gabriel,M,,M_T3_M_WPC,Multi-ply,108.8,110,,,,,-180,180,190,190,,,,,190,B,1,
Jordan Farrington,M,,M_T3_M_WPC,Multi-ply,87.5,90,,,,,165,175,182.5,182.5,,,,,182.5,B,1,
Guillaume Paoli,M,,M_T3_R_WPC,Raw,74.9,75,,,,,105,112.5,120,120,,,,,120,B,1,France
Andre Rei,M,,M_J_M_WPC,Multi-ply,74.5,75,,,,,,,,,235,250,260,260,260,D,1,Portugal
Chris Graham,M,,M_J_R_WPC,Raw,103.1,110,,,,,,,,,-260,260,300,300,300,D,1,England
Renato Santos,M,,M_J_R_WPC,Raw,88.3,90,,,,,,,,,210,230,-240,230,230,D,1,Portugal
Yuriy Ustinov,M,,M_M1_M_WPC,Multi-ply,97.8,100,,,,,,,,,220,240,250,250,250,D,2,Russia
Neil Stewart,M,,M_M1_M_WPC,Multi-ply,99.3,100,,,,,,,,,245,257.5,265,265,265,D,1,England
Petri Salonen,M,,M_M1_R_WPC,Raw,113.6,125,,,,,,,,,240,250,260,260,260,D,1,Finland
Scott Chafer,M,,M_M1_S_WPC,Single-ply,101.3,110,,,,,,,,,225,240,250,250,250,D,1,England
Tony Chard,M,,M_M2_M_WPC,Multi-ply,120.8,125,,,,,,,,,290,310,-322.5,310,310,D,1,France
Mike Towers,M,,M_M2_R_WPC,Raw,101.4,110,,,,,,,,,240,260,272.5,272.5,272.5,D,1,England
Tony Chard,M,,M_M2_R_WPC,Raw,120.1,125,,,,,,,,,235,265,-282.5,265,265,D,1,France
Aleksandr Romanichev,M,,M_M3_M_WPC,Multi-ply,55.6,56,,,,,,,,,205,215,225,225,225,D,1,Israel
Göran Rosén,M,,M_M3_R_WPC,Raw,108.8,110,,,,,,,,,-250,250,-262.5,250,250,D,1,Sweden
Aleksandr Romanichev,M,,M_M3_R_WPC,Raw,58.9,60,,,,,,,,,175,185,195.5,195.5,195.5,D,1,Israel
Geogei Mauavski,M,,M_M3_S_WPC,Single-ply,126.4,140,,,,,,,,,275,300,-315,300,300,D,1,Bulgaria
Aleksandr Romanichev,M,,M_M3_S_WPC,Single-ply,55.6,56,,,,,,,,,185,202.5,210,210,210,D,1,Israel
Didier Theux,M,,M_M4_M_WPC,Multi-ply,82.1,82.5,,,,,,,,,200,230,,230,230,D,1,France
Rik Davison,M,,M_M4_R_WPC,Raw,96.2,100,,,,,,,,,265,-273,273,273,273,D,1,England
Joaquim Morais,M,,M_M4_R_WPC,Raw,112.2,125,,,,,,,,,220,-240,240,240,240,D,2,Portugal
Anatolu Egrafou,M,,M_M4_R_WPC,Raw,114,125,,,,,,,,,240,250,260,260,260,D,1,
Anatolu Egrafou,M,,M_M4_R_WPC,Raw,114.3,125,,,,,,,,,-260,,,,,D,DQ,Russia
Nigel Orme,M,,M_M4_R_WPC,Raw,75.1,82.5,,,,,,,,,150,155,165,165,165,D,2,England
Didier Theux,M,,M_M4_R_WPC,Raw,82.4,82.5,,,,,,,,,210,,,210,210,D,1,France
Rich Fricker,M,,M_M4_S_WPC,Single-ply,146.6,140+,,,,,,,,,220,265,,265,265,D,1,England
Rui Faria,M,,M_M5_R_WPC,Raw,83.8,90,,,,,,,,,160,170,-180,170,170,D,1,Portugal
Budgie Mullan,M,,M_M7_R_WPC,Raw,67.1,67.5,,,,,,,,,100,-150,,100,100,D,1,Scotland
Rubin Grigari,M,,M_M9_S_WPC,Single-ply,73.3,75,,,,,,,,,160,-165,,160,160,D,1,Israel
Neil Stewart,M,,M_O_M_WPC,Multi-ply,99.3,100,,,,,,,,,245,257.5,265,265,265,D,1,England
Paulo Santos #1,M,,M_O_M_WPC,Multi-ply,101.2,110,,,,,,,,,320,330,-340,330,330,D,1,Portugal
Aleksandr Romanichev,M,,M_O_M_WPC,Multi-ply,55.6,56,,,,,,,,,205,215,225,225,225,D,1,Israel
Andre Rei,M,,M_O_M_WPC,Multi-ply,74.5,75,,,,,,,,,235,250,260,260,260,D,1,Portugal
Jonathan Burth,M,,M_O_M_WPC,Multi-ply,89.5,90,,,,,,,,,280,300,-312.5,300,300,D,1,Germany
Owen Hodgson,M,,M_O_R_WPC,Raw,97.5,100,,,,,,,,,-225,235,-250,235,235,D,6,England
Ayehab Sattar,M,,M_O_R_WPC,Raw,95.6,100,,,,,,,,,-230,-230,240,240,240,D,5,England
Marcin Kuklis,M,,M_O_R_WPC,Raw,99.2,100,,,,,,,,,260,-270,-270,260,260,D,4,Poland
Aaron Fillery,M,,M_O_R_WPC,Raw,96.8,100,,,,,,,,,260,265,270,270,270,D,3,England
Steve Thresher,M,,M_O_R_WPC,Raw,98,100,,,,,,,,,275,287.5,-300,287.5,287.5,D,2,England
Ricarddo Monteiro,M,,M_O_R_WPC,Raw,99.6,100,,,,,,,,,275,290,-300,290,290,D,1,Poland
Warren Whitaker,M,,M_O_R_WPC,Raw,107.9,110,,,,,,,,,-225,235,242.5,242.5,242.5,D,2,England
Stoyan Andzeev,M,,M_O_R_WPC,Raw,108.1,110,,,,,,,,,375.5,-400,,375.5,375.5,D,1,Bulgaria
Hristo Muskov,M,,M_O_R_WPC,Raw,120.6,125,,,,,,,,,320,340,-380.5,340,340,D,1,Bulgaria
Greg Dunnings,M,,M_O_R_WPC,Raw,132.9,140,,,,,,,,,280,290,-300,290,290,D,2,England
Darren McCormac,M,,M_O_R_WPC,Raw,131.9,140,,,,,,,,,330,350,-365,350,350,D,1,England
Paul Beckford,M,,M_O_R_WPC,Raw,181.1,140+,,,,,,,,,-220,-220,220,220,220,D,1,England
Jim Mawer,M,,M_O_R_WPC,Raw,58.8,60,,,,,,,,,152.5,-170,-175,152.5,152.5,D,3,England
Gurnaik Birring,M,,M_O_R_WPC,Raw,58.9,60,,,,,,,,,165,175,185,185,185,D,2,England
Aleksandr Romanichev,M,,M_O_R_WPC,Raw,58.9,60,,,,,,,,,175,185,195.5,195.5,195.5,D,1,Israel
Pedro Rocha,M,,M_O_R_WPC,Raw,81.5,82.5,,,,,,,,,200,215,-220,215,215,D,3,Portugal
Niall O'Keefe,M,,M_O_R_WPC,Raw,82.1,82.5,,,,,,,,,230,240,250,250,250,D,2,Ireland
Hristo Proynov,M,,M_O_R_WPC,Raw,81.4,82.5,,,,,,,,,250,270,280,280,280,D,1,Bulgaria
Anthony Zawalij,M,,M_O_R_WPC,Raw,76.1,82.5,,,,,,,,,-205,,,,,D,DQ,England
Rubin Oliveira,M,,M_O_R_WPC,Raw,87.4,90,,,,,,,,,240,-255,-255,240,240,D,1,Portugal
Aleksandr Romanichev,M,,M_O_S_WPC,Single-ply,55.6,56,,,,,,,,,185,202.5,210,210,210,D,1,Israel
Leon De Roeck,M,,M_T1_R_WPC,Raw,110.7,125,,,,,,,,,240,256,272.5,272.5,272.5,D,1,Portugal
Dan Slater,M,,M_T2_R_WPC,Raw,88,90,,,,,,,,,225,-246,246,246,246,D,1,England
Shane Ryan,M,,M_J_C_WPC,Wraps,98,100,170,185,195,195,105,115,-120,115,240,-255,-257.5,240,550,SBD,4,Ireland
Renato Santos,M,,M_J_C_WPC,Wraps,91.2,100,170,185,200,200,125,132.5,-137.5,132.5,215,225,232.5,232.5,565,SBD,3,Portugal
Mike Jones #1,M,,M_J_C_WPC,Wraps,96.8,100,240,250,255,255,165,175,180,180,250,260,272.5,272.5,707.5,SBD,2,England
Lewis Board,M,,M_J_C_WPC,Wraps,99.8,100,250,270,285,285,140,150,160,160,280,-300,-300,280,725,SBD,1,England
Joe Sexton,M,,M_J_C_WPC,Wraps,103.3,110,160,175,185,185,105,115,125,125,235,250,-260,250,560,SBD,2,Ireland
Nico Viduka,M,,M_J_C_WPC,Wraps,108.1,110,265,285,300,300,185,192.5,-195,192.5,275,287.5,-297.5,287.5,780,SBD,1,Germany
Lewis King,M,,M_J_C_WPC,Wraps,118.5,125,220,240,-260,240,120,130,140,140,215,225,-232.5,225,605,SBD,2,England
Kurt McEvansoneya,M,,M_J_C_WPC,Wraps,121.1,125,260,280,-292.5,280,175,190,,190,275,300,,300,770,SBD,1,England
Romauld Masse,M,,M_J_C_WPC,Wraps,134.8,140,280,310,322.5,322.5,220,232.5,-240,232.5,-250,250,-275,250,805,SBD,1,France
Patrick Hayes,M,,M_J_C_WPC,Wraps,73,75,-160,-160,160,160,80,90,105,105,190,200,-210,200,465,SBD,2,Ireland
Simon Williams,M,,M_J_C_WPC,Wraps,73.5,75,270,-280,-280,270,162.5,167.5,-172.5,167.5,255,-265,-265,255,692.5,SBD,1,England
Sharhid Jabar,M,,M_J_C_WPC,Wraps,81.4,82.5,-170,-170,170,170,90,97.5,-102.5,97.5,-200,-200,220,220,487.5,SBD,1,England
Neil Walsh,M,,M_J_C_WPC,Wraps,84.5,90,185,190,-195,190,110,115,120,120,210,215,225,225,535,SBD,1,Ireland
Andre Rei,M,,M_J_M_WPC,Multi-ply,74.4,75,260,-280,290,290,170,185,-200,185,230,245,260,260,735,SBD,1,Portugal
James Parker,M,,M_J_R_WPC,Raw,96,100,180,-190,-190,180,-130,137.5,-145,137.5,212.5,230,-235,230,547.5,SBD,5,England
Dan Brunt-Murphy,M,,M_J_R_WPC,Raw,98.4,100,205,215,220,220,172.5,180,182.5,182.5,230,240,-245,240,642.5,SBD,4,England
Róbert Majoros,M,,M_J_R_WPC,Raw,96.2,100,210,220,230,230,172.5,182.5,190,190,252.5,-270,270,270,690,SBD,3,Hungary
Dan Stewart,M,,M_J_R_WPC,Raw,99.6,100,260,275,285,285,170,180,185,185,-247.5,247.5,272.5,272.5,742.5,SBD,2,England
Kristaps Tomčiks,M,,M_J_R_WPC,Raw,99.2,100,275,290,-300,290,200,212.5,-220,212.5,275,-285,,275,777.5,SBD,1,England
Tom Sheppard,M,,M_J_R_WPC,Raw,107.6,110,210,230,-250,230,150,175,-180,175,240,275,-305,275,680,SBD,1,England
Frankie Kemp,M,,M_J_R_WPC,Raw,136.3,140,215,230,240,240,167.5,177.5,-185,177.5,240,250,-255,250,667.5,SBD,1,England
Blaze Hughes,M,,M_J_R_WPC,Raw,66.6,67.5,135,150,-160,150,100,110,-117.5,110,200,210,,210,470,SBD,3,England
Mauro Franklim,M,,M_J_R_WPC,Raw,64.7,67.5,160,175,-182.5,175,95,102.5,-110,102.5,205,220,-236,220,497.5,SBD,2,Portugal
Elliot Stone,M,,M_J_R_WPC,Raw,64.7,67.5,170,177.5,182.5,182.5,112.5,120,-125,120,197.5,205,-210,205,507.5,SBD,1,England
Andrew Gregory,M,,M_J_R_WPC,Raw,,75,127.5,137.5,145,145,90,97.5,105,105,180,190,200,200,450,SBD,3,England
Ross McHale,M,,M_J_R_WPC,Raw,74,75,130,140,-150,140,110,115,-122.5,115,200,210,-217.5,210,465,SBD,2,England
Aled Hopkins,M,,M_J_R_WPC,Raw,73.7,75,-180,-180,180,180,100,110,-125,110,-215,225,235,235,525,SBD,1,England
Sebastian Moran,M,,M_J_R_WPC,Raw,80.1,82.5,170,177.5,185,185,117.5,125,130,130,200,220,227.5,227.5,542.5,SBD,2,England
Josh Ingram,M,,M_J_R_WPC,Raw,79.7,82.5,170,190,200,200,100,125,-135,125,210,225,235,235,560,SBD,1,England
Karl Nash,M,,M_J_R_WPC,Raw,86.3,90,140,150,-160,150,100,110,-120,110,200,-215,-220,200,460,SBD,2,England
William Hinton,M,,M_J_R_WPC,Raw,88.5,90,200,210,-220,210,135,145,152.5,152.5,235,250,-260,250,612.5,SBD,1,England
Andrew Murphy #1,M,,M_J_S_WPC,Single-ply,95.7,100,-250,250,275,275,150,160,167.5,167.5,230,250,-257.5,250,692.5,SBD,1,England
Shane Brodie,M,,M_M1_C_WPC,Wraps,95.8,100,245,260,270,270,140,150,-155,150,240,250,-255,250,670,SBD,1,Ireland
Ian Phelan,M,,M_M1_C_WPC,Wraps,102.3,110,180,200,-220,200,140,150,160,160,250,270,-280,270,630,SBD,1,Ireland
Oliver Dorsch,M,,M_M1_C_WPC,Wraps,133.5,140,260,280,-300,280,160,175,-182.5,175,100,,,100,555,SBD,1,Germany
James Chapman #3,M,,M_M1_C_WPC,Wraps,82,82.5,235,245,252.5,252.5,160,-167.5,167.5,167.5,210,215,220,220,640,SBD,1,England
Neil Stewart,M,,M_M1_M_WPC,Multi-ply,95.5,100,-240,240,-277.5,240,-150,150,162.5,162.5,,,,,,SBD,DQ,England
András Csiszár,M,,M_M1_M_WPC,Multi-ply,82.2,82.5,260,280,300,300,160,180,-200,180,260,280,-290,280,760,SBD,1,Hungary
Shane Brodie,M,,M_M1_M_WPC,Multi-ply,88.5,90,310,325,-340,325,-210,210,-220,210,250,-260,-260,250,785,SBD,1,Ireland
Darren Hammond,M,,M_M1_R_WPC,Raw,108.5,110,220,235,-250,235,140,147.5,-152.5,147.5,290,310,-320,310,692.5,SBD,1,New Zealand
Andrew Rutland,M,,M_M1_R_WPC,Raw,113.2,125,190,207.5,215,215,150,155,-160,155,230,245,252.5,252.5,622.5,SBD,1,England
Hervé Gainche,M,,M_M1_S_WPC,Single-ply,124.9,140,-260,270,,270,195,-205,205,205,220,230,,230,705,SBD,1,France
Shane Brodie,M,,M_M1_S_WPC,Single-ply,,90,285,300,-320,300,180,190,-200,190,240,250,260,260,750,SBD,1,Ireland
Jan Hitchcock,M,,M_M2_C_WPC,Wraps,98.8,100,150,-170,170,170,140,155,-170,155,170,190,-210,190,515,SBD,3,England
Martin White,M,,M_M2_C_WPC,Wraps,97,100,220,237.5,242.5,242.5,145,150,-157.5,150,240,260,-272.5,260,652.5,SBD,2,England
Rade Dave,M,,M_M2_C_WPC,Wraps,91.4,100,240,250,260,260,150,155,160,160,270,290,302.5,302.5,722.5,SBD,1,Switzerland
Urs Auf De Maur,M,,M_M2_C_WPC,Wraps,103.5,110,260,-275,275,275,165,172.5,177.5,177.5,285,302.5,-310,302.5,755,SBD,1,Switzerland
Paul Newman,M,,M_M2_C_WPC,Wraps,130.9,140,245,-260,-260,245,210,220,-225,220,265,-280,285,285,750,SBD,1,England
Mark Bentley,M,,M_M2_C_WPC,Wraps,88,90,160,180,207.5,207.5,100,105,-115,105,220,240,-250,240,552.5,SBD,1,England
John Devlin,M,,M_M2_R_WPC,Raw,97,100,185,210,212.5,212.5,125,135,142.5,142.5,210,240,250,250,605,SBD,1,England
Steve Middleton-Lowes,M,,M_M2_R_WPC,Raw,105.4,110,235,255,270,270,160,175,-185,175,245,265,280,280,725,SBD,1,England
Alan Motyer-Lowndes,M,,M_M2_R_WPC,Raw,81,82.5,120,135,145,145,80,-90,90,90,160,170,-180,170,405,SBD,2,England
Steven Short,M,,M_M2_R_WPC,Raw,77.9,82.5,192.5,205,210,210,130,140,-142.5,140,220,240,250,250,600,SBD,1,England
Bob Fielding,M,,M_M2_R_WPC,Raw,87.9,90,170,177.5,185,185,140,147.5,-152.5,147.5,180,190,-200,190,522.5,SBD,2,England
Leslie Attewell,M,,M_M2_R_WPC,Raw,85.5,90,180,200,215,215,140,145,150,150,260,-270,275,275,640,SBD,1,England
Tony Chard,M,,M_M2_S_WPC,Single-ply,122.2,125,250,270,280,280,195,-205,205,205,250,280,-315,280,765,SBD,1,France
Paul Murphy,M,,M_M2_S_WPC,Single-ply,87.8,90,270,-290,,270,150,-155,-155,150,270,-287.5,287.5,287.5,707.5,SBD,1,England
Mark Taylor,M,,M_M3_C_WPC,Wraps,107.3,110,-180,180,210,210,150,160,-165,160,250,260,270,270,640,SBD,1,England
Paul Weller,M,,M_M3_C_WPC,Wraps,115.6,125,-180,180,205,205,150,155,-160,155,260,280,-290,280,640,SBD,1,England
Tom Griffin,M,,M_M3_M_WPC,Multi-ply,99,100,325,337.5,350,350,-227.5,232.5,245,245,260,270,280,280,875,SBD,1,England
Adrian Phillips,M,,M_M3_S_WPC,Single-ply,87.8,90,200,212.5,-220,212.5,-130,130,-140,130,222.5,242.5,-250,242.5,585,SBD,1,England
John Carney,M,,M_M4_C_WPC,Wraps,94.5,100,150,170,-180,170,120,-130,-130,120,190,-210,,190,480,SBD,1,England
Bosco Reid,M,,M_M4_C_WPC,Wraps,86.6,90,120,-135,-135,120,85,90,95,95,130,142.5,152.5,152.5,367.5,SBD,1,Ireland
Joaquim Morais,M,,M_M4_R_WPC,Raw,109.7,110,180,200,211,211,155,165.5,-170,165.5,210,236,245,245,621.5,SBD,1,Portugal
Didier Theux,M,,M_M4_R_WPC,Raw,82,82.5,165,175,,175,120,135,,135,190,222.5,,222.5,532.5,SBD,1,France
Richard Kemp,M,,M_M4_R_WPC,Raw,88.6,90,-140,140,-162.5,140,80,-92.5,-92.5,80,185,202.5,-210,202.5,422.5,SBD,1,England
Rich Fricker,M,,M_M4_S_WPC,Single-ply,144.7,140+,140,210,250,250,140,150,162.5,162.5,150,220,260,260,672.5,SBD,1,England
William John Ashton,M,,M_M5_R_WPC,Raw,80.7,82.5,100,115,122.5,122.5,80,90,-95,90,160,180,-200,180,392.5,SBD,2,England
Rui Faria,M,,M_M5_R_WPC,Raw,82.4,82.5,145,155,170,170,90,100,-110,100,160,170,-180,170,440,SBD,1,Portugal
Ray Hunter,M,,M_M6_R_WPC,Raw,98.1,100,80,-90,-92.5,80,55,60,65,65,135,145,155,155,300,SBD,1,England
Budgie Mullan,M,,M_M7_R_WPC,Raw,66.8,67.5,80,90,100,100,65,72.5,,72.5,90,145,-152.5,145,317.5,SBD,1,England
Rubin Grigory,M,,M_M9_C_WPC,Wraps,74.3,75,110,117.5,122.5,122.5,85,90,-95,90,145,152.5,157.5,157.5,370,SBD,1,Israel
Rubin Grigari,M,,M_M9_S_WPC,Single-ply,73.7,75,120,127.5,132.5,132.5,-105,105,-110,105,157.5,162.5,167.5,167.5,405,SBD,1,Israel
Joseph Rogers,M,,M_O_C_WPC,Wraps,97,100,190,200,220,220,140,150,-160,150,230,250,-260,250,620,SBD,6,England
James Moore,M,,M_O_C_WPC,Wraps,99.2,100,220,237.5,242.5,242.5,127.5,137.5,140,140,237.5,-255,-255,237.5,620,SBD,7,England
Aaron Fillery,M,,M_O_C_WPC,Wraps,96.5,100,215,220,222.5,222.5,155,160,-162.5,160,255,260,265,265,647.5,SBD,5,England
Gabriele Calista,M,,M_O_C_WPC,Wraps,93.7,100,250,-270,-270,250,135,142.5,147.5,147.5,260,280,-295,280,677.5,SBD,4,Italy
Matt Morsia,M,,M_O_C_WPC,Wraps,98.7,100,235,-255,255,255,155,165,-170,165,270,-290,-290,270,690,SBD,3,England
Ricarddo Monteiro,M,,M_O_C_WPC,Wraps,99.7,100,250,262.5,-270,262.5,-150,150,160,160,270,287.5,-300,287.5,710,SBD,2,Portugal
Martin Brown,M,,M_O_C_WPC,Wraps,98.7,100,305,327.5,342.5,342.5,182.5,195,-205,195,290,-312.5,312.5,312.5,850,SBD,1,England
Timothy Hopwood,M,,M_O_C_WPC,Wraps,108.8,110,200,-230,-255,200,130,140,-155,140,220,250,270,270,610,SBD,5,England
Tony O'Rourke,M,,M_O_C_WPC,Wraps,107.7,110,260,270,287.5,287.5,175,-182.5,-187.5,175,260,280,-285,280,742.5,SBD,4,Ireland
David Aldworth,M,,M_O_C_WPC,Wraps,107.4,110,245,255,-265,255,175,185,190,190,300,-330,,300,745,SBD,3,England
Filipo Ingroso,M,,M_O_C_WPC,Wraps,105.5,110,315,330,-340,330,180,190,195,195,290,305,-325,305,830,SBD,2,Italy
Sam Bollands,M,,M_O_C_WPC,Wraps,107.6,110,295,315,-325,315,-190,-195,200,200,320,335,350,350,865,SBD,1,England
Slawek Kochan,M,,M_O_C_WPC,Wraps,114.2,125,210,230,-240,230,180,190,200,200,270,290,-305,290,720,SBD,5,England
Ben Hauser,M,,M_O_C_WPC,Wraps,119.3,125,-250,250,270,270,155,-160,-160,155,275,300,,300,725,SBD,6,Switzerland
Alex Siljeströmer,M,,M_O_C_WPC,Wraps,116.6,125,-250,250,265,265,155,165,175,175,270,285,295,295,735,SBD,4,Sweden
Brad Scott,M,,M_O_C_WPC,Wraps,123.3,125,265,-272.5,-272.5,265,167.5,177.5,180,180,280,290,-300,290,735,SBD,5,England
Julian McKerrow,M,,M_O_C_WPC,Wraps,121.3,125,-230,230,-250,230,190,-200,-200,190,310,320,-330,320,740,SBD,3,England
William Newton,M,,M_O_C_WPC,Wraps,111.7,125,260,-282.5,-290,260,150,-165,165,165,300,320,-330,320,745,SBD,2,England
Grant McEvansoneya,M,,M_O_C_WPC,Wraps,110.4,125,290,-310,310,310,215,222.5,-230,222.5,260,-275,-277.5,260,792.5,SBD,1,England
Robert McStay,M,,M_O_C_WPC,Wraps,132.5,140,260,-280,-290,260,180,195,-205,195,280,-300,-300,280,735,SBD,2,England
Ryan Hough,M,,M_O_C_WPC,Wraps,137.2,140,275,290,300,300,180,190,-200,190,310,-330,342.5,342.5,832.5,SBD,1,England
Ian Howley,M,,M_O_C_WPC,Wraps,65.6,67.5,-135,145,-155,145,90,100,-105,100,190,205,210,210,455,SBD,1,Ireland
Jay Bello,M,,M_O_C_WPC,Wraps,74.1,75,220,235,-250,235,150,155,-160,155,260,-280,-280,260,650,SBD,1,England
Glen Smith,M,,M_O_C_WPC,Wraps,81.7,82.5,195,-210,-210,195,147.5,-150,-150,147.5,65,,,65,407.5,SBD,4,England
Stanislav Simeoriov,M,,M_O_C_WPC,Wraps,81.8,82.5,215,225,235,235,150,157.5,165,165,240,-250,-250,240,640,SBD,2,Bulgaria
James Chapman #3,M,,M_O_C_WPC,Wraps,82,82.5,235,245,252.5,252.5,160,-167.5,167.5,167.5,210,215,220,220,640,SBD,3,England
Jérémy Babin,M,,M_O_C_WPC,Wraps,82.4,82.5,225,232.5,-237.5,232.5,152.5,157.5,160,160,260,-267.5,270,270,662.5,SBD,1,France
Frazer Marriott,M,,M_O_C_WPC,Wraps,87.5,90,160,180,-200,180,110,125,130,130,200,220,-230,220,530,SBD,4,England
Luke Corcoran,M,,M_O_C_WPC,Wraps,87.9,90,215,-230,-230,215,115,-122.5,-122.5,115,230,-250,-250,230,560,SBD,3,England
Travis Hughes,M,,M_O_C_WPC,Wraps,87.9,90,215,-225,-225,215,140,152.5,157.5,157.5,242.5,252.5,-270,252.5,625,SBD,1,England
Richard Martin,M,,M_O_C_WPC,Wraps,89.7,90,-220,-220,220,220,135,145,155,155,240,250,-260,250,625,SBD,2,England
Patrick O'Shea,M,,M_O_M_WPC,Multi-ply,96.5,100,250,265,,265,170,180,-190,180,270,-285,-285,270,715,SBD,4,Ireland
Mikko Matkainen,M,,M_O_M_WPC,Multi-ply,98.9,100,290,310,-330,310,190,200,-207,200,235,255,-257.5,255,765,SBD,3,
James Taylor,M,,M_O_M_WPC,Multi-ply,99.6,100,300,320,325,325,210,-230,230,230,245,262.5,275,275,830,SBD,2,England
Paulo Santos #1,M,,M_O_M_WPC,Multi-ply,97.8,100,340,370,-380,370,230,240,250,250,310,335,-345,335,955,SBD,1,Portugal
Bruno Alves,M,,M_O_M_WPC,Multi-ply,107.5,110,335,-352.5,-352.5,335,260,-275,-275,260,250,275,300,300,895,SBD,1,Portugal
Steve Macneil,M,,M_O_M_WPC,Multi-ply,130.9,140,380,400,,400,-270,270,290,290,280,-300,-300,280,970,SBD,1,England
Dan Evans,M,,M_O_M_WPC,Multi-ply,136.3,140,370,390,-410,390,-250,-250,-250,,,,,,,SBD,DQ,England
Andre Rei,M,,M_O_M_WPC,Multi-ply,74.4,75,260,-280,290,290,170,185,-200,185,230,245,260,260,735,SBD,1,Portugal
Paulo Villas-Boas,M,,M_O_M_WPC,Multi-ply,79.5,82.5,280,-300,-310,280,140,160,,160,250,-270,-290,250,690,SBD,1,Portugal
Andre Silva,M,,M_O_M_WPC,Multi-ply,84.5,90,-280,280,305,305,160,-170,170,170,260,280,290,290,765,SBD,3,Portugal
Shane Brodie,M,,M_O_M_WPC,Multi-ply,88.5,90,310,325,-340,325,-210,210,-220,210,250,-260,-260,250,785,SBD,2,Ireland
Ramil Ahmadov,M,,M_O_M_WPC,Multi-ply,88.7,90,-320,320,-345,320,215,222.5,230,230,280,-300,300,300,850,SBD,1,Azerbaijan
Russell Orme,M,,M_O_R_WPC,Raw,95.6,100,165,180,-200,180,130,140,-150,140,195,222.5,235,235,555,SBD,6,England
James Edwards #1,M,,M_O_R_WPC,Raw,98.2,100,210,227.5,237.5,237.5,115,122.5,130,130,-215,232.5,-245,232.5,600,SBD,5,England
Miles Hutchinson,M,,M_O_R_WPC,Raw,98.6,100,210,217.5,222.5,222.5,160,167.5,-170,167.5,265,275,-280,275,665,SBD,4,England
Ville Suominen,M,,M_O_R_WPC,Raw,99.6,100,240,255,260,260,165,-172.5,-172.5,165,285,302.5,-310,302.5,727.5,SBD,3,Finland
Brad Cutler,M,,M_O_R_WPC,Raw,97.3,100,240,255,-262.5,255,145,-150,150,150,300,327.5,-337.5,327.5,732.5,SBD,2,England
Andrzej Roszkowski,M,,M_O_R_WPC,Raw,99.2,100,272.5,-292.5,-292.5,272.5,202.5,212.5,-217.5,212.5,275,295,-305,295,780,SBD,1,England
Michael Walton,M,,M_O_R_WPC,Raw,98.2,100,170,-190,200,200,132.5,-137.5,-137.5,132.5,-275,-285,-285,,,SBD,DQ,England
James Warren,M,,M_O_R_WPC,Raw,105.4,110,200,220,,220,155,-167.5,,155,245,-265,265,265,640,SBD,3,England
Darren Hammond,M,,M_O_R_WPC,Raw,108.5,110,220,235,-250,235,140,147.5,-152.5,147.5,290,310,-320,310,692.5,SBD,2,New Zealand
Steve Middleton-Lowes,M,,M_O_R_WPC,Raw,105.4,110,235,255,270,270,160,175,-185,175,245,265,280,280,725,SBD,1,England
Paul Parker,M,,M_O_R_WPC,Raw,120.2,125,200,215,230,230,150,-157.5,-160,150,260,270,-280,270,650,SBD,4,England
Andrew Pearson,M,,M_O_R_WPC,Raw,111.7,125,240,250,,250,160,180,-185,180,270,285,,285,715,SBD,3,England
James Gilbert,M,,M_O_R_WPC,Raw,122.3,125,220,240,255,255,185,195,-205,195,270,290,-300,290,740,SBD,2,England
Martynas Urmonas,M,,M_O_R_WPC,Raw,119.9,125,250,267.5,-272.5,267.5,195,-210,210,210,260,280,-290,280,757.5,SBD,1,England
Martin Lewis,M,,M_O_R_WPC,Raw,157.1,140+,235,-240,-242.5,235,155,160,170,170,260,-270,-275,260,665,SBD,2,England
Kamil Kamiński,M,,M_O_R_WPC,Raw,142.8,140+,310,330,340,340,220,235,-240,235,310,325,-340,325,900,SBD,1,England
Dean Reed,M,,M_O_R_WPC,Raw,65.6,67.5,145,-155,-155,145,110,115,-120,115,205,215,222.5,222.5,482.5,SBD,3,England
Amin Toulabi Nasab,M,,M_O_R_WPC,Raw,66.9,67.5,145,155,-160,155,135,-140,-140,135,200,-210,-210,200,490,SBD,2,England
Aspeck Dzhaparov,M,,M_O_R_WPC,Raw,66.6,67.5,187.5,-200,-200,187.5,130,140,-145,140,187.5,200,210,210,537.5,SBD,1,Ireland
Philip Evans,M,,M_O_R_WPC,Raw,74.3,75,-170,180,185,185,105,-115,-117.5,105,217.5,230,-235,230,520,SBD,6,England
Dale Humphreys,M,,M_O_R_WPC,Raw,72.7,75,-175,175,187.5,187.5,95,100,107.5,107.5,220,227.5,235,235,530,SBD,5,England
Callum Waters,M,,M_O_R_WPC,Raw,74.2,75,180,-195,-195,180,120,132.5,-140,132.5,210,220,225,225,537.5,SBD,4,England
Scott Govier,M,,M_O_R_WPC,Raw,74.3,75,190,-200,200,200,117.5,125,-130,125,200,210,220,220,545,SBD,3,England
Carl Thompson #2,M,,M_O_R_WPC,Raw,74.9,75,-185,185,195,195,105,117.5,122.5,122.5,210,220,230,230,547.5,SBD,2,England
Mushvig Aliyev,M,,M_O_R_WPC,Raw,74.3,75,215,225,-235,225,140,150,-160,150,210,-235,,210,585,SBD,1,Azerbaijan
Patrick Flynn,M,,M_O_R_WPC,Raw,82.4,82.5,155,-170,-170,155,105,115,-122.5,115,195,-220,-220,195,465,SBD,8,England
Douglas Lisle,M,,M_O_R_WPC,Raw,80.6,82.5,150,,,150,137.5,145,-150,145,215,-232.5,,215,510,SBD,7,England
Aled Lewis,M,,M_O_R_WPC,Raw,82.5,82.5,160,170,180,180,120,127.5,132.5,132.5,205,215,-225,215,527.5,SBD,6,England
Adam Gasson,M,,M_O_R_WPC,Raw,81.3,82.5,180,190,195,195,120,125,-130,125,210,220,227.5,227.5,547.5,SBD,5,England
Dominic Plumb,M,,M_O_R_WPC,Raw,80.3,82.5,175,185,195,195,150,-160,-160,150,205,215,217.5,217.5,562.5,SBD,4,England
John Warburton,M,,M_O_R_WPC,Raw,81.7,82.5,170,185,200,200,110,120,127.5,127.5,210,225,245,245,572.5,SBD,3,England
Steven Varney,M,,M_O_R_WPC,Raw,80.5,82.5,187.5,197.5,205,205,147.5,-155,-155,147.5,235,245,260,260,612.5,SBD,2,England
Hristo Proynov,M,,M_O_R_WPC,Raw,82.4,82.5,-235,235,,235,170,180,-190,180,220,250,265,265,680,SBD,1,Bulgaria
Scott Byrne,M,,M_O_R_WPC,Raw,87.2,90,150,-165,-165,150,110,117.5,-122.5,117.5,200,215,-230,215,482.5,SBD,8,England
Harry Young,M,,M_O_R_WPC,Raw,88.5,90,165,175,185,185,110,122.5,127.5,127.5,240,255,262.5,262.5,575,SBD,7,England
Jacek Toczydlowski,M,,M_O_R_WPC,Raw,89.1,90,180,190,-200,190,140,147.5,150,150,-220,230,240,240,580,SBD,6,England
Alan Wilson,M,,M_O_R_WPC,Raw,89.3,90,190,207.5,220,220,132.5,-137.5,140,140,250,260,265,265,625,SBD,5,England
James Blundell,M,,M_O_R_WPC,Raw,88.3,90,205,220,-230,220,150,160,167.5,167.5,245,260,-272.5,260,647.5,SBD,4,England
Lucian Luca,M,,M_O_R_WPC,Raw,88.4,90,205,215,-222.5,215,150,157.5,162.5,162.5,250,265,275,275,652.5,SBD,3,England
Jamie Winter,M,,M_O_R_WPC,Raw,88.2,90,220,230,-250,230,165,175,-182.5,175,255,260,265,265,670,SBD,2,England
Faraj Jalilov,M,,M_O_R_WPC,Raw,88.5,90,240,245,250,250,-170,170,190,190,280,310,-320,310,750,SBD,1,Azerbaijan
Aron Hosking,M,,M_O_S_WPC,Single-ply,127.4,140,342.5,362.5,-370,362.5,235,242.5,-250,242.5,285,295,-305,295,900,SBD,1,England
Artur Chrzaszcz,M,,M_O_S_WPC,Single-ply,122.7,140,-405,-405,-405,,,,,,,,,,,SBD,DQ,England
Rainer Altmäe,M,,M_O_S_WPC,Single-ply,70.4,75,230,245,-260,245,-190,190,200,200,-240,250,-260,250,695,SBD,1,Ireland
Richie Power,M,,M_O_S_WPC,Single-ply,82.4,82.5,275,-300,-300,275,200,210,-215,210,240,-250,,240,725,SBD,1,Ireland
Carlos Pérez #1,M,,M_O_S_WPC,Single-ply,87.2,90,265,275,285,285,165,172.5,180,180,250,260,265,265,730,SBD,2,Ireland
Shane Brodie,M,,M_O_S_WPC,Single-ply,,90,285,300,-320,300,180,190,-200,190,240,250,260,260,750,SBD,1,Ireland
Jason Lynch Brodie,M,,M_T1_C_WPC,Wraps,86.8,90,140,-150,,140,65,72.5,-75,72.5,145,-152.5,152.5,152.5,365,SBD,1,Ireland
Matthew Csiszar,M,,M_T1_S_WPC,Single-ply,66,67.5,160,170,180,180,90,100,-105,100,180,200,210,210,490,SBD,1,Hungary
Herbert Czeplinski,M,,M_T2_R_WPC,Raw,,110,250,-265,280,280,180,190,200,200,250,265,,265,745,SBD,1,Germany
Lone'er Kavanagh,M,,M_T2_R_WPC,Raw,63.8,67.5,140,-150,-152.5,140,75,82.5,-87.5,82.5,160,170,175,175,397.5,SBD,1,England
Aron Blight,M,,M_T2_R_WPC,Raw,71.6,75,145,-155,-165,145,125,130,140,140,195,-210,-210,195,480,SBD,1,England
Ben Karaosman,M,,M_T3_C_WPC,Wraps,107.3,110,-180,180,-195,180,110,120,-130,120,205,-215,215,215,515,SBD,1,England
Aaron Hayes,M,,M_T3_C_WPC,Wraps,142.2,140+,-260,-270,270,270,135,142.5,145,145,245,260,265,265,680,SBD,1,Ireland
Leoin De Roeck,M,,M_T3_R_WPC,Raw,110.2,125,-205,205,220,220,150,160,170,170,235,255,270,270,660,SBD,2,
Jordan Duvauchalle,M,,M_T3_R_WPC,Raw,121.3,125,260,282.5,300,300,-160,160,172.5,172.5,270,300,320,320,792.5,SBD,1,France
Peter King,M,,M_T3_R_WPC,Raw,72.9,75,-170,-177.5,180,180,100,-107.5,-122.5,100,-175,180,190,190,470,SBD,1,England
Jorden Farrington,M,,M_T3_R_WPC,Raw,90,90,-180,-190,190,190,127.5,135,142.5,142.5,200,217.5,-227.5,217.5,550,SBD,1,England
