Division,WeightClassKg,Place,Name,Team,BodyweightKg,Best3SquatKg,Best3BenchKg,Best3DeadliftKg,TotalKg,Equipment,Event,Sex
Boys,51.71,1,Brooks Guzman,Weslaco East,51.17,181.44,90.72,204.12,476.27,Single-ply,SBD,M
Boys,51.71,2,Eddie Olvera,Los Fresnos,51.62,163.29,92.99,185.97,442.25,Single-ply,SBD,M
Boys,55.79,3,LA Gonzalez,Alice,51.89,183.7,86.18,170.1,439.98,Single-ply,SBD,M
Boys,51.71,4,Alex Berrones,Brownsville Lopez,50.08,149.69,79.38,181.44,410.5,Single-ply,SBD,M
Boys,51.71,5,Anthony Garcia,Weslaco,50.08,151.95,83.91,161.03,396.89,Single-ply,SBD,M
Boys,51.71,6,Brandon Sauceda,PSJA Memorial,50.89,145.15,83.91,165.56,394.63,Single-ply,SBD,M
Boys,51.71,7,Benny Lara,Victoria West,50.89,156.49,72.57,156.49,385.55,Single-ply,SBD,M
Boys,51.71,8,Robert Gonzalez,Laredo Cigarroa,51.07,145.15,83.91,156.49,385.55,Single-ply,SBD,M
Boys,51.71,9,Nicolas Garcia,San Antonio Southside,51.71,151.95,79.38,154.22,385.55,Single-ply,SBD,M
Boys,51.71,10,Hector Elizondo,Sharyland Pioneer,51.07,142.88,79.38,151.95,374.21,Single-ply,SBD,M
Boys,51.71,DQ,Michael Mitchell,San Antonio Southside,51.26,167.83,90.72,,,Single-ply,SBD,M
Boys,59.87,1,Juan Rivera,Los Fresnos,55.88,192.78,113.4,208.65,514.83,Single-ply,SBD,M
Boys,55.79,2,Angel Flores,Weslaco East,53.98,185.97,102.06,197.31,485.34,Single-ply,SBD,M
Boys,55.79,3,Alejandro Flores,Weslaco East,54.88,181.44,108.86,183.7,474,Single-ply,SBD,M
Boys,55.79,4,Joe Castillo,Gregory-Portland,54.98,181.44,95.25,188.24,464.93,Single-ply,SBD,M
Boys,59.87,5,Moc Moo,Port Lavaca Calhoun,55.88,181.44,102.06,174.63,458.13,Single-ply,SBD,M
Boys,55.79,6,Jermaine Mendiola,Somerset,54.43,163.29,92.99,174.63,430.91,Single-ply,SBD,M
Boys,55.79,7,Mauro Vargas,La Joya Juarez-Lincoln,55.07,154.22,102.06,174.63,430.91,Single-ply,SBD,M
Boys,59.87,8,Kaleb Espinoza,Donna,55.88,165.56,86.18,179.17,430.91,Single-ply,SBD,M
Boys,59.87,DQ,Mario Saldivar,Laredo Alexander,55.97,,,,,Single-ply,SBD,M
Boys,55.79,DQ,Vince Hernandez,Pharr Valley View,55.61,,,,,Single-ply,SBD,M
Boys,67.13,1,Jarrett Burford,Port Lavaca Calhoun,59.96,217.72,140.61,219.99,578.33,Single-ply,SBD,M
Boys,59.87,2,Raul Mota,San Benito,59.24,210.92,124.74,208.65,544.31,Single-ply,SBD,M
Boys,67.13,3,Danny Diaz,Brownsville Lopez,60.06,208.65,124.74,199.58,532.97,Single-ply,SBD,M
Boys,59.87,4,Oscar Sanchez,Seguin,59.33,195.04,102.06,206.38,503.49,Single-ply,SBD,M
Boys,59.87,5,Randy Medellin,San Benito,59.78,199.58,104.33,181.44,485.34,Single-ply,SBD,M
Boys,59.87,6,Elijah Gonzales,San Antonio East Central,58.6,174.63,104.33,188.24,467.2,Single-ply,SBD,M
Boys,67.13,DQ,Christopher Alfaro,San Antonio East Central,60.06,,,,,Single-ply,SBD,M
Boys,59.87,DQ,AJ Salas,San Antonio Southside,59.78,190.51,108.86,,,Single-ply,SBD,M
Boys,59.87,DQ,Desmond Castillo,San Antonio Southside,59.87,192.78,,,,Single-ply,SBD,M
Boys,67.13,DQ,Oscar Monjaras,Pharr Valley View,60.06,,,,,Single-ply,SBD,M
Boys,67.13,1,Jonathan Pena,Laredo United South,66.22,238.14,142.88,217.72,598.74,Single-ply,SBD,M
Boys,67.13,2,Rogelio Pulido,Brownsville Lopez,67.04,217.72,106.59,254.01,578.33,Single-ply,SBD,M
Boys,67.13,3,Eric Tong,Brownsville Hanna,65.32,222.26,111.13,219.99,553.38,Single-ply,SBD,M
Boys,67.13,4,Joshua Garcia,Weslaco,66.41,217.72,113.4,213.19,544.31,Single-ply,SBD,M
Boys,67.13,5,Aaron Anguiano,Pharr Valley View,65.68,213.19,113.4,204.12,530.7,Single-ply,SBD,M
Boys,67.13,6,Aaron Martinez,Corpus Christi Calallen,67.13,213.19,120.2,195.04,528.44,Single-ply,SBD,M
Boys,74.84,7,David Guzman,San Antonio Southside,67.22,195.04,122.47,197.31,514.83,Single-ply,SBD,M
Boys,67.13,DQ,Victor Acosta,Pharr Valley View,66.22,,,,,Single-ply,SBD,M
Boys,74.84,DQ,Jesse Rodriguez,PSJA Memorial,67.31,,,,,Single-ply,SBD,M
Boys,67.13,DQ,Jordan Aguilar,Mercedes,64.41,190.51,,,,Single-ply,SBD,M
Boys,74.84,1,Erin Estevanes,Weslaco,73.48,215.46,142.88,247.21,605.55,Single-ply,SBD,M
Boys,74.84,2,Chris Jackson,Weslaco,73.84,235.87,122.47,244.94,603.28,Single-ply,SBD,M
Boys,74.84,3,Eliseo Garzoria,Los Fresnos,74.57,226.8,113.4,258.55,598.74,Single-ply,SBD,M
Boys,74.84,4,Chayce Grevey,Victoria West,74.39,222.26,133.81,240.4,596.47,Single-ply,SBD,M
Boys,74.84,5,Gabriel Cantu,Corpus Christi Calallen,71.76,217.72,117.93,254.01,589.67,Single-ply,SBD,M
Boys,74.84,6,Gilbert Guajardo,Pharr Valley View,73.94,233.6,129.27,219.99,582.87,Single-ply,SBD,M
Boys,74.84,7,Mark Saldana,San Antonio East Central,74.57,204.12,140.61,224.53,569.26,Single-ply,SBD,M
Boys,74.84,8,Brandon Atnipp,Del Rio,72.94,192.78,136.08,226.8,555.65,Single-ply,SBD,M
Boys,74.84,9,Hunter Dollery,Victoria West,73.94,208.65,120.2,222.26,551.11,Single-ply,SBD,M
Boys,89.81,1,Raynard Taylor,Comal Canyon,82.28,272.16,174.63,267.62,714.41,Single-ply,SBD,M
Boys,82.1,2,Fabian Rodriguez,Los Fresnos,80.38,244.94,149.69,251.74,646.37,Single-ply,SBD,M
Boys,82.1,3,Aaron Porras,San Antonio Southside,82.1,267.62,149.69,229.06,646.37,Single-ply,SBD,M
Boys,82.1,4,Rigo Ayala,Edcouch-Elsa,80.1,260.82,149.69,231.33,641.83,Single-ply,SBD,M
Boys,82.1,5,Ram Mendoza,Weslaco East,80.92,240.4,154.22,244.94,639.57,Single-ply,SBD,M
Boys,82.1,6,Isaac Mendoza,San Antonio East Central,81.47,235.87,145.15,233.6,614.62,Single-ply,SBD,M
Boys,82.1,7,Robert Hernandez,La Joya Juarez-Lincoln,79.02,235.87,147.42,229.06,612.35,Single-ply,SBD,M
Boys,82.1,8,Ashton Williams,San Antonio East Central,81.37,247.21,138.35,217.72,603.28,Single-ply,SBD,M
Boys,82.1,9,Robert Garza,Donna,81.28,244.94,138.35,215.46,598.74,Single-ply,SBD,M
Boys,82.1,10,Jesus Reyna,Weslaco,81.37,215.46,129.27,213.19,557.92,Single-ply,SBD,M
Boys,89.81,1,Matthew Dickson,Corpus Christi Tuloso-Midway,89.81,256.28,165.56,258.55,680.39,Single-ply,SBD,M
Boys,89.81,2,Gilbert Trevino,Weslaco,89.54,265.35,165.56,233.6,664.51,Single-ply,SBD,M
Boys,99.79,3,Aaron Zapata,Los Fresnos,89.9,272.16,145.15,244.94,662.24,Single-ply,SBD,M
Boys,89.81,4,Seth Garcia,Edcouch-Elsa,88.72,249.48,142.88,267.62,659.98,Single-ply,SBD,M
Boys,89.81,5,Erick Vazquez,Brownsville Veterans Memorial,89.36,233.6,149.69,251.74,635.03,Single-ply,SBD,M
Boys,89.81,6,Julio Garcia,La Joya Juarez-Lincoln,85.91,235.87,142.88,235.87,614.62,Single-ply,SBD,M
Boys,89.81,7,Juan Aguirre,San Benito,89.36,235.87,133.81,235.87,605.55,Single-ply,SBD,M
Boys,89.81,8,Daniel Yanez,Donna,87.91,244.94,142.88,215.46,603.28,Single-ply,SBD,M
Boys,89.81,9,Fernando Hernandez,La Joya Juarez-Lincoln,88.99,222.26,124.74,222.26,569.26,Single-ply,SBD,M
Boys,89.81,DQ,Dylan Esquivel,Victoria West,88.99,226.8,140.61,,,Single-ply,SBD,M
Boys,109.77,1,Marco Banda,Laredo Nixon,99.97,317.51,185.97,258.55,762.04,Single-ply,SBD,M
Boys,109.77,2,John Rivera,Alice,99.97,285.76,179.17,244.94,709.87,Single-ply,SBD,M
Boys,99.79,3,Jesus Moron,San Antonio Southside,98.16,267.62,149.69,267.62,684.92,Single-ply,SBD,M
Boys,99.79,4,Israel Alfaro,Weslaco East,97.79,260.82,176.9,240.4,678.12,Single-ply,SBD,M
Boys,99.79,5,Frankie Lopez,Corpus Christi Tuloso-Midway,98.25,272.16,167.83,226.8,666.78,Single-ply,SBD,M
Boys,99.79,6,Jerry DeCanini,Weslaco East,98.88,247.21,154.22,238.14,639.57,Single-ply,SBD,M
Boys,99.79,7,Bobby Morris,Victoria East,94.71,242.67,147.42,240.4,630.49,Single-ply,SBD,M
Boys,99.79,DQ,Elijah Sanchez,Edcouch-Elsa,96.98,272.16,181.44,,,Single-ply,SBD,M
Boys,99.79,DQ,Eddie Gomez,Edcouch-Elsa,98.16,260.82,,,,Single-ply,SBD,M
Boys,109.77,1,Caesar Soto,San Antonio East Central,109.04,322.05,190.51,240.4,752.96,Single-ply,SBD,M
Boys,109.77,2,German Lopez,Weslaco East,106.59,290.3,197.31,251.74,739.36,Single-ply,SBD,M
Boys,109.77,3,Eddie Garcia,Port Lavaca Calhoun,106.87,294.84,156.49,260.82,712.14,Single-ply,SBD,M
Boys,109.77,4,Fernando Gonzalez,La Joya Palmview,105.05,283.5,149.69,226.8,659.98,Single-ply,SBD,M
Boys,109.77,5,Juan Martinez,Donna North,106.23,265.35,145.15,244.94,655.44,Single-ply,SBD,M
Boys,109.77,6,Jesus Zapata,Roma,108.59,265.35,154.22,231.33,650.91,Single-ply,SBD,M
Boys,109.77,7,Mark Cisneros,Donna,105.14,249.48,142.88,217.72,610.08,Single-ply,SBD,M
Boys,109.77,DQ,Andres Arizu,Alice,107.05,,,,,Single-ply,SBD,M
Boys,109.77,DQ,Corey Opiela,Floresville,106.23,249.48,142.88,,,Single-ply,SBD,M
Boys,109.77,DQ,Rafael Herrejon,Comal Canyon,108.95,276.69,154.22,,,Single-ply,SBD,M
Boys,124.74,1,Gabriel Rodriguez,Edcouch-Elsa,123.74,376.48,206.38,272.16,855.02,Single-ply,SBD,M
Boys,124.74,2,Carlos Sanchez,Laredo United South,122.83,294.84,181.44,276.69,752.96,Single-ply,SBD,M
Boys,124.74,3,Julio Contreras,Edcouch-Elsa,122.38,317.51,154.22,274.42,746.16,Single-ply,SBD,M
Boys,124.74,4,Jacob Rodriguez,Corpus Christi Tuloso-Midway,121.29,317.51,151.95,256.28,725.75,Single-ply,SBD,M
Boys,124.74,5,Oscar Flores,Comal Canyon,118.12,290.3,170.1,260.82,721.21,Single-ply,SBD,M
Boys,124.74,6,Isaac Salinas,Gregory-Portland,118.21,294.84,172.37,242.67,709.87,Single-ply,SBD,M
Boys,124.74,7,Jesse Guzman,Brownsville Veterans Memorial,118.21,283.5,170.1,254.01,707.6,Single-ply,SBD,M
Boys,124.74,8,Andrew Salazar,Pharr Valley View,117.66,274.42,204.12,226.8,705.34,Single-ply,SBD,M
Boys,124.74,9,Jonathan Banda,Weslaco East,117.93,276.69,161.03,258.55,696.26,Single-ply,SBD,M
Boys,124.74,DQ,James Woods,Somerset,114.03,283.5,136.08,,,Single-ply,SBD,M
Boys,124.74+,1,Rudy Flores,Laredo United South,149.59,396.89,238.14,299.37,934.4,Single-ply,SBD,M
Boys,124.74+,2,Sergio Moralez,Weslaco East,163.29,328.85,181.44,306.17,816.47,Single-ply,SBD,M
Boys,124.74+,3,Jimmy DeLeon,Brownsville Veterans Memorial,160.3,340.19,165.56,249.48,755.23,Single-ply,SBD,M
Boys,124.74+,4,Zeke Garza,La Joya,147.69,310.71,176.9,265.35,752.96,Single-ply,SBD,M
Boys,124.74+,5,Drew Kirkpatrick,Uvalde,141.52,281.23,201.85,247.21,730.28,Single-ply,SBD,M
Boys,124.74+,6,Ruben Hinojosa,Roma,146.42,294.84,179.17,251.74,725.75,Single-ply,SBD,M
Boys,124.74+,7,Manuel Mata,PSJA North,127.55,301.64,161.03,222.26,684.92,Single-ply,SBD,M
Boys,124.74+,8,Bruce Castro,Los Fresnos,140.7,267.62,161.03,251.74,680.39,Single-ply,SBD,M
Boys,124.74+,9,Eli Olivo,Donna North,126.82,272.16,172.37,231.33,675.85,Single-ply,SBD,M
Boys,124.74+,DQ,Gage Rivas,Brownsville Veterans Memorial,145.78,,,,,Single-ply,SBD,M
Boys,,NS,Daniel Ramos,Brownsville Lopez,,,,,,Single-ply,SBD,M
