Name,Sex,Equipment,Event,Division,BodyweightKg,WeightClassKg,Squat1Kg,Squat2Kg,Squat3Kg,Best3SquatKg,Bench1Kg,Bench2Kg,Bench3Kg,Best3BenchKg,Deadlift1Kg,Deadlift2Kg,Deadlift3Kg,Best3DeadliftKg,TotalKg,Place
Naruemon Pratanwanich,F,Raw,SBD,F-C-Open,44.25,47,50,55,60,60,35,-37.5,-37.5,35,55,60,70,70,165,1
Georgie Lee,F,Raw,SBD,F-C-Open,51.1,52,85,-92.5,-92.5,85,45,50,-57.5,50,95,-110,110,110,245,1
Abi Graham,F,Raw,SBD,F-C-Open,62.2,63,105,115,-125,115,70,75,77.5,77.5,150,160,170,170,362.5,1
Faye Jordan,F,Single-ply,SBD,F-E-Open,60.4,63,80,-90,90,90,60,65,67.5,67.5,122.5,130,,130,287.5,2
Leanne Clifford,F,Raw,SBD,F-C-Open,60.4,63,60,62.5,65,65,40,42.5,-45,42.5,80,85,90,90,197.5,3
Paula Gentle,F,Raw,SBD,F-C-Open,65.05,72,-70,75,80,80,42.5,-45,45,45,100,112.5,-115,112.5,237.5,1
Monique Skelton,F,Raw,SBD,F-C-Open,83.8,84,110,117.5,-125,117.5,67.5,75,-80,75,-142.5,142.5,-152.5,142.5,335,1
Camille Holland,F,Raw,SBD,F-C-Open,107.85,84+,120,140,-145,140,-70,70,-75,70,130,140,150,150,360,1
Sarah Marsden,F,Raw,SBD,F-C-Open,98.75,84+,110,115,120,120,70,75,77.5,77.5,117.5,125,127.5,127.5,325,2
Dave Brown #2,M,Raw,SBD,M-C-Open,58.05,59,80,85,-87.25,85,70,75,-77.5,75,115,125,-132.5,125,285,1
Joseph Fallon,M,Raw,SBD,M-C-Open,71.8,74,130,140,150,150,80,90,-95,90,170,180,190,190,430,1
Tom Winspear,M,Raw,SBD,M-C-Open,72.5,74,155,162.5,167.5,167.5,85,92.5,-95,92.5,160,165,167.5,167.5,427.5,2
David Braithwaite,M,Raw,SBD,M-C-Open,71.9,74,130,135,140,140,90,95,-102.5,95,160,170,175,175,410,3
George Burke,M,Raw,SBD,M-C-Open,73.85,74,120,125,130,130,90,-95,95,95,170,-180,-180,170,395,4
Josh Owen,M,Raw,SBD,M-C-Open,69.7,74,-115,115,-125,115,80,-85,-85,80,170,-180,-180,170,365,5
Joseph Hughes,M,Raw,SBD,M-C-Open,79.3,83,180,190,200,200,110,115,-120,115,220,240,-245,240,555,1
Dominic Hemp,M,Raw,SBD,M-C-Open,80.9,83,-160,160,175,175,90,100,-105,100,200,215,225,225,500,2
Kieran Innocent,M,Raw,SBD,M-C-Open,78,83,-160,160,-165,160,85,90,-97.5,90,170,175,-185,175,425,3
Doug D'Gama,M,Single-ply,SBD,M-E-Open,82.5,83,-200,-200,-200,,,,,,,,,,,DQ
Kevin Jane,M,Single-ply,SBD,M-E-Open,92.95,93,245,270,-290,270,155,162.5,167.5,167.5,262.5,275,287.5,287.5,725,1
Joshua Liebelt,M,Raw,SBD,M-C-Open,88.75,93,185,195,205,205,110,117.5,-125,117.5,215,227.5,-237.5,227.5,550,2
Jonathan Faasse,M,Raw,SBD,M-C-Open,91.25,93,180,195,-202.5,195,105,110,-115,110,215,232.5,-235,232.5,537.5,3
Lawrence Rowles,M,Raw,SBD,M-C-Open,86.5,93,175,182.5,187.5,187.5,105,110,112.5,112.5,210,225,235,235,535,4
Mathew Jack,M,Raw,SBD,M-C-Open,90.4,93,165,175,185,185,110,-115,-115,110,200,210,220,220,515,5
Jordan McKenzie,M,Single-ply,SBD,M-E-Open,91.1,93,160,180,-185,180,90,100,-110,100,170,180,190,190,470,6
Ali Wilson,M,Raw,SBD,M-C-Open,85.3,93,100,120,-140,120,90,100,110,110,-160,160,180,180,410,7
Mick Coleman,M,Raw,SBD,M-C-Open,86.45,93,105,112.5,120,120,75,-82.5,82.5,82.5,140,155,170,170,372.5,8
Gary Allen,M,Raw,SBD,M-C-Open,89.4,93,,,,,,,,,,,,,,DQ
Tony Wightman,M,Raw,SBD,M-C-Open,88.55,93,140,145,,145,90,95,-97.5,95,,,,,,DQ
Jake O'Neill,M,Single-ply,SBD,M-E-Open,103.9,105,310,325,332.5,332.5,210,220,-225,220,275,287.5,,287.5,840,1
Jack Cook,M,Single-ply,SBD,M-E-Open,98.55,105,260,275,-285,275,175,182.5,190,190,265,285,-292.5,285,750,2
Stuart Alexander,M,Raw,SBD,M-C-Open,102.5,105,205,220,,220,130,135,140,140,220,-240,240,240,600,3
Danny Willgoss,M,Single-ply,SBD,M-E-Open,96.9,105,-210,210,220,220,140,150,-160,150,210,220,-230,220,590,4
Matt Strong,M,Raw,SBD,M-C-Open,97.45,105,170,180,190,190,130,140,150,150,200,215,227.5,227.5,567.5,5
Jordan Butel,M,Raw,SBD,M-C-Open,102.95,105,190,200,-205,200,140,145,150,150,210,-230,-230,210,560,6
Scott Carson,M,Raw,SBD,M-C-Open,103.45,105,-170,170,-180,170,-90,90,-95,90,190,200,205,205,465,7
Danny Phoenix,M,Raw,SBD,M-C-Open,102.4,105,120,130,140,140,90,95,-97.5,95,170,180,190,190,425,8
Chris Cox,M,Single-ply,SBD,M-E-Open,95.7,105,-220,-220,-220,,-155,155,-160,155,262.5,-270,,262.5,,DQ
Andy Hutchings,M,Raw,SBD,M-C-Open,119.9,120,230,245,-255,245,165,172.5,177.5,177.5,260,272.5,280,280,702.5,1
Ben Leyland,M,Raw,SBD,M-C-Open,107.45,120,200,220,222.5,222.5,127.5,-132.5,132.5,132.5,260,280,,280,635,2
Tom Varon,M,Raw,SBD,M-C-Open,112,120,210,235,-245,235,130,137.5,-140,137.5,250,-270,,250,622.5,3
Sam Harvey,M,Single-ply,SBD,M-E-Open,119.9,120,160,180,200,200,-165,165,-170,165,230,240,250,250,615,4
Sam Smith,M,Raw,SBD,M-C-Open,106.5,120,165,-170,-170,165,135,140,-145,140,205,212.5,-222.5,212.5,517.5,5
Jeremy Greer,M,Raw,SBD,M-C-Open,116.3,120,170,182.5,190,190,110,115,-117.5,115,207.5,-217.5,-217.5,207.5,512.5,6
Sam Moini,M,Raw,SBD,M-C-Open,114.45,120,155,165,167.5,167.5,-87.5,87.5,-90,87.5,200,-205,-205,200,455,7
Ricky Nicholls,M,Raw,SBD,M-C-Open,143,120+,225,235,245,245,155,162.5,172.5,172.5,260,270,282.5,282.5,700,1
James Anderton,M,Raw,SBD,M-C-Open,129.85,120+,185,200,210,210,130,137.5,-140,137.5,230,-250,-260,230,577.5,2
