Division,WeightClassKg,Place,Name,Team,BodyweightKg,Best3SquatKg,Best3BenchKg,Best3DeadliftKg,TotalKg,Equipment,Event,Sex
Boys,51.71,1,Nathan Sylakhom,Fort Worth Boswell,51.71,104.33,45.36,127.01,276.69,Single-ply,SBD,M
Boys,51.71,2,Jacob Densmore,Fort Worth Chisholm Trail,51.3,79.38,52.16,95.25,226.8,Single-ply,SBD,M
Boys,55.79,1,Anthony Phimmasone,Fort Worth Boswell,54.43,127.01,72.57,136.08,335.66,Single-ply,SBD,M
Boys,55.79,2,John Davis,White Settlement Brewer,54.11,113.4,63.5,120.2,297.1,Single-ply,SBD,M
Boys,55.79,3,Nikolas Sieg,Fort Worth Chisholm Trail,55.79,92.99,47.63,108.86,249.48,Single-ply,SBD,M
Boys,59.87,1,Davonte Green,Fort Worth Chisholm Trail,59.87,113.4,83.91,138.35,335.66,Single-ply,SBD,M
Boys,59.87,2,Matt Briggs,Fort Worth Boswell,57.15,120.2,65.77,122.47,308.44,Single-ply,SBD,M
Boys,59.87,3,Julian Castano,Fort Worth Boswell,58.06,113.4,65.77,124.74,303.91,Single-ply,SBD,M
Boys,67.13,1,Garrett Wright,Fort Worth Boswell,66.86,158.76,102.06,181.44,442.25,Single-ply,SBD,M
Boys,67.13,2,Isaac Ehrich,Fort Worth Chisholm Trail,67.13,151.95,97.52,183.7,433.18,Single-ply,SBD,M
Boys,67.13,3,Ndedseh Nchopa,Fort Worth Chisholm Trail,66.81,138.35,102.06,167.83,408.23,Single-ply,SBD,M
Boys,67.13,4,Colt Edwards,Fort Worth Boswell,67.13,149.69,95.25,149.69,394.63,Single-ply,SBD,M
Boys,67.13,5,Roberto Capa,Fort Worth Chisholm Trail,65.68,124.74,88.45,165.56,378.75,Single-ply,SBD,M
Boys,67.13,6,Cj Houston,White Settlement Brewer,64.64,136.08,79.38,142.88,358.34,Single-ply,SBD,M
Boys,67.13,7,Santiago Piedrahata,Fort Worth Chisholm Trail,60.42,129.27,74.84,138.35,342.46,Single-ply,SBD,M
Boys,67.13,8,Jack Fry,Fort Worth Boswell,62.23,124.74,74.84,136.08,335.66,Single-ply,SBD,M
Boys,67.13,9,James Anderson,Fort Worth Boswell,65.68,90.72,54.43,122.47,267.62,Single-ply,SBD,M
Boys,74.84,1,Xavier Lozano,Fort Worth Boswell,73.57,165.56,113.4,181.44,460.4,Single-ply,SBD,M
Boys,74.84,2,JeShaun Patton,White Settlement Brewer,73.8,145.15,90.72,158.76,394.63,Single-ply,SBD,M
Boys,74.84,3,Xavier Clark,Fort Worth Chisholm Trail,71.85,131.54,83.91,163.29,378.75,Single-ply,SBD,M
Boys,74.84,4,Cody Mayberry,Fort Worth Boswell,74.03,129.27,97.52,149.69,376.48,Single-ply,SBD,M
Boys,74.84,5,Camron Hurst,Fort Worth Boswell,72.39,124.74,79.38,136.08,340.19,Single-ply,SBD,M
Boys,74.84,6,Matthew Davis,Fort Worth Boswell,70.31,124.74,61.23,129.27,315.25,Single-ply,SBD,M
Boys,82.1,1,Justin Davis,White Settlement Brewer,78.65,149.69,113.4,185.97,449.06,Single-ply,SBD,M
Boys,82.1,2,Tavish McCain,White Settlement Brewer,75.3,147.42,106.59,165.56,419.57,Single-ply,SBD,M
Boys,82.1,3,Elijah Gibbons,Fort Worth Chisholm Trail,80.51,142.88,90.72,170.1,403.7,Single-ply,SBD,M
Boys,82.1,4,Andrew Monreal,Fort Worth Chisholm Trail,76.48,136.08,83.91,161.03,381.02,Single-ply,SBD,M
Boys,82.1,5,Josh Martinez,Fort Worth Boswell,80.65,142.88,90.72,142.88,376.48,Single-ply,SBD,M
Boys,82.1,6,Christian McClain,Fort Worth Chisholm Trail,81.42,124.74,92.99,151.95,369.68,Single-ply,SBD,M
Boys,82.1,7,Luke Moniak,Fort Worth Boswell,76.75,127.01,72.57,149.69,349.27,Single-ply,SBD,M
Boys,89.81,1,Alex Bennett,Fort Worth Boswell,89.63,179.17,115.67,188.24,483.08,Single-ply,SBD,M
Boys,89.81,2,Jovone Melendez,Fort Worth Boswell,88.09,167.83,104.33,158.76,430.91,Single-ply,SBD,M
Boys,89.81,3,Nick Christie,Fort Worth Chisholm Trail,88.41,136.08,79.38,170.1,385.55,Single-ply,SBD,M
Boys,99.79,1,Seth Thompson,White Settlement Brewer,96.71,188.24,120.2,201.85,510.29,Single-ply,SBD,M
Boys,99.79,2,Will Humphrey,Fort Worth Boswell,98.97,201.85,117.93,185.97,505.76,Single-ply,SBD,M
Boys,99.79,3,Terrance Wair,Fort Worth Boswell,94.89,181.44,117.93,204.12,503.49,Single-ply,SBD,M
Boys,99.79,4,Colton Ramirez,Fort Worth Chisholm Trail,92.12,151.95,83.91,183.7,419.57,Single-ply,SBD,M
Boys,99.79,5,James Webb,Fort Worth Chisholm Trail,95.62,161.03,79.38,174.63,415.04,Single-ply,SBD,M
Boys,99.79,6,Gavin Greenfield,Fort Worth Chisholm Trail,98.75,138.35,74.84,124.74,337.93,Single-ply,SBD,M
Boys,109.77,1,Travis Williams,Fort Worth Chisholm Trail,109.45,226.8,142.88,226.8,596.47,Single-ply,SBD,M
Boys,109.77,2,Cole Chapman,White Settlement Brewer,108.91,188.24,111.13,201.85,501.22,Single-ply,SBD,M
Boys,109.77,3,Michael Pollard,Fort Worth Boswell,107.23,181.44,102.06,195.04,478.54,Single-ply,SBD,M
Boys,109.77,4,Ezra George,Fort Worth Chisholm Trail,100.33,124.74,83.91,174.63,383.29,Single-ply,SBD,M
Boys,109.77,DQ,Eric Walters,Fort Worth Boswell,109.32,158.76,,,,Single-ply,SBD,M
Boys,109.77,DQ,Christian Klumpp,White Settlement Brewer,109.32,156.49,,,,Single-ply,SBD,M
Boys,124.74,1,Max Michaels,Fort Worth Boswell,120.93,217.72,147.42,208.65,573.79,Single-ply,SBD,M
Boys,124.74,2,Keyvon White,White Settlement Brewer,116.57,215.46,115.67,229.06,560.19,Single-ply,SBD,M
Boys,124.74,3,Isaac Vielma,White Settlement Brewer,117.44,197.31,115.67,192.78,505.76,Single-ply,SBD,M
Boys,124.74,4,Mav Roberts,White Settlement Brewer,112.04,165.56,106.59,192.78,464.93,Single-ply,SBD,M
Boys,124.74,5,Demetrius Winkfield,Fort Worth Chisholm Trail,113.22,165.56,106.59,192.78,464.93,Single-ply,SBD,M
Boys,124.74,6,Gilbert Arroyo,Fort Worth Chisholm Trail,119.93,170.1,83.91,176.9,430.91,Single-ply,SBD,M
Boys,124.74,7,Robert Avila,Fort Worth Chisholm Trail,124.51,102.06,65.77,124.74,292.57,Single-ply,SBD,M
Boys,124.74,DQ,Barrett Hammonds,White Settlement Brewer,113.76,,,,,Single-ply,SBD,M
Boys,124.74+,1,Sebastian Saucedo,Fort Worth Chisholm Trail,127.23,151.95,97.52,165.56,415.04,Single-ply,SBD,M
Boys,124.74+,2,James Ybarra,Fort Worth Chisholm Trail,135.17,151.95,102.06,147.42,401.43,Single-ply,SBD,M
Boys,124.74+,DQ,Barry Gorman,Fort Worth Chisholm Trail,129.68,156.49,,156.49,,Single-ply,SBD,M
