Division,WeightClassKg,Place,Name,Team,BodyweightKg,Best3SquatKg,Best3BenchKg,Best3DeadliftKg,TotalKg,Equipment,Event,Sex
Boys,51.71,1,Antonio Ponce,Glen Rose,51.53,136.08,68.04,163.29,367.41,Single-ply,SBD,M
Boys,51.71,2,Bailey Dennis,Alvarado,51.17,104.33,63.5,124.74,292.57,Single-ply,SBD,M
Boys,55.79,3,Nathan Williams,Meridian,51.8,95.25,63.5,120.2,278.96,Single-ply,SBD,M
Boys,51.71,4,Alex Schaefer,Venus,51.71,102.06,54.43,104.33,260.82,Single-ply,SBD,M
Boys,55.79,1,Oscar Perez,Venus,54.7,165.56,95.25,172.37,433.18,Single-ply,SBD,M
Boys,55.79,2,David Carboni,Hillsboro,55.61,147.42,92.99,151.95,392.36,Single-ply,SBD,M
Boys,55.79,3,Rodrigo Hernandez,Hillsboro,53.52,133.81,77.11,147.42,358.34,Single-ply,SBD,M
Boys,55.79,4,Cody Halcom,Glen Rose,55.7,138.35,68.04,151.95,358.34,Single-ply,SBD,M
Boys,59.87,5,Arrington Holiday,Crowley,55.97,122.47,77.11,113.4,312.98,Single-ply,SBD,M
Boys,55.79,6,Tanner Resecker,Glen Rose,55.16,115.67,70.31,120.2,306.17,Single-ply,SBD,M
Boys,55.79,7,Michael Martinez,Fort Worth Western Hills,55.52,83.91,47.63,120.2,251.74,Single-ply,SBD,M
Boys,55.79,8,Stephen McNaught,Meridian,55.61,83.91,56.7,108.86,249.48,Single-ply,SBD,M
Boys,55.79,DQ,Osvaldo Antunez,Hillsboro,55.25,,83.91,124.74,,Single-ply,SBD,M
Boys,55.79,DQ,Dacion Brown,Fort Worth Arlington Heights,55.79,,,,,Single-ply,SBD,M
Boys,59.87,1,Azahel Herrera,Glen Rose,58.88,167.83,115.67,174.63,458.13,Single-ply,SBD,M
Boys,59.87,2,Jorge Perez,Venus,59.33,185.97,86.18,172.37,444.52,Single-ply,SBD,M
Boys,59.87,3,Bob Johnson,Meridian,58.51,133.81,72.57,142.88,349.27,Single-ply,SBD,M
Boys,59.87,4,Kory Myers,Maypearl,58.92,124.74,72.57,136.08,333.39,Single-ply,SBD,M
Boys,67.13,1,Cesar Herrera,Glen Rose,64.5,199.58,108.86,206.38,514.83,Single-ply,SBD,M
Boys,67.13,2,Armando Castaneda,Hillsboro,66.5,131.54,90.72,161.03,383.29,Single-ply,SBD,M
Boys,67.13,3,John Anderson,Meridian,67.13,145.15,95.25,138.35,378.75,Single-ply,SBD,M
Boys,67.13,4,Brandon Blond,Mansfield Timberview,63.68,154.22,77.11,136.08,367.41,Single-ply,SBD,M
Boys,67.13,5,Colin Miller,Brock,64.23,140.61,77.11,149.69,367.41,Single-ply,SBD,M
Boys,67.13,6,Brayan Antunez,Alvarado,63.96,142.88,65.77,154.22,362.87,Single-ply,SBD,M
Boys,67.13,7,Reme Lopez,Crowley,67.13,115.67,77.11,122.47,315.25,Single-ply,SBD,M
Boys,67.13,8,Donnie Rowe,Alvarado,64.68,104.33,61.23,113.4,278.96,Single-ply,SBD,M
Boys,67.13,9,Martin Hernandez,Venus,65.05,104.33,58.97,115.67,278.96,Single-ply,SBD,M
Boys,67.13,DQ,Keilan Johnson,Fort Worth Arlington Heights,66.22,136.08,,113.4,,Single-ply,SBD,M
Boys,67.13,DQ,Chris Hernandez,Venus,67.13,,,,,Single-ply,SBD,M
Boys,74.84,1,Camry Garner,Hillsboro,74.84,192.78,120.2,206.38,519.36,Single-ply,SBD,M
Boys,74.84,2,Logan Jordan,Fort Worth Western Hills,74.84,154.22,124.74,170.1,449.06,Single-ply,SBD,M
Boys,74.84,3,Anthony Fagbeyiro,Mansfield Timberview,74.12,158.76,95.25,190.51,444.52,Single-ply,SBD,M
Boys,74.84,4,Emmanuel Silva,Venus,73.66,170.1,81.65,174.63,426.38,Single-ply,SBD,M
Boys,74.84,5,Broox Powell,Brock,74.21,154.22,95.25,176.9,426.38,Single-ply,SBD,M
Boys,74.84,6,Jacob Overdirth,Maypearl,69.4,136.08,81.65,149.69,367.41,Single-ply,SBD,M
Boys,74.84,7,Trace Humphreys,Brock,73.39,140.61,65.77,156.49,362.87,Single-ply,SBD,M
Boys,74.84,8,Santos Bazan,Fort Worth Western Hills,71.85,124.74,77.11,142.88,344.73,Single-ply,SBD,M
Boys,74.84,9,Jordan Cirby,Mansfield Timberview,68.22,113.4,68.04,158.76,340.19,Single-ply,SBD,M
Boys,74.84,DQ,Anthony Piganelli,Crowley,73.94,,86.18,145.15,,Single-ply,SBD,M
Boys,74.84,DQ,Eddie Ramirez,Crowley,74.84,,,,,Single-ply,SBD,M
Boys,74.84,DQ,Felix Gandara,Alvarado,74.84,,,,,Single-ply,SBD,M
Boys,74.84,DQ,Jacob Harris,Maypearl,74.84,,,,,Single-ply,SBD,M
Boys,82.1,1,Eduardo Ortiz,Hillsboro,78.56,185.97,99.79,190.51,476.27,Single-ply,SBD,M
Boys,82.1,2,Kully Reynolds,Glen Rose,76.48,181.44,102.06,185.97,469.47,Single-ply,SBD,M
Boys,82.1,3,Jaime Reynoso,Meridian,81.37,176.9,106.59,176.9,460.4,Single-ply,SBD,M
Boys,82.1,4,Chris Flores,Hillsboro,78.74,163.29,99.79,154.22,417.3,Single-ply,SBD,M
Boys,82.1,5,James Vickery,Crowley,78.56,129.27,83.91,165.56,378.75,Single-ply,SBD,M
Boys,82.1,6,Chris Jackson,Hillsboro,78.11,131.54,88.45,149.69,369.68,Single-ply,SBD,M
Boys,82.1,7,Mason Guthrie,Fort Worth Western Hills,77.75,102.06,102.06,129.27,333.39,Single-ply,SBD,M
Boys,82.1,DQ,Logan Hoffman,Brock,78.83,149.69,,,,Single-ply,SBD,M
Boys,82.1,DQ,Carson Langen,Brock,82.1,,,,,Single-ply,SBD,M
Boys,82.1,DQ,Evan Douglas,Fort Worth Western Hills,82.1,,,,,Single-ply,SBD,M
Boys,82.1,DQ,Hunter Proctor,Maypearl,82.1,,,,,Single-ply,SBD,M
Boys,82.1,DQ,Logan Robinson,Maypearl,82.1,,,,,Single-ply,SBD,M
Boys,99.79,1,Michael Coleman,Mansfield Timberview,90.04,199.58,129.27,208.65,537.51,Single-ply,SBD,M
Boys,89.81,2,Jonathan Sanchez,Alvarado,88.99,181.44,117.93,213.19,512.56,Single-ply,SBD,M
Boys,99.79,3,Drannon Brewer,Glen Rose,89.9,201.85,102.06,204.12,508.02,Single-ply,SBD,M
Boys,89.81,4,Kevin Bowie,Fort Worth Arlington Heights,89.18,183.7,138.35,183.7,505.76,Single-ply,SBD,M
Boys,89.81,5,Leonel Hernandez,Alvarado,86.09,199.58,106.59,190.51,496.68,Single-ply,SBD,M
Boys,89.81,6,Raylon Jones,Fort Worth Arlington Heights,88.27,183.7,115.67,183.7,483.08,Single-ply,SBD,M
Boys,89.81,DQ,Jakob Weever,Crowley,89.81,,,,,Single-ply,SBD,M
Boys,89.81,DQ,Jacob Alvarez,Crowley,89.81,,,,,Single-ply,SBD,M
Boys,89.81,DQ,Carlton Dirickson,Maypearl,89.81,,,,,Single-ply,SBD,M
Boys,99.79,1,Heath Nicholson,Glen Rose,96.16,244.94,136.08,254.01,635.03,Single-ply,SBD,M
Boys,99.79,1,Braxton Barrios,Glen Rose,98.88,249.48,136.08,213.19,598.74,Single-ply,SBD,M
Boys,99.79,2,Manuel Murillo,Venus,98.34,240.4,165.56,215.46,621.42,Single-ply,SBD,M
Boys,99.79,3,Corban James,Fort Worth Arlington Heights,97.89,249.48,142.88,210.92,603.28,Single-ply,SBD,M
Boys,99.79,4,Eduardo Cruz,Hillsboro,95.25,258.55,122.47,219.99,601.01,Single-ply,SBD,M
Boys,99.79,5,Miguel Barraza,Glen Rose,95.8,235.87,136.08,217.72,589.67,Single-ply,SBD,M
Boys,99.79,6,Armando Nunez,Venus,91.72,217.72,133.81,208.65,560.19,Single-ply,SBD,M
Boys,99.79,7,Guadalupe Silva,Venus,93.35,197.31,124.74,213.19,535.24,Single-ply,SBD,M
Boys,99.79,8,Sage Boleman,Brock,92.8,161.03,92.99,170.1,424.11,Single-ply,SBD,M
Boys,99.79,9,Ryan Weber,Fort Worth Western Hills,92.71,156.49,83.91,181.44,421.84,Single-ply,SBD,M
Boys,99.79,10,Ezekiel Kealoha,Fort Worth Arlington Heights,91.26,158.76,97.52,138.35,394.63,Single-ply,SBD,M
Boys,99.79,11,Tre Rose,Brock,90.26,165.56,83.91,136.08,385.55,Single-ply,SBD,M
Boys,99.79,12,Emmanel Simuwelu,Fort Worth Western Hills,96.43,102.06,92.99,142.88,337.93,Single-ply,SBD,M
Boys,99.79,DQ,Braxton Fuller,Alvarado,91.9,,131.54,204.12,,Single-ply,SBD,M
Boys,99.79,DQ,Ares Friezawellner,Fort Worth Arlington Heights,99.79,,,,,Single-ply,SBD,M
Boys,99.79,DQ,DeMonte Washington,Crowley,99.79,,,,,Single-ply,SBD,M
Boys,99.79,DQ,Bryant Ly,Maypearl,99.79,,,,,Single-ply,SBD,M
Boys,109.77,2,Sukyennon Bell,Fort Worth Arlington Heights,105.23,231.33,142.88,176.9,551.11,Single-ply,SBD,M
Boys,109.77,3,Matt Willis,Glen Rose,106.41,219.99,117.93,208.65,546.58,Single-ply,SBD,M
Boys,109.77,4,Silas McClatchey,Alvarado,109.77,249.48,136.08,149.69,535.24,Single-ply,SBD,M
Boys,109.77,5,Rogelio Medina,Maypearl,107.05,204.12,131.54,190.51,526.17,Single-ply,SBD,M
Boys,109.77,6,Travis Ferrare,Hillsboro,100.7,127.01,86.18,147.42,360.61,Single-ply,SBD,M
Boys,109.77,DQ,Emmanuel Simuwelu,Fort Worth Western Hills,109.77,,,,,Single-ply,SBD,M
Boys,124.74,1,Ishmael Ramirez,Hillsboro,111.13,213.19,122.47,208.65,544.31,Single-ply,SBD,M
Boys,124.74,2,Zach Perry,Fort Worth Arlington Heights,116.94,195.04,104.33,192.78,492.15,Single-ply,SBD,M
Boys,124.74,3,Doug Lavender,Crowley,112.31,192.78,106.59,188.24,487.61,Single-ply,SBD,M
Boys,124.74,4,Justin Nash,Mansfield Timberview,115.03,163.29,97.52,151.95,412.77,Single-ply,SBD,M
Boys,124.74,5,Dustin Brewer,Maypearl,114.94,102.06,52.16,102.06,256.28,Single-ply,SBD,M
Boys,124.74,DQ,Jack Crowsey,Crowley,124.74,,,,,Single-ply,SBD,M
Boys,124.74,DQ,Patrick Jones,Fort Worth Arlington Heights,124.74,,,,,Single-ply,SBD,M
Boys,124.74+,1,Bryce Johnson #1,Alvarado,144.15,267.62,183.7,208.65,659.98,Single-ply,SBD,M
Boys,124.74+,2,Logan Nuss,Alvarado,136.62,226.8,154.22,208.65,589.67,Single-ply,SBD,M
Boys,124.74+,3,David Garcia,Venus,128.46,197.31,154.22,192.78,544.31,Single-ply,SBD,M
Boys,124.74+,4,Eric Smith,Crowley,169.01,226.8,106.59,199.58,532.97,Single-ply,SBD,M
Boys,124.74+,5,Blake Haynes,Maypearl,130.91,158.76,97.52,192.78,449.06,Single-ply,SBD,M
Boys,124.74+,DQ,Beau Harrell,Brock,126.92,215.46,,174.63,,Single-ply,SBD,M
