Event,Sex,Name,State,WeightClassKg,Division,Best3SquatKg,Best3BenchKg,Best3DeadliftKg,TotalKg,Equipment,Place
B,M,Jerrod Thul,SK,90,Sub-Juniors,,135,,135,Single-ply,1
B,M,Dan Suberlak,SK,140+,Open,,272.5,,272.5,Single-ply,1
B,M,Jeff Butt,SK,100,Open,,210,,210,Single-ply,1
B,M,Aaron Thomas,SK,67.5,Juniors,,100,,100,Single-ply,1
B,M,Ryan Fowler,SK,140+,Juniors,,165,,165,Single-ply,1
B,M,Kyle Waldenburger,SK,110,Juniors,,112.5,,112.5,Single-ply,1
