Division,WeightClassKg,Place,Name,Team,BodyweightKg,Best3SquatKg,Best3BenchKg,Best3DeadliftKg,TotalKg,Equipment,Event,Sex
Boys,55.79,1,Sammy Guadarrama,Abilene Cooper,51.94,124.74,52.16,142.88,319.78,Single-ply,SBD,M
Boys,51.71,2,Jared Clark,Clyde,49.71,113.4,65.77,113.4,292.57,Single-ply,SBD,M
Boys,51.71,3,Damian Delacruz,Abilene Cooper,50.71,106.59,63.5,113.4,283.5,Single-ply,SBD,M
Boys,51.71,4,Fox Talamantes,Abilene,50.21,102.06,58.97,111.13,272.16,Single-ply,SBD,M
Boys,55.79,5,Zach Lambert,Abilene Cooper,51.94,72.57,61.23,61.23,195.04,Single-ply,SBD,M
Boys,51.71,DQ,Matthew Gray,Tuscola Jim Ned,50.53,92.99,,,,Single-ply,SBD,M
Boys,55.79,1,Andrew Craft,Clyde,52.07,124.74,77.11,133.81,335.66,Single-ply,SBD,M
Boys,55.79,2,Austin Perkins,Abilene Cooper,53.07,111.13,70.31,120.2,301.64,Single-ply,SBD,M
Boys,59.87,3,Alec Arredondo,Abilene,55.97,106.59,77.11,108.86,292.57,Single-ply,SBD,M
Boys,55.79,DQ,John Medina,Sweetwater,55.43,79.38,,,,Single-ply,SBD,M
Boys,59.87,1,Jonathan Michaels,Tuscola Jim Ned,56.88,149.69,97.52,149.69,396.89,Single-ply,SBD,M
Boys,59.87,2,Christian Alexander,Tuscola Jim Ned,58.69,142.88,90.72,149.69,383.29,Single-ply,SBD,M
Boys,59.87,3,Ben Lantrip,Tuscola Jim Ned,58.51,127.01,72.57,158.76,358.34,Single-ply,SBD,M
Boys,59.87,4,Bryce Munoz,Anson,58.24,136.08,70.31,140.61,347,Single-ply,SBD,M
Boys,67.13,5,Isaac Ortega,Abilene,60.1,131.54,79.38,124.74,335.66,Single-ply,SBD,M
Boys,59.87,6,Nathan Browning,Clyde,59.06,120.2,79.38,120.2,319.78,Single-ply,SBD,M
Boys,59.87,7,Dylan Logan,Abilene Cooper,59.06,120.2,68.04,131.54,319.78,Single-ply,SBD,M
Boys,67.13,8,Kasey Dean,Abilene,60.06,115.67,65.77,129.27,310.71,Single-ply,SBD,M
Boys,59.87,9,Eric Sowell,Anson,59.51,104.33,54.43,115.67,274.42,Single-ply,SBD,M
Boys,67.13,1,Damen Hersey,Anson,64.77,138.35,77.11,163.29,378.75,Single-ply,SBD,M
Boys,67.13,2,Maurice Johnson,Abilene Cooper,65.86,115.67,83.91,142.88,342.46,Single-ply,SBD,M
Boys,67.13,3,Jacob Cantu,Abilene Cooper,62.96,117.93,79.38,142.88,340.19,Single-ply,SBD,M
Boys,67.13,4,Joel Lozano,Anson,60.15,122.47,68.04,129.27,319.78,Single-ply,SBD,M
Boys,67.13,5,Preston Buquet,Abilene Cooper,62.01,124.74,56.7,124.74,306.17,Single-ply,SBD,M
Boys,67.13,6,Austin Chambers,Clyde,64.41,108.86,70.31,124.74,303.91,Single-ply,SBD,M
Boys,67.13,7,Aaron Graham,Clyde,62.87,104.33,68.04,124.74,297.1,Single-ply,SBD,M
Boys,67.13,DQ,Jacob Contreas,Tuscola Jim Ned,66.32,140.61,,,,Single-ply,SBD,M
Boys,74.84,1,Bray Amos,Sweetwater,73.48,226.8,138.35,210.92,576.06,Single-ply,SBD,M
Boys,74.84,2,Kaleb Moore,Clyde,72.57,158.76,111.13,172.37,442.25,Single-ply,SBD,M
Boys,74.84,3,Matthew Fisher,Tuscola Jim Ned,70.22,151.95,102.06,183.7,437.72,Single-ply,SBD,M
Boys,74.84,4,Joseph Rees,Tuscola Jim Ned,74.75,151.95,81.65,195.04,428.64,Single-ply,SBD,M
Boys,74.84,5,Blake Proctor,Abilene,73.21,156.49,83.91,158.76,399.16,Single-ply,SBD,M
Boys,74.84,6,Chris Jones,Anson,73.75,149.69,86.18,158.76,394.63,Single-ply,SBD,M
Boys,74.84,7,Blayne Keith,Clyde,71.58,136.08,79.38,124.74,340.19,Single-ply,SBD,M
Boys,74.84,DQ,Dawson Faynan,Clyde,74.48,138.35,,,,Single-ply,SBD,M
Boys,74.84,DQ,Jamar Porter,Abilene Cooper,68.72,124.74,,,,Single-ply,SBD,M
Boys,82.1,DQ,Branson Guelker,Sweetwater,74.93,136.08,,,,Single-ply,SBD,M
Boys,82.1,1,Dante Gomez,Clyde,75.3,208.65,124.74,201.85,535.24,Single-ply,SBD,M
Boys,82.1,2,Jacob Sauer,Clyde,78.83,181.44,106.59,181.44,469.47,Single-ply,SBD,M
Boys,82.1,3,Jaime Hernandez,Abilene,80.42,165.56,104.33,185.97,455.86,Single-ply,SBD,M
Boys,82.1,4,Joseph Montgomery,Anson,76.11,170.1,99.79,181.44,451.32,Single-ply,SBD,M
Boys,89.81,5,Leroy Santana,Abilene,82.28,158.76,99.79,176.9,435.45,Single-ply,SBD,M
Boys,82.1,6,Actavius Lowry,Abilene Cooper,82.1,154.22,104.33,158.76,417.3,Single-ply,SBD,M
Boys,82.1,7,Eduardo Marin,Anson,78.38,174.63,83.91,154.22,412.77,Single-ply,SBD,M
Boys,82.1,8,Houston Hance,Abilene Cooper,77.02,138.35,88.45,165.56,392.36,Single-ply,SBD,M
Boys,82.1,9,Noah Flowers,Abilene Cooper,79.11,117.93,68.04,124.74,310.71,Single-ply,SBD,M
Boys,89.81,1,Zach Garcia,Sweetwater,84.28,170.1,111.13,208.65,489.88,Single-ply,SBD,M
Boys,89.81,2,Slayden Hansen,Anson,87.45,170.1,102.06,192.78,464.93,Single-ply,SBD,M
Boys,89.81,3,Dayton Mora,Abilene Cooper,83.73,158.76,90.72,195.04,444.52,Single-ply,SBD,M
Boys,89.81,4,Zach Smith,Abilene Cooper,84.14,158.76,104.33,172.37,435.45,Single-ply,SBD,M
Boys,89.81,5,Ethan Hough,Clyde,86.45,165.56,102.06,165.56,433.18,Single-ply,SBD,M
Boys,89.81,6,Harold Collins,Abilene,88.68,170.1,99.79,163.29,433.18,Single-ply,SBD,M
Boys,89.81,7,Chandlor Smith,Tuscola Jim Ned,84.91,158.76,99.79,151.95,410.5,Single-ply,SBD,M
Boys,89.81,8,Michael Martinez,Abilene,89.22,163.29,83.91,158.76,405.97,Single-ply,SBD,M
Boys,89.81,9,Alex Ryan,Abilene,83.42,161.03,92.99,142.88,396.89,Single-ply,SBD,M
Boys,89.81,10,John Clift,Sweetwater,89.72,124.74,86.18,136.08,347,Single-ply,SBD,M
Boys,89.81,11,Shane Thomas,Clyde,88.36,133.81,72.57,129.27,335.66,Single-ply,SBD,M
Boys,89.81,DQ,Bradon Kesler,Tuscola Jim Ned,82.37,138.35,,,,Single-ply,SBD,M
Boys,99.79,1,David Brown,Abilene,99.79,210.92,145.15,226.8,582.87,Single-ply,SBD,M
Boys,99.79,2,Jon Mathews,Tuscola Jim Ned,99.79,231.33,120.2,226.8,578.33,Single-ply,SBD,M
Boys,99.79,3,Dylan Jimenez,Sweetwater,98.07,204.12,113.4,188.24,505.76,Single-ply,SBD,M
Boys,99.79,4,Blake Parker,Abilene Cooper,93.94,188.24,127.01,170.1,485.34,Single-ply,SBD,M
Boys,99.79,5,Raymond Delgado,Sweetwater,94.17,165.56,124.74,188.24,478.54,Single-ply,SBD,M
Boys,99.79,6,Gabriel Craig,Abilene Cooper,94.3,181.44,102.06,183.7,467.2,Single-ply,SBD,M
Boys,99.79,7,Jonathan Castaneda,Abilene Cooper,97.66,165.56,102.06,195.04,462.66,Single-ply,SBD,M
Boys,99.79,8,Michael Pullen,Abilene Cooper,91.67,170.1,99.79,183.7,453.59,Single-ply,SBD,M
Boys,99.79,9,Matthew Trevino,Abilene,99.02,174.63,104.33,167.83,446.79,Single-ply,SBD,M
Boys,99.79,10,Jax Pimentel,Clyde,92.08,170.1,97.52,158.76,426.38,Single-ply,SBD,M
Boys,99.79,11,Tye Landeros,Tuscola Jim Ned,95.62,181.44,90.72,151.95,424.11,Single-ply,SBD,M
Boys,109.77,12,Justin Johnson,Sweetwater,99.88,147.42,74.84,151.95,374.21,Single-ply,SBD,M
Boys,99.79,13,Zack Thompson,Abilene,92.58,158.76,74.84,111.13,344.73,Single-ply,SBD,M
Boys,99.79,DQ,Logan Bross,Abilene,99.61,161.03,83.91,,,Single-ply,SBD,M
Boys,109.77,1,Lane Pickett,Hawley,102.33,285.76,147.42,240.4,673.58,Single-ply,SBD,M
Boys,109.77,2,Haddan Stokes,Clyde,106.96,272.16,165.56,226.8,664.51,Single-ply,SBD,M
Boys,109.77,3,Damian Guevara,Abilene,105.51,222.26,151.95,188.24,562.45,Single-ply,SBD,M
Boys,109.77,4,Robert Bellman,Abilene Cooper,104.01,192.78,113.4,204.12,510.29,Single-ply,SBD,M
Boys,124.74,5,Walker Akers,Abilene Cooper,109.86,197.31,108.86,188.24,494.42,Single-ply,SBD,M
Boys,109.77,6,Jonathon Arrieta,Anson,100.61,195.04,92.99,185.97,474,Single-ply,SBD,M
Boys,109.77,7,Cade Schwandner,Clyde,100.79,142.88,81.65,145.15,369.68,Single-ply,SBD,M
Boys,109.77,DQ,Collin Gardner,Anson,106.05,,,,,Single-ply,SBD,M
Boys,109.77,DQ,Ronnell Wilson,Abilene,108.86,242.67,136.08,,,Single-ply,SBD,M
Boys,124.74,1,Dawson Worgull,Abilene,113.81,244.94,124.74,204.12,573.79,Single-ply,SBD,M
Boys,124.74,2,Slayde Anderson,Abilene,122.52,226.8,129.27,204.12,560.19,Single-ply,SBD,M
Boys,124.74,3,Noah Perez,Abilene,114.4,197.31,142.88,174.63,514.83,Single-ply,SBD,M
Boys,124.74,4,John Arellano,Abilene Cooper,114.53,188.24,111.13,174.63,474,Single-ply,SBD,M
Boys,124.74,5,Tanner Underwood,Tuscola Jim Ned,116.12,188.24,108.86,170.1,467.2,Single-ply,SBD,M
Boys,124.74,6,Anthony Arrellano,Abilene Cooper,111.31,179.17,102.06,183.7,464.93,Single-ply,SBD,M
Boys,124.74,7,Jayton Voss,Abilene,120.02,176.9,97.52,151.95,426.38,Single-ply,SBD,M
Boys,124.74+,1,Jesus Verastegui,Abilene,154.81,294.84,161.03,231.33,687.19,Single-ply,SBD,M
Boys,124.74+,2,Evan Tate,Tuscola Jim Ned,141.7,240.4,145.15,240.4,625.96,Single-ply,SBD,M
Boys,124.74+,3,Ruben Leija,Abilene,131.59,192.78,131.54,201.85,526.17,Single-ply,SBD,M
Boys,124.74+,4,Marquise Lyons,Abilene,128,181.44,102.06,167.83,451.32,Single-ply,SBD,M
Boys,,NS,Christian Garcia,Anson,,,,,,Single-ply,SBD,M
Boys,,NS,Junior Lawhon,Sweetwater,,,,,,Single-ply,SBD,M
