Division,WeightClassKg,Place,Name,Team,BodyweightKg,Best3SquatKg,Best3BenchKg,Best3DeadliftKg,TotalKg,Equipment,Event,Sex
Boys,51.71,1,Everardo Garcia,Roma,51.17,154.22,86.18,167.83,408.23,Single-ply,SBD,M
Boys,51.71,2,John Ortega,Mercedes,47.26,142.88,83.91,147.42,374.21,Single-ply,SBD,M
Boys,51.71,3,Damian Gonzalez,Roma,51.71,136.08,79.38,140.61,356.07,Single-ply,SBD,M
Boys,51.71,4,Dustin Repass,Lyford,41.37,70.31,24.95,81.65,176.9,Single-ply,SBD,M
Boys,51.71,DQ,Héctor Ramírez,Roma,47.99,92.99,,,,Single-ply,SBD,M
Boys,55.79,1,Tyler Salazar,Donna,55.25,165.56,99.79,170.1,435.45,Single-ply,SBD,M
Boys,55.79,2,Albert Gonzalez,Pharr Valley View,55.79,147.42,88.45,167.83,403.7,Single-ply,SBD,M
Boys,55.79,3,Rolando Flores,Roma,52.62,131.54,68.04,131.54,331.12,Single-ply,SBD,M
Boys,55.79,4,Austin Quiroga,Lyford,52.62,104.33,52.16,108.86,265.35,Single-ply,SBD,M
Boys,55.79,DQ,Daniel Jeronimo,Hidalgo Early College,55.25,,,,,Single-ply,SBD,M
Boys,59.87,1,Aaron Lozano,Edinburg Quest College Prep,59.51,172.37,90.72,185.97,449.06,Single-ply,SBD,M
Boys,59.87,2,Josh Gonzalez,Weslaco East,59.24,165.56,92.99,183.7,442.25,Single-ply,SBD,M
Boys,59.87,3,Mark Ortega,Mercedes,56.34,165.56,102.06,172.37,439.98,Single-ply,SBD,M
Boys,59.87,4,Luis Sanchez,Pharr Valley View,59.87,163.29,108.86,167.83,439.98,Single-ply,SBD,M
Boys,59.87,5,Danny Garcia,Edinburg Quest College Prep,59.42,147.42,97.52,165.56,410.5,Single-ply,SBD,M
Boys,59.87,6,Matthew Randall,Edinburg Quest College Prep,59.69,151.95,95.25,147.42,394.63,Single-ply,SBD,M
Boys,59.87,7,Tyler McClaugherty,Lyford,56.97,129.27,68.04,136.08,333.39,Single-ply,SBD,M
Boys,59.87,8,Ramiro Rodriguez,Donna North,58.6,120.2,52.16,142.88,315.25,Single-ply,SBD,M
Boys,59.87,9,Randall de Leon,Lyford,58.51,92.99,58.97,117.93,269.89,Single-ply,SBD,M
Boys,59.87,10,Valentin Rosas,Lyford,57.06,99.79,52.16,104.33,256.28,Single-ply,SBD,M
Boys,67.13,1,Ricky Ortiz,Edcouch-Elsa,65.68,272.16,149.69,240.4,662.24,Single-ply,SBD,M
Boys,67.13,2,Marcos Chavez,Lyford,64.41,201.85,120.2,242.67,564.72,Single-ply,SBD,M
Boys,67.13,3,Freddy Gonzalez,Weslaco East,67.13,192.78,142.88,199.58,535.24,Single-ply,SBD,M
Boys,67.13,4,Jose Moreno,Roma,66.59,183.7,92.99,183.7,460.4,Single-ply,SBD,M
Boys,67.13,5,Josh Martinez,Hidalgo Early College,63.23,165.56,97.52,165.56,428.64,Single-ply,SBD,M
Boys,67.13,6,Jose Soto,Pharr Valley View,67.09,174.63,88.45,149.69,412.77,Single-ply,SBD,M
Boys,67.13,7,Raven Figueroa,Weslaco East,65.41,147.42,92.99,165.56,405.97,Single-ply,SBD,M
Boys,67.13,8,Jon Animas,Weslaco East,62.96,131.54,72.57,163.29,367.41,Single-ply,SBD,M
Boys,67.13,9,Robert Rviera,La Villa,61.6,147.42,68.04,136.08,351.53,Single-ply,SBD,M
Boys,74.84,1,Adam Walle,Edcouch-Elsa,74.84,233.6,145.15,238.14,616.89,Single-ply,SBD,M
Boys,74.84,2,Jorge Cavazos,Mercedes,73.39,229.06,136.08,222.26,587.4,Single-ply,SBD,M
Boys,74.84,3,Troy de la Garza,La Feria,74.03,172.37,113.4,201.85,487.61,Single-ply,SBD,M
Boys,74.84,4,Isaac Galvan,Weslaco East,69.67,158.76,106.59,210.92,476.27,Single-ply,SBD,M
Boys,74.84,5,Damian Gutierrez,Roma,74.84,167.83,122.47,176.9,467.2,Single-ply,SBD,M
Boys,74.84,6,Alex Benavidas,Donna North,74.3,185.97,99.79,172.37,458.13,Single-ply,SBD,M
Boys,74.84,7,Jose Guerra,Weslaco East,67.86,142.88,106.59,188.24,437.72,Single-ply,SBD,M
Boys,74.84,8,Juan Jaramillo,Donna North,74.21,174.63,92.99,170.1,437.72,Single-ply,SBD,M
Boys,74.84,9,Roy Cuellar,Hidalgo Early College,72.94,188.24,88.45,154.22,430.91,Single-ply,SBD,M
Boys,74.84,10,Brandon Adame,Mercedes,70.94,145.15,83.91,165.56,394.63,Single-ply,SBD,M
Boys,74.84,11,Raymond Castro,Lyford,67.86,131.54,72.57,145.15,349.27,Single-ply,SBD,M
Boys,74.84,DQ,Jaime Garcia,Mercedes,73.3,,,,,Single-ply,SBD,M
Boys,74.84,DQ,Michael Zamora,Pharr Valley View,74.75,,,,,Single-ply,SBD,M
Boys,74.84,DQ,Christian Avila,Weslaco East,71.58,188.24,,,,Single-ply,SBD,M
Boys,82.1,1,Frank Moreno,Lyford,79.83,226.8,124.74,258.55,610.08,Single-ply,SBD,M
Boys,82.1,2,Jose Guzman,Donna,81.74,240.4,127.01,238.14,605.55,Single-ply,SBD,M
Boys,82.1,3,Simon Fernandez,Pharr Valley View,81.96,229.06,129.27,224.53,582.87,Single-ply,SBD,M
Boys,82.1,4,Christian Cortina,Donna North,82.1,215.46,115.67,215.46,546.58,Single-ply,SBD,M
Boys,82.1,5,Jacob Perez,Edcouch-Elsa,81.28,213.19,117.93,213.19,544.31,Single-ply,SBD,M
Boys,82.1,6,Armando Sanchez,Donna North,80.1,195.04,102.06,201.85,498.95,Single-ply,SBD,M
Boys,82.1,7,Irvin Castro,La Feria,79.47,170.1,115.67,204.12,489.88,Single-ply,SBD,M
Boys,82.1,8,Ruben Chavero,Donna,80.29,197.31,113.4,174.63,485.34,Single-ply,SBD,M
Boys,82.1,9,Miguel Martinez,Hidalgo Early College,82.1,165.56,136.08,181.44,483.08,Single-ply,SBD,M
Boys,82.1,10,Jaime Montoya,Lyford,82.1,185.97,97.52,195.04,478.54,Single-ply,SBD,M
Boys,82.1,11,Leroy Luna,La Villa,78.47,183.7,120.2,165.56,469.47,Single-ply,SBD,M
Boys,82.1,12,Kristopher Camacho,Pharr Valley View,82.1,147.42,113.4,185.97,446.79,Single-ply,SBD,M
Boys,89.81,1,Ernesto Preciado,Pharr Valley View,88.22,254.01,158.76,231.33,644.1,Single-ply,SBD,M
Boys,89.81,2,Gabriel Salinas,Donna,89.81,256.28,120.2,231.33,607.81,Single-ply,SBD,M
Boys,89.81,3,Hector Palencia,Donna,89.09,272.16,117.93,213.19,603.28,Single-ply,SBD,M
Boys,89.81,4,Carlo Vargas,Donna North,88.27,219.99,120.2,233.6,573.79,Single-ply,SBD,M
Boys,89.81,5,Jose Gandaria,Donna North,89.81,201.85,111.13,188.24,501.22,Single-ply,SBD,M
Boys,89.81,6,Tony Gil,Edcouch-Elsa,88.72,199.58,124.74,172.37,496.68,Single-ply,SBD,M
Boys,89.81,7,Erick Rangel,La Feria,86.27,185.97,106.59,163.29,455.86,Single-ply,SBD,M
Boys,89.81,8,Luis Avila,Roma,89.81,192.78,99.79,161.03,453.59,Single-ply,SBD,M
Boys,89.81,9,Jose Lugo,La Feria,88.54,172.37,108.86,170.1,451.32,Single-ply,SBD,M
Boys,89.81,10,Esteban Guerrero,Donna North,89.81,147.42,102.06,170.1,419.57,Single-ply,SBD,M
Boys,89.81,11,Rowdy Pena,Mercedes,82.64,61.23,43.09,61.23,165.56,Single-ply,SBD,M
Boys,89.81,DQ,Juan Arteaga,Hidalgo Early College,86.27,192.78,97.52,,,Single-ply,SBD,M
Boys,99.79,1,Joel Garcia,Pharr Valley View,99.29,258.55,136.08,267.62,662.24,Single-ply,SBD,M
Boys,99.79,2,Nate Vallejo,Edcouch-Elsa,98.07,242.67,158.76,233.6,635.03,Single-ply,SBD,M
Boys,99.79,3,Arturo Alvarado,La Feria,98.43,249.48,156.49,222.26,628.23,Single-ply,SBD,M
Boys,99.79,4,Issac Rangel,Donna,99.52,263.08,127.01,210.92,601.01,Single-ply,SBD,M
Boys,99.79,5,Ryan Perales,Donna,97.61,240.4,158.76,195.04,594.21,Single-ply,SBD,M
Boys,99.79,6,Freddy Lozano,La Feria,92.9,215.46,142.88,204.12,562.45,Single-ply,SBD,M
Boys,99.79,7,Fabian Martinez,Donna North,99.25,249.48,122.47,190.51,562.45,Single-ply,SBD,M
Boys,99.79,8,Emmanuel Cepeda,Lyford,98.16,226.8,115.67,190.51,532.97,Single-ply,SBD,M
Boys,99.79,9,Robert Ramos,Roma,99.61,219.99,99.79,197.31,517.1,Single-ply,SBD,M
Boys,99.79,10,Angel Reyes,Hidalgo Early College,98.34,176.9,129.27,188.24,494.42,Single-ply,SBD,M
Boys,99.79,11,Alfonso Cerda,Donna North,98.25,183.7,108.86,197.31,489.88,Single-ply,SBD,M
Boys,99.79,12,George Garcia,La Feria,94.35,183.7,102.06,183.7,469.47,Single-ply,SBD,M
Boys,109.77,1,Cody Alvarado,Edcouch-Elsa,109.32,331.12,206.38,265.35,802.86,Single-ply,SBD,M
Boys,109.77,2,Enrique Guajardo,Pharr Valley View,107.91,244.94,142.88,231.33,619.15,Single-ply,SBD,M
Boys,109.77,3,Jose Ramirez,La Villa,107.41,272.16,165.56,163.29,601.01,Single-ply,SBD,M
Boys,109.77,4,Angel Guiterrez,Pharr Valley View,107.41,235.87,140.61,213.19,589.67,Single-ply,SBD,M
Boys,109.77,5,Rogelio Rada,Donna,109.77,217.72,138.35,226.8,582.87,Single-ply,SBD,M
Boys,109.77,6,JR Salinas,Mercedes,106.96,238.14,142.88,192.78,573.79,Single-ply,SBD,M
Boys,109.77,7,Cordell Cabrera,Edcouch-Elsa,109.68,226.8,108.86,206.38,542.04,Single-ply,SBD,M
Boys,109.77,8,Diego Montoya,Roma,108.59,206.38,129.27,176.9,512.56,Single-ply,SBD,M
Boys,109.77,9,Laurencio Lopez,Roma,105.51,190.51,113.4,204.12,508.02,Single-ply,SBD,M
Boys,109.77,10,Nick Rojas,Donna,106.5,210.92,113.4,167.83,492.15,Single-ply,SBD,M
Boys,109.77,DQ,Jose Jimenez,Donna North,106.68,231.33,,,,Single-ply,SBD,M
Boys,124.74,1,Jorge Soto,Edcouch-Elsa,124.74,301.64,215.46,244.94,762.04,Single-ply,SBD,M
Boys,124.74,2,Imanol Rodriguez,Edcouch-Elsa,118.75,288.03,167.83,240.4,696.26,Single-ply,SBD,M
Boys,124.74,3,Arturo Guevara,La Feria,112.49,263.08,161.03,249.48,673.58,Single-ply,SBD,M
Boys,124.74,4,Andrew Mendoza,Weslaco East,120.11,272.16,183.7,210.92,666.78,Single-ply,SBD,M
Boys,124.74,5,Jarek Gonzalez,Hidalgo Early College,118.39,265.35,136.08,215.46,616.89,Single-ply,SBD,M
Boys,124.74,6,Julian Diaz,Donna,112.58,242.67,117.93,235.87,596.47,Single-ply,SBD,M
Boys,124.74,7,Alexis Gil,Weslaco East,123.65,226.8,136.08,215.46,578.33,Single-ply,SBD,M
Boys,124.74,8,Carlos Garza,Roma,114.94,204.12,133.81,179.17,517.1,Single-ply,SBD,M
Boys,124.74,DQ,Austin Contreras,Lyford,120.38,183.7,,,,Single-ply,SBD,M
Boys,124.74+,1,Justin Garcia,Lyford,137.44,272.16,170.1,251.74,694,Single-ply,SBD,M
Boys,124.74+,2,Bobby Gonzalez,Edcouch-Elsa,130.09,269.89,167.83,215.46,653.17,Single-ply,SBD,M
Boys,124.74+,3,Danny Melendez,Mercedes,125.65,294.84,147.42,208.65,650.91,Single-ply,SBD,M
Boys,124.74+,4,Roger Arenas,Donna,134.22,222.26,97.52,167.83,487.61,Single-ply,SBD,M
